{
  "name" : "Achievement_Category",
  "build" : 26231,
  "fields" : [ {
    "name" : "Name",
    "type" : "string",
    "index" : false,
    "arraySize" : 1
  }, {
    "name" : "Parent",
    "type" : "ushort",
    "index" : false,
    "arraySize" : 1
  }, {
    "name" : "UiOrder",
    "type" : "byte",
    "index" : false,
    "arraySize" : 1
  }, {
    "name" : "ID",
    "type" : "int",
    "index" : true,
    "arraySize" : 1
  } ]
}