{
  "name" : "Achievement",
  "build" : 24793,
  "fields" : [ {
    "name" : "ID",
    "type" : "int",
    "index" : true,
    "arraySize" : 1
  }, {
    "name" : "Data",
    "type" : "string",
    "index" : false,
    "arraySize" : 1
  }, {
    "name" : "Flags",
    "type" : "uint",
    "index" : false,
    "arraySize" : 1
  }, {
    "name" : "Reward",
    "type" : "string",
    "index" : false,
    "arraySize" : 1
  }, {
    "name" : "Instance_Id",
    "type" : "short",
    "index" : false,
    "arraySize" : 1
  }, {
    "name" : "Supercedes",
    "type" : "ushort",
    "index" : false,
    "arraySize" : 1
  }, {
    "name" : "Category",
    "type" : "ushort",
    "index" : false,
    "arraySize" : 1
  }, {
    "name" : "Ui_Order",
    "type" : "ushort",
    "index" : false,
    "arraySize" : 1
  }, {
    "name" : "SharesCriteria",
    "type" : "ushort",
    "index" : false,
    "arraySize" : 1
  }, {
    "name" : "Faction",
    "type" : "sbyte",
    "index" : false,
    "arraySize" : 1
  }, {
    "name" : "Points",
    "type" : "byte",
    "index" : false,
    "arraySize" : 1
  }, {
    "name" : "MinCriteria",
    "type" : "byte",
    "index" : false,
    "arraySize" : 1
  }, {
    "name" : "Ingame_Id",
    "type" : "short",
    "index" : false,
    "arraySize" : 1
  }, {
    "name" : "IconId",
    "type" : "byte",
    "index" : false,
    "arraySize" : 1
  }, {
    "name" : "CategoryId",
    "type" : "short",
    "index" : false,
    "arraySize" : 1
  } ]
}