{
  "name" : "Achievement",
  "build" : 12340,
  "fields" : [ {
    "name" : "ID",
    "type" : "int",
    "index" : true,
    "arraySize" : 1
  }, {
    "name" : "Faction",
    "type" : "int",
    "index" : false,
    "arraySize" : 1
  }, {
    "name" : "Instance_Id",
    "type" : "int",
    "index" : false,
    "arraySize" : 1
  }, {
    "name" : "Supercedes",
    "type" : "int",
    "index" : false,
    "arraySize" : 1
  }, {
    "name" : "Title_Lang",
    "type" : "loc",
    "index" : false,
    "arraySize" : 1
  }, {
    "name" : "Description_Lang",
    "type" : "loc",
    "index" : false,
    "arraySize" : 1
  }, {
    "name" : "Category",
    "type" : "int",
    "index" : false,
    "arraySize" : 1
  }, {
    "name" : "Points",
    "type" : "int",
    "index" : false,
    "arraySize" : 1
  }, {
    "name" : "Ui_Order",
    "type" : "int",
    "index" : false,
    "arraySize" : 1
  }, {
    "name" : "Flags",
    "type" : "int",
    "index" : false,
    "arraySize" : 1
  }, {
    "name" : "IconID",
    "type" : "int",
    "index" : false,
    "arraySize" : 1
  }, {
    "name" : "Reward_Lang",
    "type" : "loc",
    "index" : false,
    "arraySize" : 1
  }, {
    "name" : "Minimum_Criteria",
    "type" : "int",
    "index" : false,
    "arraySize" : 1
  }, {
    "name" : "Shares_Criteria",
    "type" : "int",
    "index" : false,
    "arraySize" : 1
  } ]
}