{
  "name" : "Achievement",
  "build" : 26231,
  "fields" : [ {
    "name" : "Title",
    "type" : "string",
    "index" : false,
    "arraySize" : 1
  }, {
    "name" : "Description",
    "type" : "string",
    "index" : false,
    "arraySize" : 1
  }, {
    "name" : "Reward",
    "type" : "string",
    "index" : false,
    "arraySize" : 1
  }, {
    "name" : "Flags",
    "type" : "int",
    "index" : false,
    "arraySize" : 1
  }, {
    "name" : "InstanceId",
    "type" : "ushort",
    "index" : false,
    "arraySize" : 1
  }, {
    "name" : "Supercedes",
    "type" : "ushort",
    "index" : false,
    "arraySize" : 1
  }, {
    "name" : "Category",
    "type" : "ushort",
    "index" : false,
    "arraySize" : 1
  }, {
    "name" : "UiOrder",
    "type" : "ushort",
    "index" : false,
    "arraySize" : 1
  }, {
    "name" : "SharesCriteria",
    "type" : "ushort",
    "index" : false,
    "arraySize" : 1
  }, {
    "name" : "Faction",
    "type" : "byte",
    "index" : false,
    "arraySize" : 1
  }, {
    "name" : "Points",
    "type" : "byte",
    "index" : false,
    "arraySize" : 1
  }, {
    "name" : "MinimumCriteria",
    "type" : "byte",
    "index" : false,
    "arraySize" : 1
  }, {
    "name" : "ID",
    "type" : "int",
    "index" : true,
    "arraySize" : 1
  }, {
    "name" : "IconFileId",
    "type" : "int",
    "index" : false,
    "arraySize" : 1
  }, {
    "name" : "CriteriaTree",
    "type" : "int",
    "index" : false,
    "arraySize" : 1
  } ]
}