{
  "name" : "Achievement",
  "build" : 15595,
  "fields" : [ {
    "name" : "ID",
    "type" : "int",
    "index" : true,
    "arraySize" : 1
  }, {
    "name" : "FactionFlag",
    "type" : "int",
    "index" : false,
    "arraySize" : 1
  }, {
    "name" : "MapId",
    "type" : "int",
    "index" : false,
    "arraySize" : 1
  }, {
    "name" : "ParentAchievement",
    "type" : "uint",
    "index" : false,
    "arraySize" : 1
  }, {
    "name" : "Name",
    "type" : "string",
    "index" : false,
    "arraySize" : 1
  }, {
    "name" : "Description",
    "type" : "string",
    "index" : false,
    "arraySize" : 1
  }, {
    "name" : "CategoryId",
    "type" : "uint",
    "index" : false,
    "arraySize" : 1
  }, {
    "name" : "RewardPoints",
    "type" : "uint",
    "index" : false,
    "arraySize" : 1
  }, {
    "name" : "OrderInCategory",
    "type" : "uint",
    "index" : false,
    "arraySize" : 1
  }, {
    "name" : "Flags",
    "type" : "uint",
    "index" : false,
    "arraySize" : 1
  }, {
    "name" : "IconId",
    "type" : "uint",
    "index" : false,
    "arraySize" : 1
  }, {
    "name" : "Reward",
    "type" : "string",
    "index" : false,
    "arraySize" : 1
  }, {
    "name" : "ReqCriteriasCount",
    "type" : "uint",
    "index" : false,
    "arraySize" : 1
  }, {
    "name" : "RefAchievement",
    "type" : "uint",
    "index" : false,
    "arraySize" : 1
  } ]
}