{
  "name" : "AdventureJournal",
  "build" : 23835,
  "fields" : [ {
    "name" : "ID",
    "type" : "int",
    "index" : true,
    "arraySize" : 1
  }, {
    "name" : "Field04",
    "type" : "string",
    "index" : false,
    "arraySize" : 1
  }, {
    "name" : "Field08",
    "type" : "string",
    "index" : false,
    "arraySize" : 1
  }, {
    "name" : "Field0C",
    "type" : "string",
    "index" : false,
    "arraySize" : 1
  }, {
    "name" : "Field10",
    "type" : "uint",
    "index" : false,
    "arraySize" : 1
  }, {
    "name" : "Field14",
    "type" : "uint",
    "index" : false,
    "arraySize" : 1
  }, {
    "name" : "Field18",
    "type" : "string",
    "index" : false,
    "arraySize" : 1
  }, {
    "name" : "Field1C",
    "type" : "string",
    "index" : false,
    "arraySize" : 1
  }, {
    "name" : "Field20",
    "type" : "ushort",
    "index" : false,
    "arraySize" : 1
  }, {
    "name" : "Field22",
    "type" : "ushort",
    "index" : false,
    "arraySize" : 1
  }, {
    "name" : "Field24",
    "type" : "ushort",
    "index" : false,
    "arraySize" : 1
  }, {
    "name" : "Field26",
    "type" : "ushort",
    "index" : false,
    "arraySize" : 1
  }, {
    "name" : "Field2A",
    "type" : "ushort",
    "index" : false,
    "arraySize" : 1
  }, {
    "name" : "Field2C",
    "type" : "ushort",
    "index" : false,
    "arraySize" : 1
  }, {
    "name" : "Field2E",
    "type" : "byte",
    "index" : false,
    "arraySize" : 1
  }, {
    "name" : "Field2F",
    "type" : "byte",
    "index" : false,
    "arraySize" : 1
  }, {
    "name" : "Field30",
    "type" : "byte",
    "index" : false,
    "arraySize" : 1
  }, {
    "name" : "Field31",
    "type" : "byte",
    "index" : false,
    "arraySize" : 1
  }, {
    "name" : "Field32",
    "type" : "byte",
    "index" : false,
    "arraySize" : 1
  }, {
    "name" : "Field33",
    "type" : "byte",
    "index" : false,
    "arraySize" : 1
  }, {
    "name" : "Field35",
    "type" : "byte",
    "index" : false,
    "arraySize" : 1
  }, {
    "name" : "Field36",
    "type" : "ushort",
    "index" : false,
    "arraySize" : 1
  }, {
    "name" : "Field38",
    "type" : "byte",
    "index" : false,
    "arraySize" : 1
  } ]
}