{
  "name" : "AdventureMapPOI",
  "build" : 24793,
  "fields" : [ {
    "name" : "ID",
    "type" : "int",
    "index" : true,
    "arraySize" : 1
  }, {
    "name" : "Field04",
    "type" : "float",
    "index" : false,
    "arraySize" : 1
  }, {
    "name" : "Field0C",
    "type" : "uint",
    "index" : false,
    "arraySize" : 1
  }, {
    "name" : "Field10",
    "type" : "string",
    "index" : false,
    "arraySize" : 1
  }, {
    "name" : "Field14",
    "type" : "string",
    "index" : false,
    "arraySize" : 1
  }, {
    "name" : "Field18",
    "type" : "byte",
    "index" : false,
    "arraySize" : 1
  }, {
    "name" : "Field19",
    "type" : "ushort",
    "index" : false,
    "arraySize" : 1
  }, {
    "name" : "Field1B",
    "type" : "ushort",
    "index" : false,
    "arraySize" : 1
  }, {
    "name" : "Field1D",
    "type" : "byte",
    "index" : false,
    "arraySize" : 1
  }, {
    "name" : "Field1E",
    "type" : "ushort",
    "index" : false,
    "arraySize" : 1
  }, {
    "name" : "Field20",
    "type" : "byte",
    "index" : false,
    "arraySize" : 1
  }, {
    "name" : "Field21",
    "type" : "ushort",
    "index" : false,
    "arraySize" : 1
  }, {
    "name" : "Field23",
    "type" : "ushort",
    "index" : false,
    "arraySize" : 1
  }, {
    "name" : "Field25",
    "type" : "ushort",
    "index" : false,
    "arraySize" : 1
  } ]
}