{
  "name" : "AnimKitConfigBoneSet",
  "build" : 12340,
  "fields" : [ {
    "name" : "ID",
    "type" : "int",
    "index" : true,
    "arraySize" : 1
  }, {
    "name" : "ParentAnimKitConfigID",
    "type" : "int",
    "index" : false,
    "arraySize" : 1
  }, {
    "name" : "AnimKitBoneSetID",
    "type" : "int",
    "index" : false,
    "arraySize" : 1
  }, {
    "name" : "AnimKitPriorityID",
    "type" : "int",
    "index" : false,
    "arraySize" : 1
  } ]
}