{
  "name" : "AnimationData",
  "build" : 18414,
  "fields" : [ {
    "name" : "ID",
    "type" : "int",
    "index" : true,
    "arraySize" : 1
  }, {
    "name" : "Name",
    "type" : "string",
    "index" : false,
    "arraySize" : 1
  }, {
    "name" : "Flags",
    "type" : "int",
    "index" : false,
    "arraySize" : 1
  }, {
    "name" : "Fallback",
    "type" : "int",
    "index" : false,
    "arraySize" : 1
  }, {
    "name" : "BehaviorID",
    "type" : "int",
    "index" : false,
    "arraySize" : 1
  }, {
    "name" : "BehaviorTier",
    "type" : "int",
    "index" : false,
    "arraySize" : 1
  } ]
}