{
  "name" : "AnimationData",
  "build" : 8606,
  "fields" : [ {
    "name" : "ID",
    "type" : "int",
    "index" : true,
    "arraySize" : 1
  }, {
    "name" : "Name",
    "type" : "string",
    "index" : false,
    "arraySize" : 1
  }, {
    "name" : "WeaponFlags",
    "type" : "int",
    "index" : false,
    "arraySize" : 1
  }, {
    "name" : "BodyFlags",
    "type" : "int",
    "index" : false,
    "arraySize" : 1
  }, {
    "name" : "Flags",
    "type" : "int",
    "index" : false,
    "arraySize" : 1
  }, {
    "name" : "Fallback",
    "type" : "int",
    "index" : false,
    "arraySize" : 1
  }, {
    "name" : "BehaviourID",
    "type" : "int",
    "index" : false,
    "arraySize" : 1
  } ]
}