{
  "name" : "AnimKitBoneSet",
  "build" : 12340,
  "fields" : [ {
    "name" : "ID",
    "type" : "int",
    "index" : true,
    "arraySize" : 1
  }, {
    "name" : "Name",
    "type" : "string",
    "index" : false,
    "arraySize" : 1
  }, {
    "name" : "BoneDataID",
    "type" : "int",
    "index" : false,
    "arraySize" : 1
  }, {
    "name" : "ParentAnimKitBoneSetID",
    "type" : "int",
    "index" : false,
    "arraySize" : 1
  }, {
    "name" : "ExtraBoneCount",
    "type" : "int",
    "index" : false,
    "arraySize" : 1
  }, {
    "name" : "AltAnimKitBoneSetID",
    "type" : "int",
    "index" : false,
    "arraySize" : 1
  } ]
}