{
  "name" : "AnimKit",
  "build" : 24793,
  "fields" : [ {
    "name" : "ID",
    "type" : "int",
    "index" : true,
    "arraySize" : 1
  }, {
    "name" : "OneShotDuration",
    "type" : "uint",
    "index" : false,
    "arraySize" : 1
  }, {
    "name" : "OneShotStopAnimKitID",
    "type" : "ushort",
    "index" : false,
    "arraySize" : 1
  }, {
    "name" : "LowDefAnimKitID",
    "type" : "ushort",
    "index" : false,
    "arraySize" : 1
  } ]
}