{
  "name" : "AreaGroupMember",
  "build" : 22578,
  "fields" : [ {
    "name" : "ID",
    "type" : "int",
    "index" : true,
    "arraySize" : 1
  }, {
    "name" : "Field00",
    "type" : "ushort",
    "index" : false,
    "arraySize" : 1
  }, {
    "name" : "Field02",
    "type" : "ushort",
    "index" : false,
    "arraySize" : 1
  } ]
}