{
  "name" : "AreaTable",
  "build" : 26231,
  "fields" : [ {
    "name" : "ID",
    "type" : "int",
    "index" : true,
    "arraySize" : 1
  }, {
    "name" : "ZoneName",
    "type" : "string",
    "index" : false,
    "arraySize" : 1
  }, {
    "name" : "AreaName",
    "type" : "string",
    "index" : false,
    "arraySize" : 1
  }, {
    "name" : "Flags",
    "type" : "uint",
    "index" : false,
    "arraySize" : 1
  }, {
    "name" : "AmbientMultiplier",
    "type" : "float",
    "index" : false,
    "arraySize" : 1
  }, {
    "name" : "ContinentId",
    "type" : "ushort",
    "index" : false,
    "arraySize" : 1
  }, {
    "name" : "ParentAreaId",
    "type" : "ushort",
    "index" : false,
    "arraySize" : 1
  }, {
    "name" : "AreaBit",
    "type" : "ushort",
    "index" : false,
    "arraySize" : 1
  }, {
    "name" : "AmbienceId",
    "type" : "ushort",
    "index" : false,
    "arraySize" : 1
  }, {
    "name" : "ZoneMusic",
    "type" : "ushort",
    "index" : false,
    "arraySize" : 1
  }, {
    "name" : "IntroSound",
    "type" : "ushort",
    "index" : false,
    "arraySize" : 1
  }, {
    "name" : "LiquidTypeId",
    "type" : "ushort",
    "index" : false,
    "arraySize" : 1
  }, {
    "name" : "UwZoneMusic",
    "type" : "ushort",
    "index" : false,
    "arraySize" : 1
  }, {
    "name" : "UwAmbience",
    "type" : "ushort",
    "index" : false,
    "arraySize" : 1
  }, {
    "name" : "PvpCombatWorldStateId",
    "type" : "ushort",
    "index" : false,
    "arraySize" : 1
  }, {
    "name" : "SoundProviderPref",
    "type" : "byte",
    "index" : false,
    "arraySize" : 1
  }, {
    "name" : "SoundProviderPrefUnderwater",
    "type" : "byte",
    "index" : false,
    "arraySize" : 1
  }, {
    "name" : "ExplorationLevel",
    "type" : "byte",
    "index" : false,
    "arraySize" : 1
  }, {
    "name" : "FactionGroupMask",
    "type" : "byte",
    "index" : false,
    "arraySize" : 1
  }, {
    "name" : "MountFlags",
    "type" : "byte",
    "index" : false,
    "arraySize" : 1
  }, {
    "name" : "WildBattlePetLevelMin",
    "type" : "byte",
    "index" : false,
    "arraySize" : 1
  }, {
    "name" : "WildBattlePetLevelMax",
    "type" : "byte",
    "index" : false,
    "arraySize" : 1
  }, {
    "name" : "WindSettingsId",
    "type" : "byte",
    "index" : false,
    "arraySize" : 1
  }, {
    "name" : "UwIntroSound",
    "type" : "int",
    "index" : false,
    "arraySize" : 1
  } ]
}