{
  "name" : "AreaGroupMember",
  "build" : 24492,
  "fields" : [ {
    "name" : "ID",
    "type" : "int",
    "index" : true,
    "arraySize" : 1
  }, {
    "name" : "AreaGroupID",
    "type" : "ushort",
    "index" : false,
    "arraySize" : 1
  }, {
    "name" : "AreaID",
    "type" : "ushort",
    "index" : false,
    "arraySize" : 1
  } ]
}