{
  "name" : "AreaTrigger",
  "build" : 8606,
  "fields" : [ {
    "name" : "ID",
    "type" : "int",
    "index" : true,
    "arraySize" : 1
  }, {
    "name" : "ContinentID",
    "type" : "int",
    "index" : false,
    "arraySize" : 1
  }, {
    "name" : "X",
    "type" : "float",
    "index" : false,
    "arraySize" : 1
  }, {
    "name" : "Y",
    "type" : "float",
    "index" : false,
    "arraySize" : 1
  }, {
    "name" : "Z",
    "type" : "float",
    "index" : false,
    "arraySize" : 1
  }, {
    "name" : "Radius",
    "type" : "float",
    "index" : false,
    "arraySize" : 1
  }, {
    "name" : "BoxLength",
    "type" : "int",
    "index" : false,
    "arraySize" : 1
  }, {
    "name" : "BoxWidth",
    "type" : "int",
    "index" : false,
    "arraySize" : 1
  }, {
    "name" : "BoxHeight",
    "type" : "int",
    "index" : false,
    "arraySize" : 1
  }, {
    "name" : "BoxYaw",
    "type" : "int",
    "index" : false,
    "arraySize" : 1
  } ]
}