{
  "name" : "AreaPOI",
  "build" : 24793,
  "fields" : [ {
    "name" : "ID",
    "type" : "int",
    "index" : true,
    "arraySize" : 1
  }, {
    "name" : "Field04",
    "type" : "uint",
    "index" : false,
    "arraySize" : 1
  }, {
    "name" : "Field08",
    "type" : "int",
    "index" : false,
    "arraySize" : 1
  }, {
    "name" : "Field14",
    "type" : "string",
    "index" : false,
    "arraySize" : 1
  }, {
    "name" : "Field18",
    "type" : "string",
    "index" : false,
    "arraySize" : 1
  }, {
    "name" : "Field1C",
    "type" : "uint",
    "index" : false,
    "arraySize" : 1
  }, {
    "name" : "Field20",
    "type" : "uint",
    "index" : false,
    "arraySize" : 1
  }, {
    "name" : "Field24",
    "type" : "ushort",
    "index" : false,
    "arraySize" : 1
  }, {
    "name" : "Field26",
    "type" : "ushort",
    "index" : false,
    "arraySize" : 1
  }, {
    "name" : "Field28",
    "type" : "ushort",
    "index" : false,
    "arraySize" : 1
  }, {
    "name" : "Field2A",
    "type" : "ushort",
    "index" : false,
    "arraySize" : 1
  }, {
    "name" : "Field2C",
    "type" : "byte",
    "index" : false,
    "arraySize" : 1
  }, {
    "name" : "Field2D",
    "type" : "byte",
    "index" : false,
    "arraySize" : 1
  }, {
    "name" : "Field2E",
    "type" : "ushort",
    "index" : false,
    "arraySize" : 1
  }, {
    "name" : "Field30",
    "type" : "ushort",
    "index" : false,
    "arraySize" : 1
  }, {
    "name" : "Field32",
    "type" : "byte",
    "index" : false,
    "arraySize" : 1
  }, {
    "name" : "Field33",
    "type" : "int",
    "index" : false,
    "arraySize" : 1
  } ]
}