{
  "name" : "AreaTriggerCylinder",
  "build" : 26231,
  "fields" : [ {
    "name" : "ID",
    "type" : "int",
    "index" : true,
    "arraySize" : 1
  }, {
    "name" : "Radius",
    "type" : "float",
    "index" : false,
    "arraySize" : 1
  }, {
    "name" : "Height",
    "type" : "float",
    "index" : false,
    "arraySize" : 1
  }, {
    "name" : "ZOffset",
    "type" : "float",
    "index" : false,
    "arraySize" : 1
  } ]
}