{
  "name" : "AreaAssignment",
  "build" : 12340,
  "fields" : [ {
    "name" : "ID",
    "type" : "int",
    "index" : true,
    "arraySize" : 1
  }, {
    "name" : "MapID",
    "type" : "int",
    "index" : false,
    "arraySize" : 1
  }, {
    "name" : "AreaID",
    "type" : "int",
    "index" : false,
    "arraySize" : 1
  }, {
    "name" : "ChunkX",
    "type" : "int",
    "index" : false,
    "arraySize" : 1
  }, {
    "name" : "ChunkY",
    "type" : "int",
    "index" : false,
    "arraySize" : 1
  } ]
}