{
  "name" : "AreaTable",
  "build" : 18414,
  "fields" : [ {
    "name" : "ID",
    "type" : "int",
    "index" : true,
    "arraySize" : 1
  }, {
    "name" : "ContinentID",
    "type" : "int",
    "index" : false,
    "arraySize" : 1
  }, {
    "name" : "ParentAreaID",
    "type" : "int",
    "index" : false,
    "arraySize" : 1
  }, {
    "name" : "AreaBit",
    "type" : "int",
    "index" : false,
    "arraySize" : 1
  }, {
    "name" : "Flags_1",
    "type" : "int",
    "index" : false,
    "arraySize" : 1
  }, {
    "name" : "Flags_2",
    "type" : "int",
    "index" : false,
    "arraySize" : 1
  }, {
    "name" : "SoundProviderPref",
    "type" : "int",
    "index" : false,
    "arraySize" : 1
  }, {
    "name" : "SoundProviderPrefUnderwater",
    "type" : "int",
    "index" : false,
    "arraySize" : 1
  }, {
    "name" : "AmbienceID",
    "type" : "int",
    "index" : false,
    "arraySize" : 1
  }, {
    "name" : "ZoneName",
    "type" : "string",
    "index" : false,
    "arraySize" : 1
  }, {
    "name" : "ZoneMusic",
    "type" : "int",
    "index" : false,
    "arraySize" : 1
  }, {
    "name" : "IntroSound",
    "type" : "int",
    "index" : false,
    "arraySize" : 1
  }, {
    "name" : "ExplorationLevel",
    "type" : "int",
    "index" : false,
    "arraySize" : 1
  }, {
    "name" : "AreaName_Lang",
    "type" : "string",
    "index" : false,
    "arraySize" : 1
  }, {
    "name" : "FactionGroupMask",
    "type" : "int",
    "index" : false,
    "arraySize" : 1
  }, {
    "name" : "LiquidTypeID_1",
    "type" : "int",
    "index" : false,
    "arraySize" : 1
  }, {
    "name" : "LiquidTypeID_2",
    "type" : "int",
    "index" : false,
    "arraySize" : 1
  }, {
    "name" : "LiquidTypeID_3",
    "type" : "int",
    "index" : false,
    "arraySize" : 1
  }, {
    "name" : "LiquidTypeID_4",
    "type" : "int",
    "index" : false,
    "arraySize" : 1
  }, {
    "name" : "MinElevation",
    "type" : "float",
    "index" : false,
    "arraySize" : 1
  }, {
    "name" : "Ambient_Multiplier",
    "type" : "float",
    "index" : false,
    "arraySize" : 1
  }, {
    "name" : "Lightid",
    "type" : "int",
    "index" : false,
    "arraySize" : 1
  }, {
    "name" : "MountFlags",
    "type" : "int",
    "index" : false,
    "arraySize" : 1
  }, {
    "name" : "UwintroSound",
    "type" : "int",
    "index" : false,
    "arraySize" : 1
  }, {
    "name" : "UwZoneMusic",
    "type" : "int",
    "index" : false,
    "arraySize" : 1
  }, {
    "name" : "UwAmbience",
    "type" : "int",
    "index" : false,
    "arraySize" : 1
  }, {
    "name" : "World_Pvp_Id",
    "type" : "int",
    "index" : false,
    "arraySize" : 1
  }, {
    "name" : "PvpCombatWorldStateID",
    "type" : "int",
    "index" : false,
    "arraySize" : 1
  }, {
    "name" : "WildBattlePetLevelMin",
    "type" : "int",
    "index" : false,
    "arraySize" : 1
  }, {
    "name" : "WildBattlePetLevelMax",
    "type" : "int",
    "index" : false,
    "arraySize" : 1
  }, {
    "name" : "WindSettingsID",
    "type" : "int",
    "index" : false,
    "arraySize" : 1
  } ]
}