{
  "name" : "AreaTrigger",
  "build" : 25632,
  "fields" : [ {
    "name" : "Position",
    "type" : "float",
    "index" : false,
    "arraySize" : 1
  }, {
    "name" : "Radius",
    "type" : "float",
    "index" : false,
    "arraySize" : 1
  }, {
    "name" : "BoxLength",
    "type" : "float",
    "index" : false,
    "arraySize" : 1
  }, {
    "name" : "BoxWidth",
    "type" : "float",
    "index" : false,
    "arraySize" : 1
  }, {
    "name" : "BoxHeight",
    "type" : "float",
    "index" : false,
    "arraySize" : 1
  }, {
    "name" : "BoxYaw",
    "type" : "float",
    "index" : false,
    "arraySize" : 1
  }, {
    "name" : "MapID",
    "type" : "ushort",
    "index" : false,
    "arraySize" : 1
  }, {
    "name" : "PhaseID",
    "type" : "ushort",
    "index" : false,
    "arraySize" : 1
  }, {
    "name" : "PhaseGroupID",
    "type" : "ushort",
    "index" : false,
    "arraySize" : 1
  }, {
    "name" : "ShapeID",
    "type" : "ushort",
    "index" : false,
    "arraySize" : 1
  }, {
    "name" : "AreaTriggerActionSetID",
    "type" : "ushort",
    "index" : false,
    "arraySize" : 1
  }, {
    "name" : "PhaseUseFlags",
    "type" : "byte",
    "index" : false,
    "arraySize" : 1
  }, {
    "name" : "ShapeType",
    "type" : "byte",
    "index" : false,
    "arraySize" : 1
  }, {
    "name" : "Flag",
    "type" : "byte",
    "index" : false,
    "arraySize" : 1
  }, {
    "name" : "ID",
    "type" : "int",
    "index" : true,
    "arraySize" : 1
  } ]
}