{
  "name" : "AreaMIDIAmbiences",
  "build" : 3368,
  "fields" : [ {
    "name" : "ID",
    "type" : "int",
    "index" : true,
    "arraySize" : 1
  }, {
    "name" : "DaySequence",
    "type" : "string",
    "index" : false,
    "arraySize" : 1
  }, {
    "name" : "NightSequence",
    "type" : "string",
    "index" : false,
    "arraySize" : 1
  }, {
    "name" : "DLSFile",
    "type" : "string",
    "index" : false,
    "arraySize" : 1
  }, {
    "name" : "Volume",
    "type" : "float",
    "index" : false,
    "arraySize" : 1
  } ]
}