{
  "name" : "ArmorLocation",
  "build" : 24793,
  "fields" : [ {
    "name" : "ID",
    "type" : "int",
    "index" : true,
    "arraySize" : 1
  }, {
    "name" : "Modifier",
    "type" : "float",
    "index" : false,
    "arraySize" : 1
  } ]
}