{
  "name" : "Artifact",
  "build" : 23835,
  "fields" : [ {
    "name" : "ID",
    "type" : "int",
    "index" : true,
    "arraySize" : 1
  }, {
    "name" : "Name",
    "type" : "string",
    "index" : false,
    "arraySize" : 1
  }, {
    "name" : "BarConnectedColor",
    "type" : "uint",
    "index" : false,
    "arraySize" : 1
  }, {
    "name" : "BarDisconnectedColor",
    "type" : "uint",
    "index" : false,
    "arraySize" : 1
  }, {
    "name" : "TitleColor",
    "type" : "uint",
    "index" : false,
    "arraySize" : 1
  }, {
    "name" : "ClassUiTextureKitID",
    "type" : "ushort",
    "index" : false,
    "arraySize" : 1
  }, {
    "name" : "SpecID",
    "type" : "ushort",
    "index" : false,
    "arraySize" : 1
  }, {
    "name" : "ArtifactCategoryID",
    "type" : "byte",
    "index" : false,
    "arraySize" : 1
  }, {
    "name" : "Flags",
    "type" : "byte",
    "index" : false,
    "arraySize" : 1
  }, {
    "name" : "UiModelSceneID",
    "type" : "uint",
    "index" : false,
    "arraySize" : 1
  }, {
    "name" : "SpellVisualKitID",
    "type" : "uint",
    "index" : false,
    "arraySize" : 1
  } ]
}