{
  "name" : "ArtifactAppearance",
  "build" : 24492,
  "fields" : [ {
    "name" : "Name",
    "type" : "string",
    "index" : false,
    "arraySize" : 1
  }, {
    "name" : "SwatchColor",
    "type" : "uint",
    "index" : false,
    "arraySize" : 1
  }, {
    "name" : "ModelDesaturation",
    "type" : "float",
    "index" : false,
    "arraySize" : 1
  }, {
    "name" : "ModelAlpha",
    "type" : "float",
    "index" : false,
    "arraySize" : 1
  }, {
    "name" : "ShapeshiftDisplayID",
    "type" : "uint",
    "index" : false,
    "arraySize" : 1
  }, {
    "name" : "ArtifactAppearanceSetID",
    "type" : "ushort",
    "index" : false,
    "arraySize" : 1
  }, {
    "name" : "Field06",
    "type" : "ushort",
    "index" : false,
    "arraySize" : 1
  }, {
    "name" : "DisplayIndex",
    "type" : "byte",
    "index" : false,
    "arraySize" : 1
  }, {
    "name" : "AppearanceModID",
    "type" : "byte",
    "index" : false,
    "arraySize" : 1
  }, {
    "name" : "Flags",
    "type" : "byte",
    "index" : false,
    "arraySize" : 1
  }, {
    "name" : "ModifiesShapeshiftFormDisplay",
    "type" : "byte",
    "index" : false,
    "arraySize" : 1
  }, {
    "name" : "ID",
    "type" : "int",
    "index" : true,
    "arraySize" : 1
  }, {
    "name" : "PlayerConditionID",
    "type" : "ushort",
    "index" : false,
    "arraySize" : 1
  }, {
    "name" : "Field20",
    "type" : "byte",
    "index" : false,
    "arraySize" : 1
  }, {
    "name" : "Field21",
    "type" : "byte",
    "index" : false,
    "arraySize" : 1
  } ]
}