{
  "name" : "ArtifactAppearance",
  "build" : 21742,
  "fields" : [ {
    "name" : "Field00",
    "type" : "string",
    "index" : false,
    "arraySize" : 1
  }, {
    "name" : "Field01",
    "type" : "int",
    "index" : false,
    "arraySize" : 1
  }, {
    "name" : "Field02",
    "type" : "float",
    "index" : false,
    "arraySize" : 1
  }, {
    "name" : "Field03",
    "type" : "float",
    "index" : false,
    "arraySize" : 1
  }, {
    "name" : "Field04",
    "type" : "int",
    "index" : false,
    "arraySize" : 1
  }, {
    "name" : "Field05",
    "type" : "ushort",
    "index" : false,
    "arraySize" : 1
  }, {
    "name" : "Field06",
    "type" : "ushort",
    "index" : false,
    "arraySize" : 1
  }, {
    "name" : "Field07",
    "type" : "ushort",
    "index" : false,
    "arraySize" : 1
  }, {
    "name" : "Field08",
    "type" : "byte",
    "index" : false,
    "arraySize" : 1
  }, {
    "name" : "Field09",
    "type" : "byte",
    "index" : false,
    "arraySize" : 1
  }, {
    "name" : "Field10",
    "type" : "byte",
    "index" : false,
    "arraySize" : 1
  }, {
    "name" : "Field11",
    "type" : "byte",
    "index" : false,
    "arraySize" : 1
  }, {
    "name" : "ID",
    "type" : "int",
    "index" : true,
    "arraySize" : 1
  }, {
    "name" : "Field13",
    "type" : "int",
    "index" : false,
    "arraySize" : 1
  }, {
    "name" : "Field14",
    "type" : "int",
    "index" : false,
    "arraySize" : 1
  } ]
}