{
  "name" : "ArtifactAppearance",
  "build" : 26231,
  "fields" : [ {
    "name" : "Name",
    "type" : "string",
    "index" : false,
    "arraySize" : 1
  }, {
    "name" : "UiSwatchColor",
    "type" : "uint",
    "index" : false,
    "arraySize" : 1
  }, {
    "name" : "UiModelSaturation",
    "type" : "float",
    "index" : false,
    "arraySize" : 1
  }, {
    "name" : "UiModelOpacity",
    "type" : "float",
    "index" : false,
    "arraySize" : 1
  }, {
    "name" : "OverrideShapeshiftDisplayId",
    "type" : "int",
    "index" : false,
    "arraySize" : 1
  }, {
    "name" : "ArtifactAppearanceSetId",
    "type" : "ushort",
    "index" : false,
    "arraySize" : 1
  }, {
    "name" : "UiCameraId",
    "type" : "ushort",
    "index" : false,
    "arraySize" : 1
  }, {
    "name" : "DisplayIndex",
    "type" : "byte",
    "index" : false,
    "arraySize" : 1
  }, {
    "name" : "ItemAppearanceModifierId",
    "type" : "byte",
    "index" : false,
    "arraySize" : 1
  }, {
    "name" : "Flags",
    "type" : "byte",
    "index" : false,
    "arraySize" : 1
  }, {
    "name" : "OverrideShapeshiftFormId",
    "type" : "byte",
    "index" : false,
    "arraySize" : 1
  }, {
    "name" : "ID",
    "type" : "int",
    "index" : true,
    "arraySize" : 1
  }, {
    "name" : "UnlockPlayerConditionId",
    "type" : "int",
    "index" : false,
    "arraySize" : 1
  }, {
    "name" : "UiItemAppearanceId",
    "type" : "int",
    "index" : false,
    "arraySize" : 1
  }, {
    "name" : "UiAltItemAppearanceId",
    "type" : "int",
    "index" : false,
    "arraySize" : 1
  } ]
}