{
  "name" : "ArtifactAppearanceSet",
  "build" : 25632,
  "fields" : [ {
    "name" : "Name",
    "type" : "string",
    "index" : false,
    "arraySize" : 1
  }, {
    "name" : "Name2",
    "type" : "string",
    "index" : false,
    "arraySize" : 1
  }, {
    "name" : "UiCameraID",
    "type" : "ushort",
    "index" : false,
    "arraySize" : 1
  }, {
    "name" : "AltHandUICameraID",
    "type" : "ushort",
    "index" : false,
    "arraySize" : 1
  }, {
    "name" : "DisplayIndex",
    "type" : "byte",
    "index" : false,
    "arraySize" : 1
  }, {
    "name" : "AttachmentPoint",
    "type" : "byte",
    "index" : false,
    "arraySize" : 1
  }, {
    "name" : "Flags",
    "type" : "byte",
    "index" : false,
    "arraySize" : 1
  }, {
    "name" : "ID",
    "type" : "int",
    "index" : true,
    "arraySize" : 1
  } ]
}