{
  "name" : "BankBagSlotPrices",
  "build" : 12340,
  "fields" : [ {
    "name" : "ID",
    "type" : "int",
    "index" : true,
    "arraySize" : 1
  }, {
    "name" : "Cost",
    "type" : "int",
    "index" : false,
    "arraySize" : 1
  } ]
}