{
  "name" : "BannedAddOns",
  "build" : 21742,
  "fields" : [ {
    "name" : "ID",
    "type" : "int",
    "index" : true,
    "arraySize" : 1
  }, {
    "name" : "NameMD5_",
    "type" : "uint",
    "index" : false,
    "arraySize" : 1
  }, {
    "name" : "VersionMD5_",
    "type" : "uint",
    "index" : false,
    "arraySize" : 1
  }, {
    "name" : "LastModified",
    "type" : "int",
    "index" : false,
    "arraySize" : 1
  }, {
    "name" : "Flags",
    "type" : "int",
    "index" : false,
    "arraySize" : 1
  } ]
}