{
  "name" : "BarberShopStyle",
  "build" : 26231,
  "fields" : [ {
    "name" : "DisplayName",
    "type" : "string",
    "index" : false,
    "arraySize" : 1
  }, {
    "name" : "Description",
    "type" : "string",
    "index" : false,
    "arraySize" : 1
  }, {
    "name" : "CostModifier",
    "type" : "float",
    "index" : false,
    "arraySize" : 1
  }, {
    "name" : "Type",
    "type" : "byte",
    "index" : false,
    "arraySize" : 1
  }, {
    "name" : "Race",
    "type" : "byte",
    "index" : false,
    "arraySize" : 1
  }, {
    "name" : "Sex",
    "type" : "byte",
    "index" : false,
    "arraySize" : 1
  }, {
    "name" : "Data",
    "type" : "byte",
    "index" : false,
    "arraySize" : 1
  }, {
    "name" : "ID",
    "type" : "int",
    "index" : true,
    "arraySize" : 1
  } ]
}