{
  "name" : "BarberShopStyle",
  "build" : 12340,
  "fields" : [ {
    "name" : "ID",
    "type" : "int",
    "index" : true,
    "arraySize" : 1
  }, {
    "name" : "Type",
    "type" : "int",
    "index" : false,
    "arraySize" : 1
  }, {
    "name" : "DisplayName_Lang",
    "type" : "loc",
    "index" : false,
    "arraySize" : 1
  }, {
    "name" : "Description_Lang",
    "type" : "loc",
    "index" : false,
    "arraySize" : 1
  }, {
    "name" : "Cost_Modifier",
    "type" : "float",
    "index" : false,
    "arraySize" : 1
  }, {
    "name" : "Race",
    "type" : "int",
    "index" : false,
    "arraySize" : 1
  }, {
    "name" : "Sex",
    "type" : "int",
    "index" : false,
    "arraySize" : 1
  }, {
    "name" : "Data",
    "type" : "int",
    "index" : false,
    "arraySize" : 1
  } ]
}