{
  "name" : "BattlePetSpeciesXAbility",
  "build" : 26231,
  "fields" : [ {
    "name" : "ID",
    "type" : "int",
    "index" : true,
    "arraySize" : 1
  }, {
    "name" : "BattlePetAbilityId",
    "type" : "ushort",
    "index" : false,
    "arraySize" : 1
  }, {
    "name" : "RequiredLevel",
    "type" : "byte",
    "index" : false,
    "arraySize" : 1
  }, {
    "name" : "SlotEnum",
    "type" : "byte",
    "index" : false,
    "arraySize" : 1
  } ]
}