{
  "name" : "BattlePetBreedQuality",
  "build" : 25632,
  "fields" : [ {
    "name" : "ID",
    "type" : "int",
    "index" : true,
    "arraySize" : 1
  }, {
    "name" : "Modifier",
    "type" : "float",
    "index" : false,
    "arraySize" : 1
  }, {
    "name" : "Quality",
    "type" : "byte",
    "index" : false,
    "arraySize" : 1
  } ]
}