{
  "name" : "BattlemasterList",
  "build" : 24793,
  "fields" : [ {
    "name" : "ID",
    "type" : "int",
    "index" : true,
    "arraySize" : 1
  }, {
    "name" : "Name",
    "type" : "string",
    "index" : false,
    "arraySize" : 1
  }, {
    "name" : "IconFileDataID",
    "type" : "uint",
    "index" : false,
    "arraySize" : 1
  }, {
    "name" : "GameType",
    "type" : "string",
    "index" : false,
    "arraySize" : 1
  }, {
    "name" : "ShortDescription",
    "type" : "string",
    "index" : false,
    "arraySize" : 1
  }, {
    "name" : "LongDescription",
    "type" : "string",
    "index" : false,
    "arraySize" : 1
  }, {
    "name" : "MapID",
    "type" : "ushort",
    "index" : false,
    "arraySize" : 1
  }, {
    "name" : "HolidayWorldState",
    "type" : "ushort",
    "index" : false,
    "arraySize" : 1
  }, {
    "name" : "PlayerConditionID",
    "type" : "ushort",
    "index" : false,
    "arraySize" : 1
  }, {
    "name" : "InstanceType",
    "type" : "byte",
    "index" : false,
    "arraySize" : 1
  }, {
    "name" : "GroupsAllowed",
    "type" : "byte",
    "index" : false,
    "arraySize" : 1
  }, {
    "name" : "MaxGroupSize",
    "type" : "byte",
    "index" : false,
    "arraySize" : 1
  }, {
    "name" : "MinLevel",
    "type" : "byte",
    "index" : false,
    "arraySize" : 1
  }, {
    "name" : "MaxLevel",
    "type" : "byte",
    "index" : false,
    "arraySize" : 1
  }, {
    "name" : "RatedPlayers",
    "type" : "byte",
    "index" : false,
    "arraySize" : 1
  }, {
    "name" : "MinPlayers",
    "type" : "byte",
    "index" : false,
    "arraySize" : 1
  }, {
    "name" : "MaxPlayers",
    "type" : "byte",
    "index" : false,
    "arraySize" : 1
  }, {
    "name" : "Flags",
    "type" : "byte",
    "index" : false,
    "arraySize" : 1
  } ]
}