{
  "name" : "BattlemasterList",
  "build" : 8606,
  "fields" : [ {
    "name" : "ID",
    "type" : "int",
    "index" : true,
    "arraySize" : 1
  }, {
    "name" : "Instance",
    "type" : "int",
    "index" : false,
    "arraySize" : 1
  }, {
    "name" : "Type",
    "type" : "int",
    "index" : false,
    "arraySize" : 1
  }, {
    "name" : "MinLevel",
    "type" : "int",
    "index" : false,
    "arraySize" : 1
  }, {
    "name" : "MaxLevel",
    "type" : "int",
    "index" : false,
    "arraySize" : 1
  }, {
    "name" : "MaxPlayersPerTeam",
    "type" : "int",
    "index" : false,
    "arraySize" : 1
  }, {
    "name" : "Bands",
    "type" : "int",
    "index" : false,
    "arraySize" : 1
  }, {
    "name" : "JoinAsGroup",
    "type" : "int",
    "index" : false,
    "arraySize" : 1
  }, {
    "name" : "Name",
    "type" : "loc",
    "index" : false,
    "arraySize" : 1
  }, {
    "name" : "Field09",
    "type" : "int",
    "index" : false,
    "arraySize" : 1
  } ]
}