{
  "name" : "BattlePetBreedState",
  "build" : 25632,
  "fields" : [ {
    "name" : "ID",
    "type" : "int",
    "index" : true,
    "arraySize" : 1
  }, {
    "name" : "Value",
    "type" : "short",
    "index" : false,
    "arraySize" : 1
  }, {
    "name" : "State",
    "type" : "byte",
    "index" : false,
    "arraySize" : 1
  } ]
}