{
  "name" : "CameraEffectEntry",
  "build" : 26231,
  "fields" : [ {
    "name" : "ID",
    "type" : "int",
    "index" : true,
    "arraySize" : 1
  }, {
    "name" : "Duration",
    "type" : "float",
    "index" : false,
    "arraySize" : 1
  }, {
    "name" : "Delay",
    "type" : "float",
    "index" : false,
    "arraySize" : 1
  }, {
    "name" : "Phase",
    "type" : "float",
    "index" : false,
    "arraySize" : 1
  }, {
    "name" : "Amplitude",
    "type" : "float",
    "index" : false,
    "arraySize" : 1
  }, {
    "name" : "AmplitudeB",
    "type" : "float",
    "index" : false,
    "arraySize" : 1
  }, {
    "name" : "Frequency",
    "type" : "float",
    "index" : false,
    "arraySize" : 1
  }, {
    "name" : "RadiusMin",
    "type" : "float",
    "index" : false,
    "arraySize" : 1
  }, {
    "name" : "RadiusMax",
    "type" : "float",
    "index" : false,
    "arraySize" : 1
  }, {
    "name" : "AmplitudeCurveId",
    "type" : "ushort",
    "index" : false,
    "arraySize" : 1
  }, {
    "name" : "OrderIndex",
    "type" : "byte",
    "index" : false,
    "arraySize" : 1
  }, {
    "name" : "Flags",
    "type" : "byte",
    "index" : false,
    "arraySize" : 1
  }, {
    "name" : "EffectType",
    "type" : "byte",
    "index" : false,
    "arraySize" : 1
  }, {
    "name" : "DirectionType",
    "type" : "byte",
    "index" : false,
    "arraySize" : 1
  }, {
    "name" : "MovementType",
    "type" : "byte",
    "index" : false,
    "arraySize" : 1
  }, {
    "name" : "AttenuationType",
    "type" : "byte",
    "index" : false,
    "arraySize" : 1
  } ]
}