{
  "name" : "CameraEffectEntry",
  "build" : 22248,
  "fields" : [ {
    "name" : "ID",
    "type" : "int",
    "index" : true,
    "arraySize" : 1
  }, {
    "name" : "Field00",
    "type" : "float",
    "index" : false,
    "arraySize" : 1
  }, {
    "name" : "Field04",
    "type" : "float",
    "index" : false,
    "arraySize" : 1
  }, {
    "name" : "Field08",
    "type" : "float",
    "index" : false,
    "arraySize" : 1
  }, {
    "name" : "Field0C",
    "type" : "float",
    "index" : false,
    "arraySize" : 1
  }, {
    "name" : "Field10",
    "type" : "float",
    "index" : false,
    "arraySize" : 1
  }, {
    "name" : "Field14",
    "type" : "float",
    "index" : false,
    "arraySize" : 1
  }, {
    "name" : "Field18",
    "type" : "float",
    "index" : false,
    "arraySize" : 1
  }, {
    "name" : "Field1C",
    "type" : "float",
    "index" : false,
    "arraySize" : 1
  }, {
    "name" : "Field20",
    "type" : "ushort",
    "index" : false,
    "arraySize" : 1
  }, {
    "name" : "Field22",
    "type" : "ushort",
    "index" : false,
    "arraySize" : 1
  }, {
    "name" : "Field24",
    "type" : "byte",
    "index" : false,
    "arraySize" : 1
  }, {
    "name" : "Field25",
    "type" : "byte",
    "index" : false,
    "arraySize" : 1
  }, {
    "name" : "Field26",
    "type" : "byte",
    "index" : false,
    "arraySize" : 1
  }, {
    "name" : "Field27",
    "type" : "byte",
    "index" : false,
    "arraySize" : 1
  }, {
    "name" : "Field28",
    "type" : "byte",
    "index" : false,
    "arraySize" : 1
  }, {
    "name" : "Field29",
    "type" : "byte",
    "index" : false,
    "arraySize" : 1
  } ]
}