{
  "name" : "CameraShakes",
  "build" : 21742,
  "fields" : [ {
    "name" : "ID",
    "type" : "int",
    "index" : true,
    "arraySize" : 1
  }, {
    "name" : "ShakeType",
    "type" : "int",
    "index" : false,
    "arraySize" : 1
  }, {
    "name" : "Direction",
    "type" : "int",
    "index" : false,
    "arraySize" : 1
  }, {
    "name" : "Amplitude",
    "type" : "float",
    "index" : false,
    "arraySize" : 1
  }, {
    "name" : "Frequency",
    "type" : "float",
    "index" : false,
    "arraySize" : 1
  }, {
    "name" : "Duration",
    "type" : "float",
    "index" : false,
    "arraySize" : 1
  }, {
    "name" : "Phase",
    "type" : "float",
    "index" : false,
    "arraySize" : 1
  }, {
    "name" : "Coefficient",
    "type" : "float",
    "index" : false,
    "arraySize" : 1
  }, {
    "name" : "Flags",
    "type" : "int",
    "index" : false,
    "arraySize" : 1
  } ]
}