{
  "name" : "Cfg_Regions",
  "build" : 21742,
  "fields" : [ {
    "name" : "ID",
    "type" : "int",
    "index" : true,
    "arraySize" : 1
  }, {
    "name" : "Tag",
    "type" : "string",
    "index" : false,
    "arraySize" : 1
  }, {
    "name" : "Region_Group_Mask",
    "type" : "int",
    "index" : false,
    "arraySize" : 1
  }, {
    "name" : "RulesetID",
    "type" : "int",
    "index" : false,
    "arraySize" : 1
  } ]
}