{
  "name" : "Cfg_Categories",
  "build" : 26231,
  "fields" : [ {
    "name" : "ID",
    "type" : "int",
    "index" : true,
    "arraySize" : 1
  }, {
    "name" : "Name",
    "type" : "string",
    "index" : false,
    "arraySize" : 1
  }, {
    "name" : "LocaleMask",
    "type" : "ushort",
    "index" : false,
    "arraySize" : 1
  }, {
    "name" : "CreateCharsetMask",
    "type" : "byte",
    "index" : false,
    "arraySize" : 1
  }, {
    "name" : "ExistingCharsetMask",
    "type" : "byte",
    "index" : false,
    "arraySize" : 1
  }, {
    "name" : "Flags",
    "type" : "byte",
    "index" : false,
    "arraySize" : 1
  } ]
}