{
  "name" : "Cfg_Categories",
  "build" : 21742,
  "fields" : [ {
    "name" : "ID",
    "type" : "int",
    "index" : true,
    "arraySize" : 1
  }, {
    "name" : "LocaleMask",
    "type" : "int",
    "index" : false,
    "arraySize" : 1
  }, {
    "name" : "Create_CharsetMask",
    "type" : "int",
    "index" : false,
    "arraySize" : 1
  }, {
    "name" : "Existing_CharsetMask",
    "type" : "int",
    "index" : false,
    "arraySize" : 1
  }, {
    "name" : "Flags",
    "type" : "int",
    "index" : false,
    "arraySize" : 1
  }, {
    "name" : "Name_Lang",
    "type" : "string",
    "index" : false,
    "arraySize" : 1
  } ]
}