{
  "name" : "CharStartOutfit",
  "build" : 8606,
  "fields" : [ {
    "name" : "ID",
    "type" : "int",
    "index" : true,
    "arraySize" : 1
  }, {
    "name" : "RaceID",
    "type" : "byte",
    "index" : false,
    "arraySize" : 1
  }, {
    "name" : "ClassID",
    "type" : "byte",
    "index" : false,
    "arraySize" : 1
  }, {
    "name" : "Gender",
    "type" : "byte",
    "index" : false,
    "arraySize" : 1
  }, {
    "name" : "OutiftID",
    "type" : "byte",
    "index" : false,
    "arraySize" : 1
  }, {
    "name" : "Items",
    "type" : "int",
    "index" : false,
    "arraySize" : 1
  }, {
    "name" : "DisplayInfo",
    "type" : "int",
    "index" : false,
    "arraySize" : 1
  }, {
    "name" : "InventoryType",
    "type" : "int",
    "index" : false,
    "arraySize" : 1
  } ]
}