{
  "name" : "CharShipmentContainer",
  "build" : 26231,
  "fields" : [ {
    "name" : "ID",
    "type" : "int",
    "index" : true,
    "arraySize" : 1
  }, {
    "name" : "PendingText",
    "type" : "string",
    "index" : false,
    "arraySize" : 1
  }, {
    "name" : "Description",
    "type" : "string",
    "index" : false,
    "arraySize" : 1
  }, {
    "name" : "WorkingSpellVisualId",
    "type" : "int",
    "index" : false,
    "arraySize" : 1
  }, {
    "name" : "UiTextureKitId",
    "type" : "ushort",
    "index" : false,
    "arraySize" : 1
  }, {
    "name" : "WorkingDisplayInfoId",
    "type" : "ushort",
    "index" : false,
    "arraySize" : 1
  }, {
    "name" : "SmallDisplayInfoId",
    "type" : "ushort",
    "index" : false,
    "arraySize" : 1
  }, {
    "name" : "MediumDisplayInfoId",
    "type" : "ushort",
    "index" : false,
    "arraySize" : 1
  }, {
    "name" : "LargeDisplayInfoId",
    "type" : "ushort",
    "index" : false,
    "arraySize" : 1
  }, {
    "name" : "CrossFactionId",
    "type" : "ushort",
    "index" : false,
    "arraySize" : 1
  }, {
    "name" : "BaseCapacity",
    "type" : "byte",
    "index" : false,
    "arraySize" : 1
  }, {
    "name" : "GarrBuildingType",
    "type" : "byte",
    "index" : false,
    "arraySize" : 1
  }, {
    "name" : "GarrTypeId",
    "type" : "byte",
    "index" : false,
    "arraySize" : 1
  }, {
    "name" : "MediumThreshold",
    "type" : "byte",
    "index" : false,
    "arraySize" : 1
  }, {
    "name" : "LargeThreshold",
    "type" : "byte",
    "index" : false,
    "arraySize" : 1
  }, {
    "name" : "Faction",
    "type" : "byte",
    "index" : false,
    "arraySize" : 1
  }, {
    "name" : "CompleteSpellVisualId",
    "type" : "int",
    "index" : false,
    "arraySize" : 1
  } ]
}