{
  "name" : "CharacterLoadout",
  "build" : 26231,
  "fields" : [ {
    "name" : "ID",
    "type" : "int",
    "index" : true,
    "arraySize" : 1
  }, {
    "name" : "RaceMask",
    "type" : "ulong",
    "index" : false,
    "arraySize" : 1
  }, {
    "name" : "ChrClassId",
    "type" : "byte",
    "index" : false,
    "arraySize" : 1
  }, {
    "name" : "Purpose",
    "type" : "byte",
    "index" : false,
    "arraySize" : 1
  } ]
}