{
  "name" : "CharBaseSection",
  "build" : 22248,
  "fields" : [ {
    "name" : "ID",
    "type" : "int",
    "index" : true,
    "arraySize" : 1
  }, {
    "name" : "Field00",
    "type" : "byte",
    "index" : false,
    "arraySize" : 1
  }, {
    "name" : "Field01",
    "type" : "byte",
    "index" : false,
    "arraySize" : 1
  }, {
    "name" : "Field02",
    "type" : "byte",
    "index" : false,
    "arraySize" : 1
  } ]
}