{
  "name" : "CharHairTextures",
  "build" : 8606,
  "fields" : [ {
    "name" : "ID",
    "type" : "int",
    "index" : true,
    "arraySize" : 1
  }, {
    "name" : "RaceID",
    "type" : "int",
    "index" : false,
    "arraySize" : 1
  }, {
    "name" : "SexID",
    "type" : "int",
    "index" : false,
    "arraySize" : 1
  }, {
    "name" : "Field03",
    "type" : "int",
    "index" : false,
    "arraySize" : 1
  }, {
    "name" : "Field04",
    "type" : "int",
    "index" : false,
    "arraySize" : 1
  }, {
    "name" : "Field05",
    "type" : "int",
    "index" : false,
    "arraySize" : 1
  }, {
    "name" : "Field06",
    "type" : "int",
    "index" : false,
    "arraySize" : 1
  }, {
    "name" : "Field07",
    "type" : "int",
    "index" : false,
    "arraySize" : 1
  } ]
}