{
  "name" : "CharacterCreateCameras",
  "build" : 3368,
  "fields" : [ {
    "name" : "ID",
    "type" : "int",
    "index" : true,
    "arraySize" : 1
  }, {
    "name" : "Race",
    "type" : "int",
    "index" : false,
    "arraySize" : 1
  }, {
    "name" : "Sex",
    "type" : "int",
    "index" : false,
    "arraySize" : 1
  }, {
    "name" : "Camera",
    "type" : "int",
    "index" : false,
    "arraySize" : 1
  }, {
    "name" : "Height",
    "type" : "float",
    "index" : false,
    "arraySize" : 1
  }, {
    "name" : "Radius",
    "type" : "float",
    "index" : false,
    "arraySize" : 1
  }, {
    "name" : "Target",
    "type" : "float",
    "index" : false,
    "arraySize" : 1
  } ]
}