{
  "name" : "CharStartOutfit",
  "build" : 21742,
  "fields" : [ {
    "name" : "ID",
    "type" : "int",
    "index" : true,
    "arraySize" : 1
  }, {
    "name" : "RaceID",
    "type" : "byte",
    "index" : false,
    "arraySize" : 1
  }, {
    "name" : "ClassID",
    "type" : "byte",
    "index" : false,
    "arraySize" : 1
  }, {
    "name" : "SexID",
    "type" : "byte",
    "index" : false,
    "arraySize" : 1
  }, {
    "name" : "OutfitID",
    "type" : "byte",
    "index" : false,
    "arraySize" : 1
  }, {
    "name" : "ItemID",
    "type" : "int",
    "index" : false,
    "arraySize" : 1
  }, {
    "name" : "PetDisplayID",
    "type" : "int",
    "index" : false,
    "arraySize" : 1
  }, {
    "name" : "PetFamilyID",
    "type" : "int",
    "index" : false,
    "arraySize" : 1
  } ]
}