{
  "name" : "CharSections",
  "build" : 12340,
  "fields" : [ {
    "name" : "ID",
    "type" : "int",
    "index" : true,
    "arraySize" : 1
  }, {
    "name" : "RaceID",
    "type" : "int",
    "index" : false,
    "arraySize" : 1
  }, {
    "name" : "SexID",
    "type" : "int",
    "index" : false,
    "arraySize" : 1
  }, {
    "name" : "BaseSection",
    "type" : "int",
    "index" : false,
    "arraySize" : 1
  }, {
    "name" : "TextureName",
    "type" : "string",
    "index" : false,
    "arraySize" : 1
  }, {
    "name" : "Flags",
    "type" : "int",
    "index" : false,
    "arraySize" : 1
  }, {
    "name" : "VariationIndex",
    "type" : "int",
    "index" : false,
    "arraySize" : 1
  }, {
    "name" : "ColorIndex",
    "type" : "int",
    "index" : false,
    "arraySize" : 1
  } ]
}