{
  "name" : "CharacterFacialHairStyles",
  "build" : 26231,
  "fields" : [ {
    "name" : "ID",
    "type" : "int",
    "index" : true,
    "arraySize" : 1
  }, {
    "name" : "Geoset",
    "type" : "uint",
    "index" : false,
    "arraySize" : 1
  }, {
    "name" : "RaceId",
    "type" : "byte",
    "index" : false,
    "arraySize" : 1
  }, {
    "name" : "SexId",
    "type" : "byte",
    "index" : false,
    "arraySize" : 1
  }, {
    "name" : "VariationId",
    "type" : "byte",
    "index" : false,
    "arraySize" : 1
  } ]
}