{
  "name" : "CharacterFacialHairStyles",
  "build" : 3368,
  "fields" : [ {
    "name" : "ID",
    "type" : "int",
    "index" : true,
    "arraySize" : 1
  }, {
    "name" : "RaceID",
    "type" : "int",
    "index" : false,
    "arraySize" : 1
  }, {
    "name" : "GenderID",
    "type" : "int",
    "index" : false,
    "arraySize" : 1
  }, {
    "name" : "VariationID",
    "type" : "int",
    "index" : false,
    "arraySize" : 1
  }, {
    "name" : "BeardGeoset",
    "type" : "int",
    "index" : false,
    "arraySize" : 1
  }, {
    "name" : "MoustacheGeoset",
    "type" : "int",
    "index" : false,
    "arraySize" : 1
  }, {
    "name" : "SideburnGeoset",
    "type" : "int",
    "index" : false,
    "arraySize" : 1
  } ]
}