{
  "name" : "CharTitles",
  "build" : 25632,
  "fields" : [ {
    "name" : "ID",
    "type" : "int",
    "index" : true,
    "arraySize" : 1
  }, {
    "name" : "NameMale",
    "type" : "string",
    "index" : false,
    "arraySize" : 1
  }, {
    "name" : "NameFemale",
    "type" : "string",
    "index" : false,
    "arraySize" : 1
  }, {
    "name" : "MaskID",
    "type" : "ushort",
    "index" : false,
    "arraySize" : 1
  }, {
    "name" : "Flags",
    "type" : "byte",
    "index" : false,
    "arraySize" : 1
  } ]
}