{
  "name" : "CharVariations",
  "build" : 5875,
  "fields" : [ {
    "name" : "ID",
    "type" : "int",
    "index" : true,
    "arraySize" : 1
  }, {
    "name" : "SexID",
    "type" : "int",
    "index" : false,
    "arraySize" : 1
  }, {
    "name" : "Field02",
    "type" : "int",
    "index" : false,
    "arraySize" : 1
  }, {
    "name" : "Mask1",
    "type" : "int",
    "index" : false,
    "arraySize" : 1
  }, {
    "name" : "Mask2",
    "type" : "int",
    "index" : false,
    "arraySize" : 1
  }, {
    "name" : "Field05",
    "type" : "int",
    "index" : false,
    "arraySize" : 1
  } ]
}