{
  "name" : "CharacterFacialHairStyles",
  "build" : 23835,
  "fields" : [ {
    "name" : "ID",
    "type" : "int",
    "index" : true,
    "arraySize" : 1
  }, {
    "name" : "Field04",
    "type" : "uint",
    "index" : false,
    "arraySize" : 1
  }, {
    "name" : "Field18",
    "type" : "byte",
    "index" : false,
    "arraySize" : 1
  }, {
    "name" : "Field19",
    "type" : "byte",
    "index" : false,
    "arraySize" : 1
  }, {
    "name" : "Field1A",
    "type" : "byte",
    "index" : false,
    "arraySize" : 1
  } ]
}