{
  "name" : "ChatChannels",
  "build" : 12340,
  "fields" : [ {
    "name" : "ID",
    "type" : "int",
    "index" : true,
    "arraySize" : 1
  }, {
    "name" : "Flags",
    "type" : "int",
    "index" : false,
    "arraySize" : 1
  }, {
    "name" : "FactionGroup",
    "type" : "int",
    "index" : false,
    "arraySize" : 1
  }, {
    "name" : "Name_Lang",
    "type" : "loc",
    "index" : false,
    "arraySize" : 1
  }, {
    "name" : "Shortcut_Lang",
    "type" : "loc",
    "index" : false,
    "arraySize" : 1
  } ]
}