{
  "name" : "ChrClassRaceSex",
  "build" : 24492,
  "fields" : [ {
    "name" : "ID",
    "type" : "int",
    "index" : true,
    "arraySize" : 1
  }, {
    "name" : "Field04",
    "type" : "byte",
    "index" : false,
    "arraySize" : 1
  }, {
    "name" : "Field05",
    "type" : "byte",
    "index" : false,
    "arraySize" : 1
  }, {
    "name" : "Field06",
    "type" : "byte",
    "index" : false,
    "arraySize" : 1
  }, {
    "name" : "Field07",
    "type" : "byte",
    "index" : false,
    "arraySize" : 1
  }, {
    "name" : "Field08",
    "type" : "ushort",
    "index" : false,
    "arraySize" : 1
  }, {
    "name" : "Field0A",
    "type" : "byte",
    "index" : false,
    "arraySize" : 1
  } ]
}