{
  "name" : "ChrCustomization",
  "build" : 26231,
  "fields" : [ {
    "name" : "ID",
    "type" : "int",
    "index" : true,
    "arraySize" : 1
  }, {
    "name" : "Name",
    "type" : "string",
    "index" : false,
    "arraySize" : 1
  }, {
    "name" : "Sex",
    "type" : "int",
    "index" : false,
    "arraySize" : 1
  }, {
    "name" : "BaseSection",
    "type" : "int",
    "index" : false,
    "arraySize" : 1
  }, {
    "name" : "UiCustomizationType",
    "type" : "int",
    "index" : false,
    "arraySize" : 1
  }, {
    "name" : "Flags",
    "type" : "int",
    "index" : false,
    "arraySize" : 1
  }, {
    "name" : "ComponentSection",
    "type" : "int",
    "index" : false,
    "arraySize" : 1
  } ]
}