{
  "name" : "ChrRaces",
  "build" : 22248,
  "fields" : [ {
    "name" : "ID",
    "type" : "int",
    "index" : true,
    "arraySize" : 1
  }, {
    "name" : "Field00",
    "type" : "int",
    "index" : false,
    "arraySize" : 1
  }, {
    "name" : "Field04",
    "type" : "string",
    "index" : false,
    "arraySize" : 1
  }, {
    "name" : "Field08",
    "type" : "string",
    "index" : false,
    "arraySize" : 1
  }, {
    "name" : "Field0C",
    "type" : "string",
    "index" : false,
    "arraySize" : 1
  }, {
    "name" : "Field10",
    "type" : "string",
    "index" : false,
    "arraySize" : 1
  }, {
    "name" : "Field14",
    "type" : "string",
    "index" : false,
    "arraySize" : 1
  }, {
    "name" : "Field18",
    "type" : "string",
    "index" : false,
    "arraySize" : 1
  }, {
    "name" : "Field20",
    "type" : "string",
    "index" : false,
    "arraySize" : 1
  }, {
    "name" : "Field24",
    "type" : "int",
    "index" : false,
    "arraySize" : 1
  }, {
    "name" : "Field28",
    "type" : "int",
    "index" : false,
    "arraySize" : 1
  }, {
    "name" : "Field2C",
    "type" : "float",
    "index" : false,
    "arraySize" : 1
  }, {
    "name" : "Field38",
    "type" : "float",
    "index" : false,
    "arraySize" : 1
  }, {
    "name" : "Field44",
    "type" : "int",
    "index" : false,
    "arraySize" : 1
  }, {
    "name" : "Field48",
    "type" : "ushort",
    "index" : false,
    "arraySize" : 1
  }, {
    "name" : "Field4A",
    "type" : "ushort",
    "index" : false,
    "arraySize" : 1
  }, {
    "name" : "Field4C",
    "type" : "ushort",
    "index" : false,
    "arraySize" : 1
  }, {
    "name" : "Field4E",
    "type" : "ushort",
    "index" : false,
    "arraySize" : 1
  }, {
    "name" : "Field50",
    "type" : "ushort",
    "index" : false,
    "arraySize" : 1
  }, {
    "name" : "Field52",
    "type" : "ushort",
    "index" : false,
    "arraySize" : 1
  }, {
    "name" : "Field54",
    "type" : "ushort",
    "index" : false,
    "arraySize" : 1
  }, {
    "name" : "Field56",
    "type" : "ushort",
    "index" : false,
    "arraySize" : 1
  }, {
    "name" : "Field58",
    "type" : "ushort",
    "index" : false,
    "arraySize" : 1
  }, {
    "name" : "Field5A",
    "type" : "byte",
    "index" : false,
    "arraySize" : 1
  }, {
    "name" : "Field5B",
    "type" : "byte",
    "index" : false,
    "arraySize" : 1
  }, {
    "name" : "Field5C",
    "type" : "byte",
    "index" : false,
    "arraySize" : 1
  }, {
    "name" : "Field5D",
    "type" : "byte",
    "index" : false,
    "arraySize" : 1
  }, {
    "name" : "Field5E",
    "type" : "byte",
    "index" : false,
    "arraySize" : 1
  }, {
    "name" : "Field5F",
    "type" : "byte",
    "index" : false,
    "arraySize" : 1
  }, {
    "name" : "Field60",
    "type" : "byte",
    "index" : false,
    "arraySize" : 1
  }, {
    "name" : "Field61",
    "type" : "byte",
    "index" : false,
    "arraySize" : 1
  }, {
    "name" : "Field62",
    "type" : "byte",
    "index" : false,
    "arraySize" : 1
  }, {
    "name" : "Field63",
    "type" : "byte",
    "index" : false,
    "arraySize" : 1
  }, {
    "name" : "Field64",
    "type" : "int",
    "index" : false,
    "arraySize" : 1
  }, {
    "name" : "Field68",
    "type" : "int",
    "index" : false,
    "arraySize" : 1
  }, {
    "name" : "Field6C",
    "type" : "int",
    "index" : false,
    "arraySize" : 1
  } ]
}