{
  "name" : "ChrRaces",
  "build" : 21742,
  "fields" : [ {
    "name" : "ID",
    "type" : "int",
    "index" : true,
    "arraySize" : 1
  }, {
    "name" : "Flags",
    "type" : "int",
    "index" : false,
    "arraySize" : 1
  }, {
    "name" : "FactionID",
    "type" : "int",
    "index" : false,
    "arraySize" : 1
  }, {
    "name" : "ExplorationSoundID",
    "type" : "int",
    "index" : false,
    "arraySize" : 1
  }, {
    "name" : "MaleDisplayId",
    "type" : "int",
    "index" : false,
    "arraySize" : 1
  }, {
    "name" : "FemaleDisplayId",
    "type" : "int",
    "index" : false,
    "arraySize" : 1
  }, {
    "name" : "ClientPrefix",
    "type" : "string",
    "index" : false,
    "arraySize" : 1
  }, {
    "name" : "BaseLanguage",
    "type" : "int",
    "index" : false,
    "arraySize" : 1
  }, {
    "name" : "CreatureType",
    "type" : "int",
    "index" : false,
    "arraySize" : 1
  }, {
    "name" : "ResSicknessSpellID",
    "type" : "int",
    "index" : false,
    "arraySize" : 1
  }, {
    "name" : "SplashSoundID",
    "type" : "int",
    "index" : false,
    "arraySize" : 1
  }, {
    "name" : "ClientFilestring",
    "type" : "string",
    "index" : false,
    "arraySize" : 1
  }, {
    "name" : "CinematicSequenceID",
    "type" : "int",
    "index" : false,
    "arraySize" : 1
  }, {
    "name" : "Alliance",
    "type" : "int",
    "index" : false,
    "arraySize" : 1
  }, {
    "name" : "Name_Lang",
    "type" : "string",
    "index" : false,
    "arraySize" : 1
  }, {
    "name" : "Name_Female_Lang",
    "type" : "string",
    "index" : false,
    "arraySize" : 1
  }, {
    "name" : "Name_Male_Lang",
    "type" : "string",
    "index" : false,
    "arraySize" : 1
  }, {
    "name" : "FacialHairCustomization",
    "type" : "string",
    "index" : false,
    "arraySize" : 1
  }, {
    "name" : "HairCustomization",
    "type" : "string",
    "index" : false,
    "arraySize" : 1
  }, {
    "name" : "Race_Related",
    "type" : "int",
    "index" : false,
    "arraySize" : 1
  }, {
    "name" : "UnalteredVisualRaceID",
    "type" : "int",
    "index" : false,
    "arraySize" : 1
  }, {
    "name" : "UaMaleCreatureSoundDataID",
    "type" : "int",
    "index" : false,
    "arraySize" : 1
  }, {
    "name" : "UaFemaleCreatureSoundDataID",
    "type" : "int",
    "index" : false,
    "arraySize" : 1
  }, {
    "name" : "CharComponentTextureLayoutID",
    "type" : "int",
    "index" : false,
    "arraySize" : 1
  }, {
    "name" : "DefaultClassID",
    "type" : "int",
    "index" : false,
    "arraySize" : 1
  }, {
    "name" : "CreateScreenFileDataID",
    "type" : "int",
    "index" : false,
    "arraySize" : 1
  }, {
    "name" : "SelectScreenFileDataID",
    "type" : "int",
    "index" : false,
    "arraySize" : 1
  }, {
    "name" : "MaleCustomizeOffset",
    "type" : "float",
    "index" : false,
    "arraySize" : 1
  }, {
    "name" : "FemaleCustomizeOffset",
    "type" : "float",
    "index" : false,
    "arraySize" : 1
  }, {
    "name" : "NeutralRaceID",
    "type" : "int",
    "index" : false,
    "arraySize" : 1
  }, {
    "name" : "LowResScreenFileDataID",
    "type" : "int",
    "index" : false,
    "arraySize" : 1
  }, {
    "name" : "HighResMaleDisplayId",
    "type" : "int",
    "index" : false,
    "arraySize" : 1
  }, {
    "name" : "HighResFemaleDisplayId",
    "type" : "int",
    "index" : false,
    "arraySize" : 1
  }, {
    "name" : "CharComponentTexLayoutHiResID",
    "type" : "int",
    "index" : false,
    "arraySize" : 1
  }, {
    "name" : "Field34",
    "type" : "int",
    "index" : false,
    "arraySize" : 1
  } ]
}