{
  "name" : "ChrSpecialization",
  "build" : 24793,
  "fields" : [ {
    "name" : "Field00",
    "type" : "uint",
    "index" : false,
    "arraySize" : 1
  }, {
    "name" : "Field08",
    "type" : "string",
    "index" : false,
    "arraySize" : 1
  }, {
    "name" : "Field0C",
    "type" : "string",
    "index" : false,
    "arraySize" : 1
  }, {
    "name" : "Field10",
    "type" : "string",
    "index" : false,
    "arraySize" : 1
  }, {
    "name" : "Field14",
    "type" : "byte",
    "index" : false,
    "arraySize" : 1
  }, {
    "name" : "Field15",
    "type" : "byte",
    "index" : false,
    "arraySize" : 1
  }, {
    "name" : "Field16",
    "type" : "byte",
    "index" : false,
    "arraySize" : 1
  }, {
    "name" : "Field17",
    "type" : "byte",
    "index" : false,
    "arraySize" : 1
  }, {
    "name" : "Field18",
    "type" : "byte",
    "index" : false,
    "arraySize" : 1
  }, {
    "name" : "ID",
    "type" : "int",
    "index" : true,
    "arraySize" : 1
  }, {
    "name" : "Field1B",
    "type" : "int",
    "index" : false,
    "arraySize" : 1
  }, {
    "name" : "Field1E",
    "type" : "ushort",
    "index" : false,
    "arraySize" : 1
  }, {
    "name" : "Field20",
    "type" : "ushort",
    "index" : false,
    "arraySize" : 1
  } ]
}