{
  "name" : "ChrSpecialization",
  "build" : 23835,
  "fields" : [ {
    "name" : "MasterySpellID",
    "type" : "uint",
    "index" : false,
    "arraySize" : 1
  }, {
    "name" : "Name",
    "type" : "string",
    "index" : false,
    "arraySize" : 1
  }, {
    "name" : "Name2",
    "type" : "string",
    "index" : false,
    "arraySize" : 1
  }, {
    "name" : "Description",
    "type" : "string",
    "index" : false,
    "arraySize" : 1
  }, {
    "name" : "ClassID",
    "type" : "byte",
    "index" : false,
    "arraySize" : 1
  }, {
    "name" : "OrderIndex",
    "type" : "byte",
    "index" : false,
    "arraySize" : 1
  }, {
    "name" : "PetTalentType",
    "type" : "byte",
    "index" : false,
    "arraySize" : 1
  }, {
    "name" : "Role",
    "type" : "byte",
    "index" : false,
    "arraySize" : 1
  }, {
    "name" : "PrimaryStatOrder",
    "type" : "byte",
    "index" : false,
    "arraySize" : 1
  }, {
    "name" : "ID",
    "type" : "int",
    "index" : true,
    "arraySize" : 1
  }, {
    "name" : "IconFileDataID",
    "type" : "uint",
    "index" : false,
    "arraySize" : 1
  }, {
    "name" : "Flags",
    "type" : "uint",
    "index" : false,
    "arraySize" : 1
  }, {
    "name" : "AnimReplacementSetID",
    "type" : "uint",
    "index" : false,
    "arraySize" : 1
  } ]
}