{
  "name" : "ChrUpgradeTier",
  "build" : 26231,
  "fields" : [ {
    "name" : "DisplayName",
    "type" : "string",
    "index" : false,
    "arraySize" : 1
  }, {
    "name" : "OrderIndex",
    "type" : "byte",
    "index" : false,
    "arraySize" : 1
  }, {
    "name" : "NumTalents",
    "type" : "byte",
    "index" : false,
    "arraySize" : 1
  }, {
    "name" : "ID",
    "type" : "int",
    "index" : true,
    "arraySize" : 1
  } ]
}