{
  "name" : "CinematicSequences",
  "build" : 23835,
  "fields" : [ {
    "name" : "ID",
    "type" : "int",
    "index" : true,
    "arraySize" : 1
  }, {
    "name" : "SoundID",
    "type" : "uint",
    "index" : false,
    "arraySize" : 1
  }, {
    "name" : "Camera",
    "type" : "ushort",
    "index" : false,
    "arraySize" : 1
  } ]
}