{
  "name" : "CinematicCamera",
  "build" : 5875,
  "fields" : [ {
    "name" : "ID",
    "type" : "int",
    "index" : true,
    "arraySize" : 1
  }, {
    "name" : "Model",
    "type" : "string",
    "index" : false,
    "arraySize" : 1
  }, {
    "name" : "SoundID",
    "type" : "int",
    "index" : false,
    "arraySize" : 1
  }, {
    "name" : "OriginX",
    "type" : "float",
    "index" : false,
    "arraySize" : 1
  }, {
    "name" : "OriginY",
    "type" : "float",
    "index" : false,
    "arraySize" : 1
  }, {
    "name" : "OriginZ",
    "type" : "float",
    "index" : false,
    "arraySize" : 1
  }, {
    "name" : "OriginFacing",
    "type" : "float",
    "index" : false,
    "arraySize" : 1
  } ]
}