{
  "name" : "CombatCondition",
  "build" : 18414,
  "fields" : [ {
    "name" : "ID",
    "type" : "int",
    "index" : true,
    "arraySize" : 1
  }, {
    "name" : "Field01",
    "type" : "int",
    "index" : false,
    "arraySize" : 1
  }, {
    "name" : "Field02",
    "type" : "int",
    "index" : false,
    "arraySize" : 1
  }, {
    "name" : "Field03",
    "type" : "int",
    "index" : false,
    "arraySize" : 1
  }, {
    "name" : "Field04",
    "type" : "int",
    "index" : false,
    "arraySize" : 1
  }, {
    "name" : "Field05",
    "type" : "int",
    "index" : false,
    "arraySize" : 1
  }, {
    "name" : "Field06",
    "type" : "int",
    "index" : false,
    "arraySize" : 1
  }, {
    "name" : "Field07",
    "type" : "int",
    "index" : false,
    "arraySize" : 1
  }, {
    "name" : "Field08",
    "type" : "int",
    "index" : false,
    "arraySize" : 1
  }, {
    "name" : "Field09",
    "type" : "int",
    "index" : false,
    "arraySize" : 1
  }, {
    "name" : "Field10",
    "type" : "int",
    "index" : false,
    "arraySize" : 1
  }, {
    "name" : "Field11",
    "type" : "int",
    "index" : false,
    "arraySize" : 1
  }, {
    "name" : "Field12",
    "type" : "int",
    "index" : false,
    "arraySize" : 1
  }, {
    "name" : "Field13",
    "type" : "int",
    "index" : false,
    "arraySize" : 1
  }, {
    "name" : "Field14",
    "type" : "int",
    "index" : false,
    "arraySize" : 1
  }, {
    "name" : "Field15",
    "type" : "int",
    "index" : false,
    "arraySize" : 1
  }, {
    "name" : "Field16",
    "type" : "int",
    "index" : false,
    "arraySize" : 1
  }, {
    "name" : "Field17",
    "type" : "int",
    "index" : false,
    "arraySize" : 1
  } ]
}