{
  "name" : "CombatCondition",
  "build" : 22248,
  "fields" : [ {
    "name" : "ID",
    "type" : "int",
    "index" : true,
    "arraySize" : 1
  }, {
    "name" : "Field00",
    "type" : "ushort",
    "index" : false,
    "arraySize" : 1
  }, {
    "name" : "Field02",
    "type" : "ushort",
    "index" : false,
    "arraySize" : 1
  }, {
    "name" : "Field04",
    "type" : "ushort",
    "index" : false,
    "arraySize" : 1
  }, {
    "name" : "Field06",
    "type" : "ushort",
    "index" : false,
    "arraySize" : 1
  }, {
    "name" : "Field0A",
    "type" : "ushort",
    "index" : false,
    "arraySize" : 1
  }, {
    "name" : "Field0E",
    "type" : "byte",
    "index" : false,
    "arraySize" : 1
  }, {
    "name" : "Field10",
    "type" : "byte",
    "index" : false,
    "arraySize" : 1
  }, {
    "name" : "Field12",
    "type" : "byte",
    "index" : false,
    "arraySize" : 1
  }, {
    "name" : "Field13",
    "type" : "byte",
    "index" : false,
    "arraySize" : 1
  }, {
    "name" : "Field15",
    "type" : "byte",
    "index" : false,
    "arraySize" : 1
  }, {
    "name" : "Field17",
    "type" : "byte",
    "index" : false,
    "arraySize" : 1
  } ]
}