{
  "name" : "ComponentTextureFileData",
  "build" : 21742,
  "fields" : [ {
    "name" : "ID",
    "type" : "int",
    "index" : true,
    "arraySize" : 1
  }, {
    "name" : "TextureItemID",
    "type" : "byte",
    "index" : false,
    "arraySize" : 1
  }, {
    "name" : "Field02",
    "type" : "byte",
    "index" : false,
    "arraySize" : 1
  }, {
    "name" : "Texture_Type",
    "type" : "byte",
    "index" : false,
    "arraySize" : 1
  }, {
    "name" : "FileDataRef",
    "type" : "int",
    "index" : false,
    "arraySize" : 1
  } ]
}