{
  "name" : "CreatureDisplayInfoExtra",
  "build" : 26231,
  "fields" : [ {
    "name" : "ID",
    "type" : "int",
    "index" : true,
    "arraySize" : 1
  }, {
    "name" : "BakeMaterialResourcesId",
    "type" : "int",
    "index" : false,
    "arraySize" : 1
  }, {
    "name" : "HDBakeMaterialResourcesId",
    "type" : "int",
    "index" : false,
    "arraySize" : 1
  }, {
    "name" : "DisplayRaceId",
    "type" : "byte",
    "index" : false,
    "arraySize" : 1
  }, {
    "name" : "DisplaySexId",
    "type" : "byte",
    "index" : false,
    "arraySize" : 1
  }, {
    "name" : "DisplayClassId",
    "type" : "byte",
    "index" : false,
    "arraySize" : 1
  }, {
    "name" : "SkinId",
    "type" : "byte",
    "index" : false,
    "arraySize" : 1
  }, {
    "name" : "FaceId",
    "type" : "byte",
    "index" : false,
    "arraySize" : 1
  }, {
    "name" : "HairStyleId",
    "type" : "byte",
    "index" : false,
    "arraySize" : 1
  }, {
    "name" : "HairColorId",
    "type" : "byte",
    "index" : false,
    "arraySize" : 1
  }, {
    "name" : "FacialHairId",
    "type" : "byte",
    "index" : false,
    "arraySize" : 1
  }, {
    "name" : "CustomDisplayOption",
    "type" : "byte",
    "index" : false,
    "arraySize" : 1
  }, {
    "name" : "Flags",
    "type" : "byte",
    "index" : false,
    "arraySize" : 1
  } ]
}