{
  "name" : "CreatureFamily",
  "build" : 5875,
  "fields" : [ {
    "name" : "ID",
    "type" : "int",
    "index" : true,
    "arraySize" : 1
  }, {
    "name" : "MinScale",
    "type" : "float",
    "index" : false,
    "arraySize" : 1
  }, {
    "name" : "MinScaleLevel",
    "type" : "int",
    "index" : false,
    "arraySize" : 1
  }, {
    "name" : "MaxScale",
    "type" : "float",
    "index" : false,
    "arraySize" : 1
  }, {
    "name" : "MaxScaleLevel",
    "type" : "int",
    "index" : false,
    "arraySize" : 1
  }, {
    "name" : "PetFoodMask",
    "type" : "int",
    "index" : false,
    "arraySize" : 1
  }, {
    "name" : "PetTalentType",
    "type" : "int",
    "index" : false,
    "arraySize" : 1
  }, {
    "name" : "CategoryEnumID",
    "type" : "int",
    "index" : false,
    "arraySize" : 1
  }, {
    "name" : "Name",
    "type" : "loc",
    "index" : false,
    "arraySize" : 1
  }, {
    "name" : "IconFile",
    "type" : "string",
    "index" : false,
    "arraySize" : 1
  } ]
}