{
  "name" : "Creature",
  "build" : 25632,
  "fields" : [ {
    "name" : "ID",
    "type" : "int",
    "index" : true,
    "arraySize" : 1
  }, {
    "name" : "Field1",
    "type" : "string",
    "index" : false,
    "arraySize" : 1
  }, {
    "name" : "Field2",
    "type" : "string",
    "index" : false,
    "arraySize" : 1
  }, {
    "name" : "Field3",
    "type" : "string",
    "index" : false,
    "arraySize" : 1
  }, {
    "name" : "Field4",
    "type" : "string",
    "index" : false,
    "arraySize" : 1
  }, {
    "name" : "Field5",
    "type" : "int",
    "index" : false,
    "arraySize" : 1
  }, {
    "name" : "Field6",
    "type" : "int",
    "index" : false,
    "arraySize" : 1
  }, {
    "name" : "Field7",
    "type" : "int",
    "index" : false,
    "arraySize" : 1
  }, {
    "name" : "Field8",
    "type" : "float",
    "index" : false,
    "arraySize" : 1
  }, {
    "name" : "Field9",
    "type" : "byte",
    "index" : false,
    "arraySize" : 1
  }, {
    "name" : "FieldA",
    "type" : "byte",
    "index" : false,
    "arraySize" : 1
  }, {
    "name" : "FieldB",
    "type" : "byte",
    "index" : false,
    "arraySize" : 1
  }, {
    "name" : "FieldC",
    "type" : "byte",
    "index" : false,
    "arraySize" : 1
  } ]
}