{
  "name" : "CreatureDisplayInfoExtra",
  "build" : 5875,
  "fields" : [ {
    "name" : "ID",
    "type" : "int",
    "index" : true,
    "arraySize" : 1
  }, {
    "name" : "DisplayRaceID",
    "type" : "int",
    "index" : false,
    "arraySize" : 1
  }, {
    "name" : "DisplaySexID",
    "type" : "int",
    "index" : false,
    "arraySize" : 1
  }, {
    "name" : "SkinID",
    "type" : "int",
    "index" : false,
    "arraySize" : 1
  }, {
    "name" : "FaceID",
    "type" : "int",
    "index" : false,
    "arraySize" : 1
  }, {
    "name" : "HairStyleID",
    "type" : "int",
    "index" : false,
    "arraySize" : 1
  }, {
    "name" : "HairColorID",
    "type" : "int",
    "index" : false,
    "arraySize" : 1
  }, {
    "name" : "FacialHairID",
    "type" : "int",
    "index" : false,
    "arraySize" : 1
  }, {
    "name" : "NPCItemDisplayID",
    "type" : "int",
    "index" : false,
    "arraySize" : 1
  }, {
    "name" : "Flags",
    "type" : "int",
    "index" : false,
    "arraySize" : 1
  }, {
    "name" : "BakeName",
    "type" : "string",
    "index" : false,
    "arraySize" : 1
  } ]
}