{
  "name" : "CreatureDisplayInfo",
  "build" : 25632,
  "fields" : [ {
    "name" : "ID",
    "type" : "int",
    "index" : true,
    "arraySize" : 1
  }, {
    "name" : "CreatureModelScale",
    "type" : "float",
    "index" : false,
    "arraySize" : 1
  }, {
    "name" : "ModelID",
    "type" : "ushort",
    "index" : false,
    "arraySize" : 1
  }, {
    "name" : "NPCSoundID",
    "type" : "ushort",
    "index" : false,
    "arraySize" : 1
  }, {
    "name" : "SizeClass",
    "type" : "byte",
    "index" : false,
    "arraySize" : 1
  }, {
    "name" : "Flags",
    "type" : "byte",
    "index" : false,
    "arraySize" : 1
  }, {
    "name" : "Gender",
    "type" : "byte",
    "index" : false,
    "arraySize" : 1
  }, {
    "name" : "ExtendedDisplayInfoID",
    "type" : "uint",
    "index" : false,
    "arraySize" : 1
  }, {
    "name" : "PortraitTextureFileDataID",
    "type" : "uint",
    "index" : false,
    "arraySize" : 1
  }, {
    "name" : "CreatureModelAlpha",
    "type" : "byte",
    "index" : false,
    "arraySize" : 1
  }, {
    "name" : "SoundID",
    "type" : "ushort",
    "index" : false,
    "arraySize" : 1
  }, {
    "name" : "PlayerModelScale",
    "type" : "float",
    "index" : false,
    "arraySize" : 1
  }, {
    "name" : "PortraitCreatureDisplayInfoID",
    "type" : "uint",
    "index" : false,
    "arraySize" : 1
  }, {
    "name" : "BloodID",
    "type" : "byte",
    "index" : false,
    "arraySize" : 1
  }, {
    "name" : "ParticleColorID",
    "type" : "ushort",
    "index" : false,
    "arraySize" : 1
  }, {
    "name" : "CreatureGeosetData",
    "type" : "uint",
    "index" : false,
    "arraySize" : 1
  }, {
    "name" : "ObjectEffectPackageID",
    "type" : "ushort",
    "index" : false,
    "arraySize" : 1
  }, {
    "name" : "AnimReplacementSetID",
    "type" : "ushort",
    "index" : false,
    "arraySize" : 1
  }, {
    "name" : "UnarmedWeaponSubclass",
    "type" : "byte",
    "index" : false,
    "arraySize" : 1
  }, {
    "name" : "StateSpellVisualKitID",
    "type" : "uint",
    "index" : false,
    "arraySize" : 1
  }, {
    "name" : "InstanceOtherPlayerPetScale",
    "type" : "float",
    "index" : false,
    "arraySize" : 1
  }, {
    "name" : "MountSpellVisualKitID",
    "type" : "uint",
    "index" : false,
    "arraySize" : 1
  }, {
    "name" : "TextureVariation",
    "type" : "uint",
    "index" : false,
    "arraySize" : 1
  } ]
}