{
  "name" : "CreatureDisplayInfoExtra",
  "build" : 24492,
  "fields" : [ {
    "name" : "ID",
    "type" : "int",
    "index" : true,
    "arraySize" : 1
  }, {
    "name" : "FileDataID",
    "type" : "uint",
    "index" : false,
    "arraySize" : 1
  }, {
    "name" : "HDFileDataID",
    "type" : "uint",
    "index" : false,
    "arraySize" : 1
  }, {
    "name" : "DisplayRaceID",
    "type" : "byte",
    "index" : false,
    "arraySize" : 1
  }, {
    "name" : "DisplaySexID",
    "type" : "byte",
    "index" : false,
    "arraySize" : 1
  }, {
    "name" : "DisplayClassID",
    "type" : "byte",
    "index" : false,
    "arraySize" : 1
  }, {
    "name" : "SkinID",
    "type" : "byte",
    "index" : false,
    "arraySize" : 1
  }, {
    "name" : "FaceID",
    "type" : "byte",
    "index" : false,
    "arraySize" : 1
  }, {
    "name" : "HairStyleID",
    "type" : "byte",
    "index" : false,
    "arraySize" : 1
  }, {
    "name" : "HairColorID",
    "type" : "byte",
    "index" : false,
    "arraySize" : 1
  }, {
    "name" : "FacialHairID",
    "type" : "byte",
    "index" : false,
    "arraySize" : 1
  }, {
    "name" : "CustomDisplayOption",
    "type" : "byte",
    "index" : false,
    "arraySize" : 1
  }, {
    "name" : "Flags",
    "type" : "byte",
    "index" : false,
    "arraySize" : 1
  } ]
}