{
  "name" : "CreatureDisplayInfoCond",
  "build" : 23835,
  "fields" : [ {
    "name" : "ID",
    "type" : "int",
    "index" : true,
    "arraySize" : 1
  }, {
    "name" : "Field04",
    "type" : "uint",
    "index" : false,
    "arraySize" : 1
  }, {
    "name" : "Field08",
    "type" : "int",
    "index" : false,
    "arraySize" : 1
  }, {
    "name" : "Field10",
    "type" : "uint",
    "index" : false,
    "arraySize" : 1
  }, {
    "name" : "Field18",
    "type" : "uint",
    "index" : false,
    "arraySize" : 1
  }, {
    "name" : "Field20",
    "type" : "byte",
    "index" : false,
    "arraySize" : 1
  }, {
    "name" : "Field21",
    "type" : "byte",
    "index" : false,
    "arraySize" : 1
  }, {
    "name" : "Field22",
    "type" : "ushort",
    "index" : false,
    "arraySize" : 1
  }, {
    "name" : "Field24",
    "type" : "byte",
    "index" : false,
    "arraySize" : 1
  }, {
    "name" : "Field25",
    "type" : "byte",
    "index" : false,
    "arraySize" : 1
  }, {
    "name" : "Field26",
    "type" : "ushort",
    "index" : false,
    "arraySize" : 1
  }, {
    "name" : "Field28",
    "type" : "byte",
    "index" : false,
    "arraySize" : 1
  }, {
    "name" : "Field29",
    "type" : "byte",
    "index" : false,
    "arraySize" : 1
  }, {
    "name" : "Field2A",
    "type" : "byte",
    "index" : false,
    "arraySize" : 1
  }, {
    "name" : "Field2B",
    "type" : "ushort",
    "index" : false,
    "arraySize" : 1
  }, {
    "name" : "Field2D",
    "type" : "int",
    "index" : false,
    "arraySize" : 1
  } ]
}