{
  "name" : "CreatureDisplayInfo",
  "build" : 3368,
  "fields" : [ {
    "name" : "ID",
    "type" : "int",
    "index" : true,
    "arraySize" : 1
  }, {
    "name" : "ModelID",
    "type" : "int",
    "index" : false,
    "arraySize" : 1
  }, {
    "name" : "SoundID",
    "type" : "int",
    "index" : false,
    "arraySize" : 1
  }, {
    "name" : "ExtendedDisplayInfoID",
    "type" : "int",
    "index" : false,
    "arraySize" : 1
  }, {
    "name" : "CreatureModelScale",
    "type" : "float",
    "index" : false,
    "arraySize" : 1
  }, {
    "name" : "CreatureModelAlpha",
    "type" : "int",
    "index" : false,
    "arraySize" : 1
  }, {
    "name" : "TextureVariation",
    "type" : "string",
    "index" : false,
    "arraySize" : 1
  }, {
    "name" : "BloodID",
    "type" : "int",
    "index" : false,
    "arraySize" : 1
  } ]
}