{
  "name" : "CreatureSoundData",
  "build" : 23835,
  "fields" : [ {
    "name" : "ID",
    "type" : "int",
    "index" : true,
    "arraySize" : 1
  }, {
    "name" : "Field004",
    "type" : "float",
    "index" : false,
    "arraySize" : 1
  }, {
    "name" : "Field008",
    "type" : "float",
    "index" : false,
    "arraySize" : 1
  }, {
    "name" : "Field00C",
    "type" : "byte",
    "index" : false,
    "arraySize" : 1
  }, {
    "name" : "Field00D",
    "type" : "int",
    "index" : false,
    "arraySize" : 1
  }, {
    "name" : "Field010",
    "type" : "int",
    "index" : false,
    "arraySize" : 1
  }, {
    "name" : "Field013",
    "type" : "int",
    "index" : false,
    "arraySize" : 1
  }, {
    "name" : "Field016",
    "type" : "int",
    "index" : false,
    "arraySize" : 1
  }, {
    "name" : "Field019",
    "type" : "byte",
    "index" : false,
    "arraySize" : 1
  }, {
    "name" : "Field01A",
    "type" : "int",
    "index" : false,
    "arraySize" : 1
  }, {
    "name" : "Field01D",
    "type" : "int",
    "index" : false,
    "arraySize" : 1
  }, {
    "name" : "Field020",
    "type" : "int",
    "index" : false,
    "arraySize" : 1
  }, {
    "name" : "Field023",
    "type" : "ushort",
    "index" : false,
    "arraySize" : 1
  }, {
    "name" : "Field025",
    "type" : "int",
    "index" : false,
    "arraySize" : 1
  }, {
    "name" : "Field028",
    "type" : "int",
    "index" : false,
    "arraySize" : 1
  }, {
    "name" : "Field02B",
    "type" : "int",
    "index" : false,
    "arraySize" : 1
  }, {
    "name" : "Field02E",
    "type" : "int",
    "index" : false,
    "arraySize" : 1
  }, {
    "name" : "Field031",
    "type" : "int",
    "index" : false,
    "arraySize" : 1
  }, {
    "name" : "Field040",
    "type" : "int",
    "index" : false,
    "arraySize" : 1
  }, {
    "name" : "Field04C",
    "type" : "byte",
    "index" : false,
    "arraySize" : 1
  }, {
    "name" : "Field04D",
    "type" : "int",
    "index" : false,
    "arraySize" : 1
  }, {
    "name" : "Field050",
    "type" : "int",
    "index" : false,
    "arraySize" : 1
  }, {
    "name" : "Field053",
    "type" : "int",
    "index" : false,
    "arraySize" : 1
  }, {
    "name" : "Field056",
    "type" : "ushort",
    "index" : false,
    "arraySize" : 1
  }, {
    "name" : "Field058",
    "type" : "ushort",
    "index" : false,
    "arraySize" : 1
  }, {
    "name" : "Field05A",
    "type" : "ushort",
    "index" : false,
    "arraySize" : 1
  }, {
    "name" : "Field05C",
    "type" : "int",
    "index" : false,
    "arraySize" : 1
  }, {
    "name" : "Field05F",
    "type" : "ushort",
    "index" : false,
    "arraySize" : 1
  }, {
    "name" : "Field061",
    "type" : "int",
    "index" : false,
    "arraySize" : 1
  }, {
    "name" : "Field064",
    "type" : "int",
    "index" : false,
    "arraySize" : 1
  }, {
    "name" : "Field067",
    "type" : "ushort",
    "index" : false,
    "arraySize" : 1
  }, {
    "name" : "Field069",
    "type" : "int",
    "index" : false,
    "arraySize" : 1
  }, {
    "name" : "Field06C",
    "type" : "int",
    "index" : false,
    "arraySize" : 1
  }, {
    "name" : "Field06F",
    "type" : "int",
    "index" : false,
    "arraySize" : 1
  }, {
    "name" : "Field072",
    "type" : "byte",
    "index" : false,
    "arraySize" : 1
  }, {
    "name" : "Field073",
    "type" : "int",
    "index" : false,
    "arraySize" : 1
  }, {
    "name" : "Field076",
    "type" : "int",
    "index" : false,
    "arraySize" : 1
  }, {
    "name" : "Field079",
    "type" : "int",
    "index" : false,
    "arraySize" : 1
  } ]
}