{
  "name" : "CreatureCache",
  "build" : 18414,
  "fields" : [ {
    "name" : "ID",
    "type" : "int",
    "index" : true,
    "arraySize" : 1
  }, {
    "name" : "Field01",
    "type" : "int",
    "index" : false,
    "arraySize" : 1
  }, {
    "name" : "Field02",
    "type" : "int",
    "index" : false,
    "arraySize" : 1
  }, {
    "name" : "Field03",
    "type" : "int",
    "index" : false,
    "arraySize" : 1
  }, {
    "name" : "Field04",
    "type" : "byte",
    "index" : false,
    "arraySize" : 1
  }, {
    "name" : "Field05",
    "type" : "byte",
    "index" : false,
    "arraySize" : 1
  }, {
    "name" : "Field06",
    "type" : "byte",
    "index" : false,
    "arraySize" : 1
  }, {
    "name" : "Name",
    "type" : "string",
    "index" : false,
    "arraySize" : 1
  }, {
    "name" : "Field08",
    "type" : "int",
    "index" : false,
    "arraySize" : 1
  }, {
    "name" : "Field09",
    "type" : "int",
    "index" : false,
    "arraySize" : 1
  }, {
    "name" : "Field10",
    "type" : "int",
    "index" : false,
    "arraySize" : 1
  }, {
    "name" : "Field11",
    "type" : "int",
    "index" : false,
    "arraySize" : 1
  }, {
    "name" : "Field12",
    "type" : "int",
    "index" : false,
    "arraySize" : 1
  }, {
    "name" : "Field13",
    "type" : "int",
    "index" : false,
    "arraySize" : 1
  }, {
    "name" : "Field14",
    "type" : "int",
    "index" : false,
    "arraySize" : 1
  }, {
    "name" : "Field15",
    "type" : "int",
    "index" : false,
    "arraySize" : 1
  }, {
    "name" : "Field16",
    "type" : "int",
    "index" : false,
    "arraySize" : 1
  }, {
    "name" : "Field17",
    "type" : "int",
    "index" : false,
    "arraySize" : 1
  }, {
    "name" : "Field18",
    "type" : "int",
    "index" : false,
    "arraySize" : 1
  }, {
    "name" : "Field19",
    "type" : "float",
    "index" : false,
    "arraySize" : 1
  }, {
    "name" : "Field20",
    "type" : "float",
    "index" : false,
    "arraySize" : 1
  }, {
    "name" : "Field21",
    "type" : "int",
    "index" : false,
    "arraySize" : 1
  }, {
    "name" : "Field22",
    "type" : "int",
    "index" : false,
    "arraySize" : 1
  }, {
    "name" : "Field23",
    "type" : "byte",
    "index" : false,
    "arraySize" : 1
  }, {
    "name" : "Icon",
    "type" : "string",
    "index" : false,
    "arraySize" : 1
  } ]
}