{
  "name" : "CreatureSoundData",
  "build" : 3368,
  "fields" : [ {
    "name" : "ID",
    "type" : "int",
    "index" : true,
    "arraySize" : 1
  }, {
    "name" : "SoundExertionID",
    "type" : "int",
    "index" : false,
    "arraySize" : 1
  }, {
    "name" : "SoundExertionCriticalID",
    "type" : "int",
    "index" : false,
    "arraySize" : 1
  }, {
    "name" : "SoundInjuryID",
    "type" : "int",
    "index" : false,
    "arraySize" : 1
  }, {
    "name" : "SoundInjuryCriticalID",
    "type" : "int",
    "index" : false,
    "arraySize" : 1
  }, {
    "name" : "SoundInjuryCrushingBlowID",
    "type" : "int",
    "index" : false,
    "arraySize" : 1
  }, {
    "name" : "SoundDeathID",
    "type" : "int",
    "index" : false,
    "arraySize" : 1
  }, {
    "name" : "SoundStunID",
    "type" : "int",
    "index" : false,
    "arraySize" : 1
  }, {
    "name" : "SoundStandID",
    "type" : "int",
    "index" : false,
    "arraySize" : 1
  }, {
    "name" : "SoundFootstepID",
    "type" : "int",
    "index" : false,
    "arraySize" : 1
  }, {
    "name" : "SoundAggroID",
    "type" : "int",
    "index" : false,
    "arraySize" : 1
  }, {
    "name" : "SoundWingFlapID",
    "type" : "int",
    "index" : false,
    "arraySize" : 1
  }, {
    "name" : "SoundWingGlideID",
    "type" : "int",
    "index" : false,
    "arraySize" : 1
  }, {
    "name" : "SoundAlertID",
    "type" : "int",
    "index" : false,
    "arraySize" : 1
  }, {
    "name" : "SoundFidget",
    "type" : "int",
    "index" : false,
    "arraySize" : 1
  }, {
    "name" : "CustomAttack",
    "type" : "int",
    "index" : false,
    "arraySize" : 1
  }, {
    "name" : "NPCSoundID",
    "type" : "int",
    "index" : false,
    "arraySize" : 1
  }, {
    "name" : "LoopSoundID",
    "type" : "int",
    "index" : false,
    "arraySize" : 1
  }, {
    "name" : "CreatureImpactType",
    "type" : "int",
    "index" : false,
    "arraySize" : 1
  }, {
    "name" : "SoundJumpStartID",
    "type" : "int",
    "index" : false,
    "arraySize" : 1
  }, {
    "name" : "SoundJumpEndID",
    "type" : "int",
    "index" : false,
    "arraySize" : 1
  } ]
}