{
  "name" : "CreatureDisplayInfo",
  "build" : 26231,
  "fields" : [ {
    "name" : "ID",
    "type" : "int",
    "index" : true,
    "arraySize" : 1
  }, {
    "name" : "CreatureModelScale",
    "type" : "float",
    "index" : false,
    "arraySize" : 1
  }, {
    "name" : "ModelId",
    "type" : "ushort",
    "index" : false,
    "arraySize" : 1
  }, {
    "name" : "NPCSoundId",
    "type" : "ushort",
    "index" : false,
    "arraySize" : 1
  }, {
    "name" : "SizeClass",
    "type" : "byte",
    "index" : false,
    "arraySize" : 1
  }, {
    "name" : "Flags",
    "type" : "byte",
    "index" : false,
    "arraySize" : 1
  }, {
    "name" : "Gender",
    "type" : "byte",
    "index" : false,
    "arraySize" : 1
  }, {
    "name" : "ExtendedDisplayInfoId",
    "type" : "int",
    "index" : false,
    "arraySize" : 1
  }, {
    "name" : "PortraitTextureFileDataId",
    "type" : "int",
    "index" : false,
    "arraySize" : 1
  }, {
    "name" : "CreatureModelAlpha",
    "type" : "byte",
    "index" : false,
    "arraySize" : 1
  }, {
    "name" : "SoundId",
    "type" : "ushort",
    "index" : false,
    "arraySize" : 1
  }, {
    "name" : "PlayerOverrideScale",
    "type" : "float",
    "index" : false,
    "arraySize" : 1
  }, {
    "name" : "PortraitCreatureDisplayInfoId",
    "type" : "int",
    "index" : false,
    "arraySize" : 1
  }, {
    "name" : "BloodId",
    "type" : "byte",
    "index" : false,
    "arraySize" : 1
  }, {
    "name" : "ParticleColorId",
    "type" : "ushort",
    "index" : false,
    "arraySize" : 1
  }, {
    "name" : "ObjectEffectPackageId",
    "type" : "ushort",
    "index" : false,
    "arraySize" : 1
  }, {
    "name" : "AnimReplacementSetId",
    "type" : "ushort",
    "index" : false,
    "arraySize" : 1
  }, {
    "name" : "UnarmedWeaponType",
    "type" : "byte",
    "index" : false,
    "arraySize" : 1
  }, {
    "name" : "StateSpellVisualKitId",
    "type" : "int",
    "index" : false,
    "arraySize" : 1
  }, {
    "name" : "PetInstanceScale",
    "type" : "float",
    "index" : false,
    "arraySize" : 1
  }, {
    "name" : "MountPoofSpellVisualKitId",
    "type" : "int",
    "index" : false,
    "arraySize" : 1
  }, {
    "name" : "DissolveEffectId",
    "type" : "int",
    "index" : false,
    "arraySize" : 1
  }, {
    "name" : "TextureVariationFileDataId",
    "type" : "int",
    "index" : false,
    "arraySize" : 1
  } ]
}