{
  "name" : "CreatureDisplayInfoCond",
  "build" : 22578,
  "fields" : [ {
    "name" : "ID",
    "type" : "int",
    "index" : true,
    "arraySize" : 1
  }, {
    "name" : "Field00",
    "type" : "int",
    "index" : false,
    "arraySize" : 1
  }, {
    "name" : "Field04",
    "type" : "int",
    "index" : false,
    "arraySize" : 1
  }, {
    "name" : "Field0C",
    "type" : "int",
    "index" : false,
    "arraySize" : 1
  }, {
    "name" : "Field14",
    "type" : "int",
    "index" : false,
    "arraySize" : 1
  }, {
    "name" : "Field1C",
    "type" : "byte",
    "index" : false,
    "arraySize" : 1
  }, {
    "name" : "Field1D",
    "type" : "byte",
    "index" : false,
    "arraySize" : 1
  }, {
    "name" : "Field1E",
    "type" : "int",
    "index" : false,
    "arraySize" : 1
  }, {
    "name" : "Field22",
    "type" : "int",
    "index" : false,
    "arraySize" : 1
  }, {
    "name" : "Field26",
    "type" : "int",
    "index" : false,
    "arraySize" : 1
  }, {
    "name" : "Field2A",
    "type" : "int",
    "index" : false,
    "arraySize" : 1
  }, {
    "name" : "Field2E",
    "type" : "int",
    "index" : false,
    "arraySize" : 1
  }, {
    "name" : "Field32",
    "type" : "int",
    "index" : false,
    "arraySize" : 1
  }, {
    "name" : "Field36",
    "type" : "int",
    "index" : false,
    "arraySize" : 1
  }, {
    "name" : "Field3A",
    "type" : "int",
    "index" : false,
    "arraySize" : 1
  }, {
    "name" : "Field3E",
    "type" : "int",
    "index" : false,
    "arraySize" : 1
  } ]
}