{
  "name" : "CreatureCache",
  "build" : 12340,
  "fields" : [ {
    "name" : "Entry",
    "type" : "int",
    "index" : true,
    "arraySize" : 1
  }, {
    "name" : "Name",
    "type" : "string",
    "index" : false,
    "arraySize" : 1
  }, {
    "name" : "Name2",
    "type" : "string",
    "index" : false,
    "arraySize" : 1
  }, {
    "name" : "Name3",
    "type" : "string",
    "index" : false,
    "arraySize" : 1
  }, {
    "name" : "Name4",
    "type" : "string",
    "index" : false,
    "arraySize" : 1
  }, {
    "name" : "SubName",
    "type" : "string",
    "index" : false,
    "arraySize" : 1
  }, {
    "name" : "IconName",
    "type" : "string",
    "index" : false,
    "arraySize" : 1
  }, {
    "name" : "Flags",
    "type" : "uint",
    "index" : false,
    "arraySize" : 1
  }, {
    "name" : "Type",
    "type" : "uint",
    "index" : false,
    "arraySize" : 1
  }, {
    "name" : "Family",
    "type" : "int",
    "index" : false,
    "arraySize" : 1
  }, {
    "name" : "Rank",
    "type" : "uint",
    "index" : false,
    "arraySize" : 1
  }, {
    "name" : "KillCredit1",
    "type" : "uint",
    "index" : false,
    "arraySize" : 1
  }, {
    "name" : "KillCredit2",
    "type" : "uint",
    "index" : false,
    "arraySize" : 1
  }, {
    "name" : "DisplayID1",
    "type" : "uint",
    "index" : false,
    "arraySize" : 1
  }, {
    "name" : "DisplayID2",
    "type" : "uint",
    "index" : false,
    "arraySize" : 1
  }, {
    "name" : "DisplayID3",
    "type" : "uint",
    "index" : false,
    "arraySize" : 1
  }, {
    "name" : "DisplayID4",
    "type" : "uint",
    "index" : false,
    "arraySize" : 1
  }, {
    "name" : "HealthModifier",
    "type" : "float",
    "index" : false,
    "arraySize" : 1
  }, {
    "name" : "PowerModifier",
    "type" : "float",
    "index" : false,
    "arraySize" : 1
  }, {
    "name" : "RacialLeader",
    "type" : "byte",
    "index" : false,
    "arraySize" : 1
  }, {
    "name" : "QuestItem1",
    "type" : "uint",
    "index" : false,
    "arraySize" : 1
  }, {
    "name" : "QuestItem2",
    "type" : "uint",
    "index" : false,
    "arraySize" : 1
  }, {
    "name" : "QuestItem3",
    "type" : "uint",
    "index" : false,
    "arraySize" : 1
  }, {
    "name" : "QuestItem4",
    "type" : "uint",
    "index" : false,
    "arraySize" : 1
  }, {
    "name" : "QuestItem5",
    "type" : "uint",
    "index" : false,
    "arraySize" : 1
  }, {
    "name" : "QuestItem6",
    "type" : "uint",
    "index" : false,
    "arraySize" : 1
  }, {
    "name" : "MovementId",
    "type" : "uint",
    "index" : false,
    "arraySize" : 1
  }, {
    "name" : "exp",
    "type" : "uint",
    "index" : false,
    "arraySize" : 1
  } ]
}