{
  "name" : "CreatureSpellData",
  "build" : 8606,
  "fields" : [ {
    "name" : "ID",
    "type" : "int",
    "index" : true,
    "arraySize" : 1
  }, {
    "name" : "Spells",
    "type" : "int",
    "index" : false,
    "arraySize" : 1
  }, {
    "name" : "Availability",
    "type" : "int",
    "index" : false,
    "arraySize" : 1
  } ]
}