{
  "name" : "CreatureModelData",
  "build" : 8606,
  "fields" : [ {
    "name" : "ID",
    "type" : "int",
    "index" : true,
    "arraySize" : 1
  }, {
    "name" : "Flags",
    "type" : "int",
    "index" : false,
    "arraySize" : 1
  }, {
    "name" : "ModelName",
    "type" : "string",
    "index" : false,
    "arraySize" : 1
  }, {
    "name" : "SizeClass",
    "type" : "int",
    "index" : false,
    "arraySize" : 1
  }, {
    "name" : "ModelScale",
    "type" : "float",
    "index" : false,
    "arraySize" : 1
  }, {
    "name" : "BloodID",
    "type" : "int",
    "index" : false,
    "arraySize" : 1
  }, {
    "name" : "FootprintTextureID",
    "type" : "int",
    "index" : false,
    "arraySize" : 1
  }, {
    "name" : "FootprintTextureLength",
    "type" : "float",
    "index" : false,
    "arraySize" : 1
  }, {
    "name" : "FootprintTextureWidth",
    "type" : "float",
    "index" : false,
    "arraySize" : 1
  }, {
    "name" : "FootprintParticleScale",
    "type" : "float",
    "index" : false,
    "arraySize" : 1
  }, {
    "name" : "FoleyMaterialID",
    "type" : "int",
    "index" : false,
    "arraySize" : 1
  }, {
    "name" : "FootstepShakeSize",
    "type" : "int",
    "index" : false,
    "arraySize" : 1
  }, {
    "name" : "DeathThudShakeSize",
    "type" : "int",
    "index" : false,
    "arraySize" : 1
  }, {
    "name" : "SoundID",
    "type" : "int",
    "index" : false,
    "arraySize" : 1
  }, {
    "name" : "CollisionWidth",
    "type" : "float",
    "index" : false,
    "arraySize" : 1
  }, {
    "name" : "CollisionHeight",
    "type" : "float",
    "index" : false,
    "arraySize" : 1
  }, {
    "name" : "MountHeight",
    "type" : "float",
    "index" : false,
    "arraySize" : 1
  }, {
    "name" : "GeoBoxMin_X",
    "type" : "float",
    "index" : false,
    "arraySize" : 1
  }, {
    "name" : "GeoBoxMin_Y",
    "type" : "float",
    "index" : false,
    "arraySize" : 1
  }, {
    "name" : "GeoBoxMin_Z",
    "type" : "float",
    "index" : false,
    "arraySize" : 1
  }, {
    "name" : "GeoBoxMax_X",
    "type" : "float",
    "index" : false,
    "arraySize" : 1
  }, {
    "name" : "GeoBoxMax_Y",
    "type" : "float",
    "index" : false,
    "arraySize" : 1
  }, {
    "name" : "GeoBoxMax_Z",
    "type" : "float",
    "index" : false,
    "arraySize" : 1
  }, {
    "name" : "WorldEffectScale",
    "type" : "float",
    "index" : false,
    "arraySize" : 1
  } ]
}