{
  "name" : "CurrencyTypes",
  "build" : 24793,
  "fields" : [ {
    "name" : "ID",
    "type" : "int",
    "index" : true,
    "arraySize" : 1
  }, {
    "name" : "Name",
    "type" : "string",
    "index" : false,
    "arraySize" : 1
  }, {
    "name" : "MaxQuantity",
    "type" : "uint",
    "index" : false,
    "arraySize" : 1
  }, {
    "name" : "MaxWeekly",
    "type" : "uint",
    "index" : false,
    "arraySize" : 1
  }, {
    "name" : "Flags",
    "type" : "uint",
    "index" : false,
    "arraySize" : 1
  }, {
    "name" : "Description",
    "type" : "string",
    "index" : false,
    "arraySize" : 1
  }, {
    "name" : "Category",
    "type" : "byte",
    "index" : false,
    "arraySize" : 1
  }, {
    "name" : "Field07",
    "type" : "byte",
    "index" : false,
    "arraySize" : 1
  }, {
    "name" : "Quality",
    "type" : "byte",
    "index" : false,
    "arraySize" : 1
  }, {
    "name" : "InventoryIcon",
    "type" : "int",
    "index" : false,
    "arraySize" : 1
  } ]
}