{
  "name" : "CurrencyTypes",
  "build" : 24492,
  "fields" : [ {
    "name" : "ID",
    "type" : "int",
    "index" : true,
    "arraySize" : 1
  }, {
    "name" : "Name",
    "type" : "string",
    "index" : false,
    "arraySize" : 1
  }, {
    "name" : "MaxQty",
    "type" : "uint",
    "index" : false,
    "arraySize" : 1
  }, {
    "name" : "MaxEarnablePerWeek",
    "type" : "uint",
    "index" : false,
    "arraySize" : 1
  }, {
    "name" : "Flags",
    "type" : "uint",
    "index" : false,
    "arraySize" : 1
  }, {
    "name" : "Description",
    "type" : "string",
    "index" : false,
    "arraySize" : 1
  }, {
    "name" : "CategoryID",
    "type" : "byte",
    "index" : false,
    "arraySize" : 1
  }, {
    "name" : "SpellCategory",
    "type" : "byte",
    "index" : false,
    "arraySize" : 1
  }, {
    "name" : "Quality",
    "type" : "byte",
    "index" : false,
    "arraySize" : 1
  }, {
    "name" : "Field1B",
    "type" : "int",
    "index" : false,
    "arraySize" : 1
  }, {
    "name" : "SpellWeight",
    "type" : "byte",
    "index" : false,
    "arraySize" : 1
  } ]
}