{
  "name" : "CurrencyTypes",
  "build" : 21742,
  "fields" : [ {
    "name" : "ID",
    "type" : "int",
    "index" : true,
    "arraySize" : 1
  }, {
    "name" : "CategoryID",
    "type" : "int",
    "index" : false,
    "arraySize" : 1
  }, {
    "name" : "Name_Lang",
    "type" : "string",
    "index" : false,
    "arraySize" : 1
  }, {
    "name" : "InventoryIcon",
    "type" : "string",
    "index" : false,
    "arraySize" : 1
  }, {
    "name" : "SpellWeight",
    "type" : "int",
    "index" : false,
    "arraySize" : 1
  }, {
    "name" : "SpellCategory",
    "type" : "int",
    "index" : false,
    "arraySize" : 1
  }, {
    "name" : "MaxQty",
    "type" : "int",
    "index" : false,
    "arraySize" : 1
  }, {
    "name" : "MaxEarnablePerWeek",
    "type" : "int",
    "index" : false,
    "arraySize" : 1
  }, {
    "name" : "Flags",
    "type" : "int",
    "index" : false,
    "arraySize" : 1
  }, {
    "name" : "Quality",
    "type" : "int",
    "index" : false,
    "arraySize" : 1
  }, {
    "name" : "Description_Lang",
    "type" : "string",
    "index" : false,
    "arraySize" : 1
  } ]
}