{
  "name" : "CurvePoint",
  "build" : 25632,
  "fields" : [ {
    "name" : "ID",
    "type" : "int",
    "index" : true,
    "arraySize" : 1
  }, {
    "name" : "X",
    "type" : "float",
    "index" : false,
    "arraySize" : 1
  }, {
    "name" : "Y",
    "type" : "float",
    "index" : false,
    "arraySize" : 1
  }, {
    "name" : "CurveID",
    "type" : "ushort",
    "index" : false,
    "arraySize" : 1
  }, {
    "name" : "Index",
    "type" : "byte",
    "index" : false,
    "arraySize" : 1
  } ]
}