{
  "name" : "CurvePoint",
  "build" : 26231,
  "fields" : [ {
    "name" : "ID",
    "type" : "int",
    "index" : true,
    "arraySize" : 1
  }, {
    "name" : "Pos",
    "type" : "float",
    "index" : false,
    "arraySize" : 1
  }, {
    "name" : "CurveId",
    "type" : "ushort",
    "index" : false,
    "arraySize" : 1
  }, {
    "name" : "OrderIndex",
    "type" : "byte",
    "index" : false,
    "arraySize" : 1
  } ]
}