{
  "name" : "DestructibleModelData",
  "build" : 12340,
  "fields" : [ {
    "name" : "ID",
    "type" : "int",
    "index" : true,
    "arraySize" : 1
  }, {
    "name" : "State0Wmo",
    "type" : "int",
    "index" : false,
    "arraySize" : 1
  }, {
    "name" : "State0DestructionDoodadSet",
    "type" : "int",
    "index" : false,
    "arraySize" : 1
  }, {
    "name" : "State0ImpactEffectDoodadSet",
    "type" : "int",
    "index" : false,
    "arraySize" : 1
  }, {
    "name" : "State0AmbientDoodadSet",
    "type" : "int",
    "index" : false,
    "arraySize" : 1
  }, {
    "name" : "State1Wmo",
    "type" : "int",
    "index" : false,
    "arraySize" : 1
  }, {
    "name" : "State1DestructionDoodadSet",
    "type" : "int",
    "index" : false,
    "arraySize" : 1
  }, {
    "name" : "State1ImpactEffectDoodadSet",
    "type" : "int",
    "index" : false,
    "arraySize" : 1
  }, {
    "name" : "State1AmbientDoodadSet",
    "type" : "int",
    "index" : false,
    "arraySize" : 1
  }, {
    "name" : "State2Wmo",
    "type" : "int",
    "index" : false,
    "arraySize" : 1
  }, {
    "name" : "State2DestructionDoodadSet",
    "type" : "int",
    "index" : false,
    "arraySize" : 1
  }, {
    "name" : "State2ImpactEffectDoodadSet",
    "type" : "int",
    "index" : false,
    "arraySize" : 1
  }, {
    "name" : "State2AmbientDoodadSet",
    "type" : "int",
    "index" : false,
    "arraySize" : 1
  }, {
    "name" : "State3Wmo",
    "type" : "int",
    "index" : false,
    "arraySize" : 1
  }, {
    "name" : "State3DestructionDoodadSet",
    "type" : "int",
    "index" : false,
    "arraySize" : 1
  }, {
    "name" : "State3ImpactEffectDoodadSet",
    "type" : "int",
    "index" : false,
    "arraySize" : 1
  }, {
    "name" : "State3AmbientDoodadSet",
    "type" : "int",
    "index" : false,
    "arraySize" : 1
  }, {
    "name" : "Field17",
    "type" : "int",
    "index" : false,
    "arraySize" : 1
  }, {
    "name" : "Field18",
    "type" : "int",
    "index" : false,
    "arraySize" : 1
  } ]
}