{
  "name" : "DriverBlacklist",
  "build" : 26231,
  "fields" : [ {
    "name" : "ID",
    "type" : "int",
    "index" : true,
    "arraySize" : 1
  }, {
    "name" : "DriverVersionHi",
    "type" : "int",
    "index" : false,
    "arraySize" : 1
  }, {
    "name" : "DriverVersionLow",
    "type" : "int",
    "index" : false,
    "arraySize" : 1
  }, {
    "name" : "VendorId",
    "type" : "ushort",
    "index" : false,
    "arraySize" : 1
  }, {
    "name" : "DeviceId",
    "type" : "byte",
    "index" : false,
    "arraySize" : 1
  }, {
    "name" : "OsVersion",
    "type" : "byte",
    "index" : false,
    "arraySize" : 1
  }, {
    "name" : "OsBits",
    "type" : "byte",
    "index" : false,
    "arraySize" : 1
  }, {
    "name" : "Flags",
    "type" : "byte",
    "index" : false,
    "arraySize" : 1
  } ]
}