{
  "name" : "DungeonEncounter",
  "build" : 23835,
  "fields" : [ {
    "name" : "Name",
    "type" : "string",
    "index" : false,
    "arraySize" : 1
  }, {
    "name" : "CreatureDisplayID",
    "type" : "uint",
    "index" : false,
    "arraySize" : 1
  }, {
    "name" : "MapID",
    "type" : "ushort",
    "index" : false,
    "arraySize" : 1
  }, {
    "name" : "DifficultyID",
    "type" : "byte",
    "index" : false,
    "arraySize" : 1
  }, {
    "name" : "Bit",
    "type" : "byte",
    "index" : false,
    "arraySize" : 1
  }, {
    "name" : "Flags",
    "type" : "byte",
    "index" : false,
    "arraySize" : 1
  }, {
    "name" : "ID",
    "type" : "int",
    "index" : true,
    "arraySize" : 1
  }, {
    "name" : "OrderIndex",
    "type" : "int",
    "index" : false,
    "arraySize" : 1
  }, {
    "name" : "TextureFileDataID",
    "type" : "uint",
    "index" : false,
    "arraySize" : 1
  } ]
}