{
  "name" : "DungeonMap",
  "build" : 21742,
  "fields" : [ {
    "name" : "ID",
    "type" : "int",
    "index" : true,
    "arraySize" : 1
  }, {
    "name" : "MapID",
    "type" : "int",
    "index" : false,
    "arraySize" : 1
  }, {
    "name" : "FloorIndex",
    "type" : "int",
    "index" : false,
    "arraySize" : 1
  }, {
    "name" : "Min",
    "type" : "float",
    "index" : false,
    "arraySize" : 1
  }, {
    "name" : "Max",
    "type" : "float",
    "index" : false,
    "arraySize" : 1
  }, {
    "name" : "ParentWorldMapID",
    "type" : "int",
    "index" : false,
    "arraySize" : 1
  }, {
    "name" : "Flags",
    "type" : "int",
    "index" : false,
    "arraySize" : 1
  } ]
}