{
  "name" : "DungeonMapChunk",
  "build" : 12340,
  "fields" : [ {
    "name" : "ID",
    "type" : "int",
    "index" : true,
    "arraySize" : 1
  }, {
    "name" : "MapID",
    "type" : "int",
    "index" : false,
    "arraySize" : 1
  }, {
    "name" : "WmoGroupID",
    "type" : "int",
    "index" : false,
    "arraySize" : 1
  }, {
    "name" : "DungeonMapID",
    "type" : "int",
    "index" : false,
    "arraySize" : 1
  }, {
    "name" : "MinZ",
    "type" : "float",
    "index" : false,
    "arraySize" : 1
  } ]
}