{
  "name" : "Emotes",
  "build" : 8606,
  "fields" : [ {
    "name" : "ID",
    "type" : "int",
    "index" : true,
    "arraySize" : 1
  }, {
    "name" : "EmoteSlashCommand",
    "type" : "string",
    "index" : false,
    "arraySize" : 1
  }, {
    "name" : "AnimID",
    "type" : "int",
    "index" : false,
    "arraySize" : 1
  }, {
    "name" : "EmoteFlags",
    "type" : "int",
    "index" : false,
    "arraySize" : 1
  }, {
    "name" : "EmoteSpecProc",
    "type" : "int",
    "index" : false,
    "arraySize" : 1
  }, {
    "name" : "EmoteSpecProcParam",
    "type" : "int",
    "index" : false,
    "arraySize" : 1
  }, {
    "name" : "EventSoundID",
    "type" : "int",
    "index" : false,
    "arraySize" : 1
  } ]
}