{
  "name" : "Emotes",
  "build" : 25632,
  "fields" : [ {
    "name" : "ID",
    "type" : "int",
    "index" : true,
    "arraySize" : 1
  }, {
    "name" : "RaceMask",
    "type" : "long",
    "index" : false,
    "arraySize" : 1
  }, {
    "name" : "EmoteSlashCommand",
    "type" : "string",
    "index" : false,
    "arraySize" : 1
  }, {
    "name" : "SpellVisualKitID",
    "type" : "uint",
    "index" : false,
    "arraySize" : 1
  }, {
    "name" : "EmoteFlags",
    "type" : "uint",
    "index" : false,
    "arraySize" : 1
  }, {
    "name" : "AnimID",
    "type" : "ushort",
    "index" : false,
    "arraySize" : 1
  }, {
    "name" : "EmoteSpecProc",
    "type" : "byte",
    "index" : false,
    "arraySize" : 1
  }, {
    "name" : "EmoteSpecProcParam",
    "type" : "uint",
    "index" : false,
    "arraySize" : 1
  }, {
    "name" : "EmoteSoundID",
    "type" : "uint",
    "index" : false,
    "arraySize" : 1
  }, {
    "name" : "ClassMask",
    "type" : "int",
    "index" : false,
    "arraySize" : 1
  } ]
}