{
  "name" : "EmotesText",
  "build" : 24793,
  "fields" : [ {
    "name" : "ID",
    "type" : "int",
    "index" : true,
    "arraySize" : 1
  }, {
    "name" : "Name",
    "type" : "string",
    "index" : false,
    "arraySize" : 1
  }, {
    "name" : "EmoteID",
    "type" : "ushort",
    "index" : false,
    "arraySize" : 1
  } ]
}