{
  "name" : "EmotesTextData",
  "build" : 18414,
  "fields" : [ {
    "name" : "ID",
    "type" : "uint",
    "index" : true,
    "arraySize" : 1
  }, {
    "name" : "TextID",
    "type" : "string",
    "index" : false,
    "arraySize" : 1
  } ]
}