{
  "name" : "Emotes",
  "build" : 3368,
  "fields" : [ {
    "name" : "ID",
    "type" : "int",
    "index" : true,
    "arraySize" : 1
  }, {
    "name" : "EmoteAnimID",
    "type" : "int",
    "index" : false,
    "arraySize" : 1
  }, {
    "name" : "EmoteFlags",
    "type" : "int",
    "index" : false,
    "arraySize" : 1
  }, {
    "name" : "EmoteSpecProc",
    "type" : "int",
    "index" : false,
    "arraySize" : 1
  }, {
    "name" : "EmoteSpecProcParam",
    "type" : "int",
    "index" : false,
    "arraySize" : 1
  } ]
}