{
  "name" : "Emotes",
  "build" : 26231,
  "fields" : [ {
    "name" : "ID",
    "type" : "int",
    "index" : true,
    "arraySize" : 1
  }, {
    "name" : "RaceMask",
    "type" : "ulong",
    "index" : false,
    "arraySize" : 1
  }, {
    "name" : "EmoteSlashCommand",
    "type" : "string",
    "index" : false,
    "arraySize" : 1
  }, {
    "name" : "EmoteFlags",
    "type" : "int",
    "index" : false,
    "arraySize" : 1
  }, {
    "name" : "SpellVisualKitId",
    "type" : "int",
    "index" : false,
    "arraySize" : 1
  }, {
    "name" : "AnimId",
    "type" : "ushort",
    "index" : false,
    "arraySize" : 1
  }, {
    "name" : "EmoteSpecProc",
    "type" : "byte",
    "index" : false,
    "arraySize" : 1
  }, {
    "name" : "ClassMask",
    "type" : "int",
    "index" : false,
    "arraySize" : 1
  }, {
    "name" : "EmoteSpecProcParam",
    "type" : "int",
    "index" : false,
    "arraySize" : 1
  }, {
    "name" : "EventSoundId",
    "type" : "int",
    "index" : false,
    "arraySize" : 1
  } ]
}