{
  "name" : "EnvironmentalDamage",
  "build" : 26231,
  "fields" : [ {
    "name" : "ID",
    "type" : "int",
    "index" : true,
    "arraySize" : 1
  }, {
    "name" : "VisualKitId",
    "type" : "ushort",
    "index" : false,
    "arraySize" : 1
  }, {
    "name" : "EnumId",
    "type" : "byte",
    "index" : false,
    "arraySize" : 1
  } ]
}