{
  "name" : "Exhaustion",
  "build" : 22578,
  "fields" : [ {
    "name" : "Field00",
    "type" : "int",
    "index" : false,
    "arraySize" : 1
  }, {
    "name" : "Field04",
    "type" : "float",
    "index" : false,
    "arraySize" : 1
  }, {
    "name" : "Field08",
    "type" : "float",
    "index" : false,
    "arraySize" : 1
  }, {
    "name" : "Field0C",
    "type" : "float",
    "index" : false,
    "arraySize" : 1
  }, {
    "name" : "Field10",
    "type" : "string",
    "index" : false,
    "arraySize" : 1
  }, {
    "name" : "Field14",
    "type" : "float",
    "index" : false,
    "arraySize" : 1
  }, {
    "name" : "Field18",
    "type" : "string",
    "index" : false,
    "arraySize" : 1
  }, {
    "name" : "ID",
    "type" : "int",
    "index" : true,
    "arraySize" : 1
  } ]
}