{
  "name" : "FactionTemplate",
  "build" : 21742,
  "fields" : [ {
    "name" : "ID",
    "type" : "int",
    "index" : true,
    "arraySize" : 1
  }, {
    "name" : "Faction",
    "type" : "int",
    "index" : false,
    "arraySize" : 1
  }, {
    "name" : "Flags",
    "type" : "int",
    "index" : false,
    "arraySize" : 1
  }, {
    "name" : "FactionGroup",
    "type" : "int",
    "index" : false,
    "arraySize" : 1
  }, {
    "name" : "FriendGroup",
    "type" : "int",
    "index" : false,
    "arraySize" : 1
  }, {
    "name" : "EnemyGroup",
    "type" : "int",
    "index" : false,
    "arraySize" : 1
  }, {
    "name" : "Enemies",
    "type" : "int",
    "index" : false,
    "arraySize" : 1
  }, {
    "name" : "Friend",
    "type" : "int",
    "index" : false,
    "arraySize" : 1
  } ]
}