{
  "name" : "Faction",
  "build" : 23835,
  "fields" : [ {
    "name" : "ID",
    "type" : "int",
    "index" : true,
    "arraySize" : 1
  }, {
    "name" : "ReputationRaceMask",
    "type" : "uint",
    "index" : false,
    "arraySize" : 1
  }, {
    "name" : "ReputationBase",
    "type" : "int",
    "index" : false,
    "arraySize" : 1
  }, {
    "name" : "ParentFactionMod",
    "type" : "float",
    "index" : false,
    "arraySize" : 1
  }, {
    "name" : "Name",
    "type" : "string",
    "index" : false,
    "arraySize" : 1
  }, {
    "name" : "Description",
    "type" : "string",
    "index" : false,
    "arraySize" : 1
  }, {
    "name" : "ReputationMax",
    "type" : "uint",
    "index" : false,
    "arraySize" : 1
  }, {
    "name" : "ReputationIndex",
    "type" : "int",
    "index" : false,
    "arraySize" : 1
  }, {
    "name" : "ParagonFactionID",
    "type" : "ushort",
    "index" : false,
    "arraySize" : 1
  }, {
    "name" : "ReputationClassMask",
    "type" : "ushort",
    "index" : false,
    "arraySize" : 1
  }, {
    "name" : "ReputationFlags",
    "type" : "ushort",
    "index" : false,
    "arraySize" : 1
  }, {
    "name" : "ParentFactionID",
    "type" : "ushort",
    "index" : false,
    "arraySize" : 1
  }, {
    "name" : "ParentFactionCap",
    "type" : "byte",
    "index" : false,
    "arraySize" : 1
  }, {
    "name" : "Expansion",
    "type" : "byte",
    "index" : false,
    "arraySize" : 1
  }, {
    "name" : "Flags",
    "type" : "byte",
    "index" : false,
    "arraySize" : 1
  }, {
    "name" : "FriendshipRepID",
    "type" : "byte",
    "index" : false,
    "arraySize" : 1
  } ]
}