{
  "name" : "FootstepTerrainLookup",
  "build" : 12340,
  "fields" : [ {
    "name" : "ID",
    "type" : "int",
    "index" : true,
    "arraySize" : 1
  }, {
    "name" : "CreatureFootstepID",
    "type" : "int",
    "index" : false,
    "arraySize" : 1
  }, {
    "name" : "TerrainSoundID",
    "type" : "int",
    "index" : false,
    "arraySize" : 1
  }, {
    "name" : "SoundID",
    "type" : "int",
    "index" : false,
    "arraySize" : 1
  }, {
    "name" : "SoundIDSplash",
    "type" : "int",
    "index" : false,
    "arraySize" : 1
  } ]
}