{
  "name" : "FootprintTextures",
  "build" : 24793,
  "fields" : [ {
    "name" : "ID",
    "type" : "int",
    "index" : true,
    "arraySize" : 1
  }, {
    "name" : "Field4",
    "type" : "ushort",
    "index" : false,
    "arraySize" : 1
  }, {
    "name" : "Field6",
    "type" : "byte",
    "index" : false,
    "arraySize" : 1
  }, {
    "name" : "Field7",
    "type" : "int",
    "index" : false,
    "arraySize" : 1
  } ]
}