{
  "name" : "FriendshipRepReaction",
  "build" : 21742,
  "fields" : [ {
    "name" : "ID",
    "type" : "int",
    "index" : true,
    "arraySize" : 1
  }, {
    "name" : "FriendshipRepID",
    "type" : "int",
    "index" : false,
    "arraySize" : 1
  }, {
    "name" : "ReactionThreshold",
    "type" : "int",
    "index" : false,
    "arraySize" : 1
  }, {
    "name" : "Reaction_Lang",
    "type" : "string",
    "index" : false,
    "arraySize" : 1
  } ]
}