{
  "name" : "FullScreenEffect",
  "build" : 24793,
  "fields" : [ {
    "name" : "ID",
    "type" : "int",
    "index" : true,
    "arraySize" : 1
  }, {
    "name" : "Field004",
    "type" : "float",
    "index" : false,
    "arraySize" : 1
  }, {
    "name" : "Field008",
    "type" : "float",
    "index" : false,
    "arraySize" : 1
  }, {
    "name" : "Field00C",
    "type" : "float",
    "index" : false,
    "arraySize" : 1
  }, {
    "name" : "Field010",
    "type" : "float",
    "index" : false,
    "arraySize" : 1
  }, {
    "name" : "Field014",
    "type" : "uint",
    "index" : false,
    "arraySize" : 1
  }, {
    "name" : "Field018",
    "type" : "float",
    "index" : false,
    "arraySize" : 1
  }, {
    "name" : "Field01C",
    "type" : "float",
    "index" : false,
    "arraySize" : 1
  }, {
    "name" : "Field020",
    "type" : "uint",
    "index" : false,
    "arraySize" : 1
  }, {
    "name" : "Field024",
    "type" : "float",
    "index" : false,
    "arraySize" : 1
  }, {
    "name" : "Field028",
    "type" : "float",
    "index" : false,
    "arraySize" : 1
  }, {
    "name" : "Field02C",
    "type" : "uint",
    "index" : false,
    "arraySize" : 1
  }, {
    "name" : "Field030",
    "type" : "float",
    "index" : false,
    "arraySize" : 1
  }, {
    "name" : "Field034",
    "type" : "float",
    "index" : false,
    "arraySize" : 1
  }, {
    "name" : "Field038",
    "type" : "float",
    "index" : false,
    "arraySize" : 1
  }, {
    "name" : "Field03C",
    "type" : "float",
    "index" : false,
    "arraySize" : 1
  }, {
    "name" : "Field040",
    "type" : "float",
    "index" : false,
    "arraySize" : 1
  }, {
    "name" : "Field044",
    "type" : "uint",
    "index" : false,
    "arraySize" : 1
  }, {
    "name" : "Field048",
    "type" : "float",
    "index" : false,
    "arraySize" : 1
  }, {
    "name" : "Field04C",
    "type" : "float",
    "index" : false,
    "arraySize" : 1
  }, {
    "name" : "Field050",
    "type" : "uint",
    "index" : false,
    "arraySize" : 1
  }, {
    "name" : "Field054",
    "type" : "uint",
    "index" : false,
    "arraySize" : 1
  }, {
    "name" : "Field058",
    "type" : "float",
    "index" : false,
    "arraySize" : 1
  }, {
    "name" : "Field05C",
    "type" : "float",
    "index" : false,
    "arraySize" : 1
  }, {
    "name" : "Field060",
    "type" : "byte",
    "index" : false,
    "arraySize" : 1
  }, {
    "name" : "Field061",
    "type" : "ushort",
    "index" : false,
    "arraySize" : 1
  }, {
    "name" : "Field063",
    "type" : "ushort",
    "index" : false,
    "arraySize" : 1
  }, {
    "name" : "Field065",
    "type" : "ushort",
    "index" : false,
    "arraySize" : 1
  } ]
}