{
  "name" : "GameObjectDiffAnimMap",
  "build" : 21742,
  "fields" : [ {
    "name" : "ID",
    "type" : "int",
    "index" : true,
    "arraySize" : 1
  }, {
    "name" : "GameObjectDiffAnimID",
    "type" : "int",
    "index" : false,
    "arraySize" : 1
  }, {
    "name" : "DifficultyID",
    "type" : "int",
    "index" : false,
    "arraySize" : 1
  }, {
    "name" : "Animation",
    "type" : "int",
    "index" : false,
    "arraySize" : 1
  }, {
    "name" : "AttachmentDisplayID",
    "type" : "int",
    "index" : false,
    "arraySize" : 1
  } ]
}