{
  "name" : "GameObjectDisplayInfo",
  "build" : 5875,
  "fields" : [ {
    "name" : "ID",
    "type" : "int",
    "index" : true,
    "arraySize" : 1
  }, {
    "name" : "ModelName",
    "type" : "string",
    "index" : false,
    "arraySize" : 1
  }, {
    "name" : "Sound",
    "type" : "int",
    "index" : false,
    "arraySize" : 1
  } ]
}