{
  "name" : "GameObjectDisplayInfo",
  "build" : 26231,
  "fields" : [ {
    "name" : "ID",
    "type" : "int",
    "index" : true,
    "arraySize" : 1
  }, {
    "name" : "FileDataId",
    "type" : "int",
    "index" : false,
    "arraySize" : 1
  }, {
    "name" : "GeoBox",
    "type" : "float",
    "index" : false,
    "arraySize" : 1
  }, {
    "name" : "OverrideLootEffectScale",
    "type" : "float",
    "index" : false,
    "arraySize" : 1
  }, {
    "name" : "OverrideNameScale",
    "type" : "float",
    "index" : false,
    "arraySize" : 1
  }, {
    "name" : "ObjectEffectPackageId",
    "type" : "ushort",
    "index" : false,
    "arraySize" : 1
  } ]
}