{
  "name" : "GameObjectArtKit",
  "build" : 5875,
  "fields" : [ {
    "name" : "ID",
    "type" : "int",
    "index" : true,
    "arraySize" : 1
  }, {
    "name" : "TextureVariation1",
    "type" : "string",
    "index" : false,
    "arraySize" : 1
  }, {
    "name" : "TextureVariation2",
    "type" : "string",
    "index" : false,
    "arraySize" : 1
  }, {
    "name" : "TextureVariation3",
    "type" : "string",
    "index" : false,
    "arraySize" : 1
  }, {
    "name" : "AttachModel1",
    "type" : "string",
    "index" : false,
    "arraySize" : 1
  }, {
    "name" : "AttachModel2",
    "type" : "string",
    "index" : false,
    "arraySize" : 1
  }, {
    "name" : "AttachModel3",
    "type" : "string",
    "index" : false,
    "arraySize" : 1
  }, {
    "name" : "AttachModel4",
    "type" : "string",
    "index" : false,
    "arraySize" : 1
  } ]
}