{
  "name" : "GameobjectCache",
  "build" : 12340,
  "fields" : [ {
    "name" : "Entry",
    "type" : "int",
    "index" : true,
    "arraySize" : 1
  }, {
    "name" : "Type",
    "type" : "uint",
    "index" : false,
    "arraySize" : 1
  }, {
    "name" : "DisplayId",
    "type" : "uint",
    "index" : false,
    "arraySize" : 1
  }, {
    "name" : "Name",
    "type" : "string",
    "index" : false,
    "arraySize" : 1
  }, {
    "name" : "Name2",
    "type" : "string",
    "index" : false,
    "arraySize" : 1
  }, {
    "name" : "Name3",
    "type" : "string",
    "index" : false,
    "arraySize" : 1
  }, {
    "name" : "Name4",
    "type" : "string",
    "index" : false,
    "arraySize" : 1
  }, {
    "name" : "IconName",
    "type" : "string",
    "index" : false,
    "arraySize" : 1
  }, {
    "name" : "CastBarCaption",
    "type" : "string",
    "index" : false,
    "arraySize" : 1
  }, {
    "name" : "wdb_Unk1",
    "type" : "string",
    "index" : false,
    "arraySize" : 1
  }, {
    "name" : "data0",
    "type" : "uint",
    "index" : false,
    "arraySize" : 1
  }, {
    "name" : "data1",
    "type" : "uint",
    "index" : false,
    "arraySize" : 1
  }, {
    "name" : "data2",
    "type" : "uint",
    "index" : false,
    "arraySize" : 1
  }, {
    "name" : "data3",
    "type" : "uint",
    "index" : false,
    "arraySize" : 1
  }, {
    "name" : "data4",
    "type" : "uint",
    "index" : false,
    "arraySize" : 1
  }, {
    "name" : "data5",
    "type" : "uint",
    "index" : false,
    "arraySize" : 1
  }, {
    "name" : "data6",
    "type" : "uint",
    "index" : false,
    "arraySize" : 1
  }, {
    "name" : "data7",
    "type" : "uint",
    "index" : false,
    "arraySize" : 1
  }, {
    "name" : "data8",
    "type" : "uint",
    "index" : false,
    "arraySize" : 1
  }, {
    "name" : "data9",
    "type" : "uint",
    "index" : false,
    "arraySize" : 1
  }, {
    "name" : "data10",
    "type" : "uint",
    "index" : false,
    "arraySize" : 1
  }, {
    "name" : "data11",
    "type" : "uint",
    "index" : false,
    "arraySize" : 1
  }, {
    "name" : "data12",
    "type" : "uint",
    "index" : false,
    "arraySize" : 1
  }, {
    "name" : "data13",
    "type" : "uint",
    "index" : false,
    "arraySize" : 1
  }, {
    "name" : "data14",
    "type" : "uint",
    "index" : false,
    "arraySize" : 1
  }, {
    "name" : "data15",
    "type" : "uint",
    "index" : false,
    "arraySize" : 1
  }, {
    "name" : "data16",
    "type" : "uint",
    "index" : false,
    "arraySize" : 1
  }, {
    "name" : "data17",
    "type" : "uint",
    "index" : false,
    "arraySize" : 1
  }, {
    "name" : "data18",
    "type" : "uint",
    "index" : false,
    "arraySize" : 1
  }, {
    "name" : "data19",
    "type" : "uint",
    "index" : false,
    "arraySize" : 1
  }, {
    "name" : "data20",
    "type" : "uint",
    "index" : false,
    "arraySize" : 1
  }, {
    "name" : "data21",
    "type" : "uint",
    "index" : false,
    "arraySize" : 1
  }, {
    "name" : "data22",
    "type" : "uint",
    "index" : false,
    "arraySize" : 1
  }, {
    "name" : "data23",
    "type" : "uint",
    "index" : false,
    "arraySize" : 1
  }, {
    "name" : "Size",
    "type" : "float",
    "index" : false,
    "arraySize" : 1
  }, {
    "name" : "QuestItem1",
    "type" : "uint",
    "index" : false,
    "arraySize" : 1
  }, {
    "name" : "QuestItem2",
    "type" : "uint",
    "index" : false,
    "arraySize" : 1
  }, {
    "name" : "QuestItem3",
    "type" : "uint",
    "index" : false,
    "arraySize" : 1
  }, {
    "name" : "QuestItem4",
    "type" : "uint",
    "index" : false,
    "arraySize" : 1
  }, {
    "name" : "QuestItem5",
    "type" : "uint",
    "index" : false,
    "arraySize" : 1
  }, {
    "name" : "QuestItem6",
    "type" : "uint",
    "index" : false,
    "arraySize" : 1
  }, {
    "name" : "exp",
    "type" : "uint",
    "index" : false,
    "arraySize" : 1
  } ]
}