{
  "name" : "GarrType",
  "build" : 26231,
  "fields" : [ {
    "name" : "ID",
    "type" : "int",
    "index" : true,
    "arraySize" : 1
  }, {
    "name" : "Flags",
    "type" : "int",
    "index" : false,
    "arraySize" : 1
  }, {
    "name" : "PrimaryCurrencyTypeId",
    "type" : "int",
    "index" : false,
    "arraySize" : 1
  }, {
    "name" : "SecondaryCurrencyTypeId",
    "type" : "int",
    "index" : false,
    "arraySize" : 1
  }, {
    "name" : "ExpansionId",
    "type" : "int",
    "index" : false,
    "arraySize" : 1
  }, {
    "name" : "MapIDs",
    "type" : "int",
    "index" : false,
    "arraySize" : 1
  } ]
}