{
  "name" : "GarrMissionType",
  "build" : 26231,
  "fields" : [ {
    "name" : "ID",
    "type" : "int",
    "index" : true,
    "arraySize" : 1
  }, {
    "name" : "Name",
    "type" : "string",
    "index" : false,
    "arraySize" : 1
  }, {
    "name" : "UiTextureAtlasMemberId",
    "type" : "ushort",
    "index" : false,
    "arraySize" : 1
  }, {
    "name" : "UiTextureKitId",
    "type" : "ushort",
    "index" : false,
    "arraySize" : 1
  } ]
}