{
  "name" : "GarrFollower",
  "build" : 23835,
  "fields" : [ {
    "name" : "HordeCreatureID",
    "type" : "uint",
    "index" : false,
    "arraySize" : 1
  }, {
    "name" : "AllianceCreatureID",
    "type" : "uint",
    "index" : false,
    "arraySize" : 1
  }, {
    "name" : "HordeSourceText",
    "type" : "string",
    "index" : false,
    "arraySize" : 1
  }, {
    "name" : "AllianceSourceText",
    "type" : "string",
    "index" : false,
    "arraySize" : 1
  }, {
    "name" : "HordePortraitIconID",
    "type" : "uint",
    "index" : false,
    "arraySize" : 1
  }, {
    "name" : "AlliancePortraitIconID",
    "type" : "uint",
    "index" : false,
    "arraySize" : 1
  }, {
    "name" : "HordeAddedBroadcastTextID",
    "type" : "uint",
    "index" : false,
    "arraySize" : 1
  }, {
    "name" : "AllianceAddedBroadcastTextID",
    "type" : "uint",
    "index" : false,
    "arraySize" : 1
  }, {
    "name" : "Name",
    "type" : "string",
    "index" : false,
    "arraySize" : 1
  }, {
    "name" : "HordeGarrFollItemSetID",
    "type" : "ushort",
    "index" : false,
    "arraySize" : 1
  }, {
    "name" : "AllianceGarrFollItemSetID",
    "type" : "ushort",
    "index" : false,
    "arraySize" : 1
  }, {
    "name" : "ItemLevelWeapon",
    "type" : "ushort",
    "index" : false,
    "arraySize" : 1
  }, {
    "name" : "ItemLevelArmor",
    "type" : "ushort",
    "index" : false,
    "arraySize" : 1
  }, {
    "name" : "HordeListPortraitTextureKitID",
    "type" : "ushort",
    "index" : false,
    "arraySize" : 1
  }, {
    "name" : "AllianceListPortraitTextureKitID",
    "type" : "ushort",
    "index" : false,
    "arraySize" : 1
  }, {
    "name" : "FollowerTypeID",
    "type" : "byte",
    "index" : false,
    "arraySize" : 1
  }, {
    "name" : "HordeUiAnimRaceInfoID",
    "type" : "byte",
    "index" : false,
    "arraySize" : 1
  }, {
    "name" : "AllianceUiAnimRaceInfoID",
    "type" : "byte",
    "index" : false,
    "arraySize" : 1
  }, {
    "name" : "Quality",
    "type" : "byte",
    "index" : false,
    "arraySize" : 1
  }, {
    "name" : "HordeGarrClassSpecID",
    "type" : "byte",
    "index" : false,
    "arraySize" : 1
  }, {
    "name" : "AllianceGarrClassSpecID",
    "type" : "byte",
    "index" : false,
    "arraySize" : 1
  }, {
    "name" : "Level",
    "type" : "byte",
    "index" : false,
    "arraySize" : 1
  }, {
    "name" : "Field22",
    "type" : "byte",
    "index" : false,
    "arraySize" : 1
  }, {
    "name" : "Flags",
    "type" : "byte",
    "index" : false,
    "arraySize" : 1
  }, {
    "name" : "Field24",
    "type" : "byte",
    "index" : false,
    "arraySize" : 1
  }, {
    "name" : "Field25",
    "type" : "byte",
    "index" : false,
    "arraySize" : 1
  }, {
    "name" : "GarrTypeID",
    "type" : "byte",
    "index" : false,
    "arraySize" : 1
  }, {
    "name" : "MaxDurability",
    "type" : "byte",
    "index" : false,
    "arraySize" : 1
  }, {
    "name" : "Class",
    "type" : "byte",
    "index" : false,
    "arraySize" : 1
  }, {
    "name" : "HordeFlavorTextGarrStringID",
    "type" : "byte",
    "index" : false,
    "arraySize" : 1
  }, {
    "name" : "AllianceFlavorTextGarrStringID",
    "type" : "byte",
    "index" : false,
    "arraySize" : 1
  }, {
    "name" : "ID",
    "type" : "int",
    "index" : true,
    "arraySize" : 1
  } ]
}