{
  "name" : "GarrAbility",
  "build" : 25632,
  "fields" : [ {
    "name" : "Name",
    "type" : "string",
    "index" : false,
    "arraySize" : 1
  }, {
    "name" : "Description",
    "type" : "string",
    "index" : false,
    "arraySize" : 1
  }, {
    "name" : "IconFileDataID",
    "type" : "uint",
    "index" : false,
    "arraySize" : 1
  }, {
    "name" : "Flags",
    "type" : "ushort",
    "index" : false,
    "arraySize" : 1
  }, {
    "name" : "OtherFactionGarrAbilityID",
    "type" : "ushort",
    "index" : false,
    "arraySize" : 1
  }, {
    "name" : "GarrAbilityCategoryID",
    "type" : "byte",
    "index" : false,
    "arraySize" : 1
  }, {
    "name" : "FollowerTypeID",
    "type" : "byte",
    "index" : false,
    "arraySize" : 1
  }, {
    "name" : "ID",
    "type" : "int",
    "index" : true,
    "arraySize" : 1
  } ]
}