{
  "name" : "GarrClassSpec",
  "build" : 26231,
  "fields" : [ {
    "name" : "ClassSpec",
    "type" : "string",
    "index" : false,
    "arraySize" : 1
  }, {
    "name" : "ClassSpecMale",
    "type" : "string",
    "index" : false,
    "arraySize" : 1
  }, {
    "name" : "ClassSpecFemale",
    "type" : "string",
    "index" : false,
    "arraySize" : 1
  }, {
    "name" : "UiTextureAtlasMemberId",
    "type" : "ushort",
    "index" : false,
    "arraySize" : 1
  }, {
    "name" : "GarrFollItemSetId",
    "type" : "ushort",
    "index" : false,
    "arraySize" : 1
  }, {
    "name" : "FollowerClassLimit",
    "type" : "byte",
    "index" : false,
    "arraySize" : 1
  }, {
    "name" : "Flags",
    "type" : "byte",
    "index" : false,
    "arraySize" : 1
  }, {
    "name" : "ID",
    "type" : "int",
    "index" : true,
    "arraySize" : 1
  } ]
}