{
  "name" : "GarrFollowerUICreature",
  "build" : 26231,
  "fields" : [ {
    "name" : "ID",
    "type" : "int",
    "index" : true,
    "arraySize" : 1
  }, {
    "name" : "CreatureId",
    "type" : "int",
    "index" : false,
    "arraySize" : 1
  }, {
    "name" : "Scale",
    "type" : "float",
    "index" : false,
    "arraySize" : 1
  }, {
    "name" : "FactionIndex",
    "type" : "byte",
    "index" : false,
    "arraySize" : 1
  }, {
    "name" : "OrderIndex",
    "type" : "byte",
    "index" : false,
    "arraySize" : 1
  }, {
    "name" : "Flags",
    "type" : "byte",
    "index" : false,
    "arraySize" : 1
  } ]
}