{
  "name" : "GarrSiteLevelPlotInst",
  "build" : 21742,
  "fields" : [ {
    "name" : "ID",
    "type" : "int",
    "index" : true,
    "arraySize" : 1
  }, {
    "name" : "Field01",
    "type" : "int",
    "index" : false,
    "arraySize" : 1
  }, {
    "name" : "Field02",
    "type" : "int",
    "index" : false,
    "arraySize" : 1
  }, {
    "name" : "Field03",
    "type" : "float",
    "index" : false,
    "arraySize" : 1
  }, {
    "name" : "Field04",
    "type" : "int",
    "index" : false,
    "arraySize" : 1
  } ]
}