{
  "name" : "GarrFollowerQuality",
  "build" : 26231,
  "fields" : [ {
    "name" : "ID",
    "type" : "int",
    "index" : true,
    "arraySize" : 1
  }, {
    "name" : "XpToNextQuality",
    "type" : "int",
    "index" : false,
    "arraySize" : 1
  }, {
    "name" : "ShipmentXP",
    "type" : "ushort",
    "index" : false,
    "arraySize" : 1
  }, {
    "name" : "Quality",
    "type" : "byte",
    "index" : false,
    "arraySize" : 1
  }, {
    "name" : "AbilityCount",
    "type" : "byte",
    "index" : false,
    "arraySize" : 1
  }, {
    "name" : "TraitCount",
    "type" : "byte",
    "index" : false,
    "arraySize" : 1
  }, {
    "name" : "GarrFollowerTypeId",
    "type" : "byte",
    "index" : false,
    "arraySize" : 1
  }, {
    "name" : "ClassSpecId",
    "type" : "int",
    "index" : false,
    "arraySize" : 1
  } ]
}