{
  "name" : "GarrTalent",
  "build" : 24793,
  "fields" : [ {
    "name" : "Field00",
    "type" : "uint",
    "index" : false,
    "arraySize" : 1
  }, {
    "name" : "Field04",
    "type" : "string",
    "index" : false,
    "arraySize" : 1
  }, {
    "name" : "Field08",
    "type" : "string",
    "index" : false,
    "arraySize" : 1
  }, {
    "name" : "Field0C",
    "type" : "uint",
    "index" : false,
    "arraySize" : 1
  }, {
    "name" : "Field10",
    "type" : "byte",
    "index" : false,
    "arraySize" : 1
  }, {
    "name" : "Field11",
    "type" : "byte",
    "index" : false,
    "arraySize" : 1
  }, {
    "name" : "Field12",
    "type" : "byte",
    "index" : false,
    "arraySize" : 1
  }, {
    "name" : "ID",
    "type" : "int",
    "index" : true,
    "arraySize" : 1
  }, {
    "name" : "Field15",
    "type" : "byte",
    "index" : false,
    "arraySize" : 1
  }, {
    "name" : "Field16",
    "type" : "ushort",
    "index" : false,
    "arraySize" : 1
  }, {
    "name" : "Field18",
    "type" : "ushort",
    "index" : false,
    "arraySize" : 1
  }, {
    "name" : "Field1A",
    "type" : "ushort",
    "index" : false,
    "arraySize" : 1
  }, {
    "name" : "Field1C",
    "type" : "ushort",
    "index" : false,
    "arraySize" : 1
  }, {
    "name" : "Field1E",
    "type" : "byte",
    "index" : false,
    "arraySize" : 1
  }, {
    "name" : "Field1F",
    "type" : "int",
    "index" : false,
    "arraySize" : 1
  }, {
    "name" : "Field22",
    "type" : "ushort",
    "index" : false,
    "arraySize" : 1
  }, {
    "name" : "Field24",
    "type" : "ushort",
    "index" : false,
    "arraySize" : 1
  }, {
    "name" : "Field26",
    "type" : "ushort",
    "index" : false,
    "arraySize" : 1
  }, {
    "name" : "Field28",
    "type" : "int",
    "index" : false,
    "arraySize" : 1
  }, {
    "name" : "Field2B",
    "type" : "byte",
    "index" : false,
    "arraySize" : 1
  } ]
}