{
  "name" : "GarrFollItemSetMember",
  "build" : 26231,
  "fields" : [ {
    "name" : "ID",
    "type" : "int",
    "index" : true,
    "arraySize" : 1
  }, {
    "name" : "ItemId",
    "type" : "int",
    "index" : false,
    "arraySize" : 1
  }, {
    "name" : "MinItemLevel",
    "type" : "ushort",
    "index" : false,
    "arraySize" : 1
  }, {
    "name" : "ItemSlot",
    "type" : "byte",
    "index" : false,
    "arraySize" : 1
  } ]
}