{
  "name" : "GarrPlot",
  "build" : 24492,
  "fields" : [ {
    "name" : "ID",
    "type" : "int",
    "index" : true,
    "arraySize" : 1
  }, {
    "name" : "Name",
    "type" : "string",
    "index" : false,
    "arraySize" : 1
  }, {
    "name" : "AllianceConstructionGameObjectID",
    "type" : "uint",
    "index" : false,
    "arraySize" : 1
  }, {
    "name" : "HordeConstructionGameObjectID",
    "type" : "uint",
    "index" : false,
    "arraySize" : 1
  }, {
    "name" : "GarrPlotUICategoryID",
    "type" : "byte",
    "index" : false,
    "arraySize" : 1
  }, {
    "name" : "PlotType",
    "type" : "byte",
    "index" : false,
    "arraySize" : 1
  }, {
    "name" : "Flags",
    "type" : "byte",
    "index" : false,
    "arraySize" : 1
  }, {
    "name" : "MinCount",
    "type" : "uint",
    "index" : false,
    "arraySize" : 1
  } ]
}