{
  "name" : "GarrBuilding",
  "build" : 24492,
  "fields" : [ {
    "name" : "ID",
    "type" : "int",
    "index" : true,
    "arraySize" : 1
  }, {
    "name" : "HordeGameObjectID",
    "type" : "uint",
    "index" : false,
    "arraySize" : 1
  }, {
    "name" : "AllianceGameObjectID",
    "type" : "uint",
    "index" : false,
    "arraySize" : 1
  }, {
    "name" : "NameAlliance",
    "type" : "string",
    "index" : false,
    "arraySize" : 1
  }, {
    "name" : "NameHorde",
    "type" : "string",
    "index" : false,
    "arraySize" : 1
  }, {
    "name" : "Description",
    "type" : "string",
    "index" : false,
    "arraySize" : 1
  }, {
    "name" : "Tooltip",
    "type" : "string",
    "index" : false,
    "arraySize" : 1
  }, {
    "name" : "IconFileDataID",
    "type" : "uint",
    "index" : false,
    "arraySize" : 1
  }, {
    "name" : "CostCurrencyID",
    "type" : "ushort",
    "index" : false,
    "arraySize" : 1
  }, {
    "name" : "HordeTexPrefixKitID",
    "type" : "ushort",
    "index" : false,
    "arraySize" : 1
  }, {
    "name" : "AllianceTexPrefixKitID",
    "type" : "ushort",
    "index" : false,
    "arraySize" : 1
  }, {
    "name" : "AllianceActivationScenePackageID",
    "type" : "ushort",
    "index" : false,
    "arraySize" : 1
  }, {
    "name" : "HordeActivationScenePackageID",
    "type" : "ushort",
    "index" : false,
    "arraySize" : 1
  }, {
    "name" : "FollowerRequiredGarrAbilityID",
    "type" : "ushort",
    "index" : false,
    "arraySize" : 1
  }, {
    "name" : "FollowerGarrAbilityEffectID",
    "type" : "ushort",
    "index" : false,
    "arraySize" : 1
  }, {
    "name" : "CostMoney",
    "type" : "ushort",
    "index" : false,
    "arraySize" : 1
  }, {
    "name" : "Field16",
    "type" : "byte",
    "index" : false,
    "arraySize" : 1
  }, {
    "name" : "Type",
    "type" : "byte",
    "index" : false,
    "arraySize" : 1
  }, {
    "name" : "Level",
    "type" : "byte",
    "index" : false,
    "arraySize" : 1
  }, {
    "name" : "Flags",
    "type" : "byte",
    "index" : false,
    "arraySize" : 1
  }, {
    "name" : "MaxShipments",
    "type" : "byte",
    "index" : false,
    "arraySize" : 1
  }, {
    "name" : "GarrTypeID",
    "type" : "byte",
    "index" : false,
    "arraySize" : 1
  }, {
    "name" : "BuildDuration",
    "type" : "int",
    "index" : false,
    "arraySize" : 1
  }, {
    "name" : "CostCurrencyAmount",
    "type" : "int",
    "index" : false,
    "arraySize" : 1
  }, {
    "name" : "BonusAmount",
    "type" : "int",
    "index" : false,
    "arraySize" : 1
  } ]
}