{
  "name" : "GarrPlotInstance",
  "build" : 23835,
  "fields" : [ {
    "name" : "ID",
    "type" : "int",
    "index" : true,
    "arraySize" : 1
  }, {
    "name" : "Name",
    "type" : "string",
    "index" : false,
    "arraySize" : 1
  }, {
    "name" : "GarrPlotID",
    "type" : "byte",
    "index" : false,
    "arraySize" : 1
  } ]
}