{
  "name" : "GarrUiAnimClassInfo",
  "build" : 26231,
  "fields" : [ {
    "name" : "ID",
    "type" : "int",
    "index" : true,
    "arraySize" : 1
  }, {
    "name" : "ImpactDelaySecs",
    "type" : "float",
    "index" : false,
    "arraySize" : 1
  }, {
    "name" : "GarrClassSpecId",
    "type" : "byte",
    "index" : false,
    "arraySize" : 1
  }, {
    "name" : "MovementType",
    "type" : "byte",
    "index" : false,
    "arraySize" : 1
  }, {
    "name" : "CastKit",
    "type" : "int",
    "index" : false,
    "arraySize" : 1
  }, {
    "name" : "ImpactKit",
    "type" : "int",
    "index" : false,
    "arraySize" : 1
  }, {
    "name" : "TargetImpactKit",
    "type" : "int",
    "index" : false,
    "arraySize" : 1
  } ]
}