{
  "name" : "GarrUiAnimClassInfo",
  "build" : 21742,
  "fields" : [ {
    "name" : "ID",
    "type" : "int",
    "index" : true,
    "arraySize" : 1
  }, {
    "name" : "GarrClassSpecID",
    "type" : "int",
    "index" : false,
    "arraySize" : 1
  }, {
    "name" : "SpellVisualID",
    "type" : "int",
    "index" : false,
    "arraySize" : 1
  }, {
    "name" : "MovementType",
    "type" : "int",
    "index" : false,
    "arraySize" : 1
  }, {
    "name" : "ImpactDelaySecs",
    "type" : "float",
    "index" : false,
    "arraySize" : 1
  } ]
}