{
  "name" : "GarrFollower",
  "build" : 26231,
  "fields" : [ {
    "name" : "HordeSourceText",
    "type" : "string",
    "index" : false,
    "arraySize" : 1
  }, {
    "name" : "AllianceSourceText",
    "type" : "string",
    "index" : false,
    "arraySize" : 1
  }, {
    "name" : "TitleName",
    "type" : "string",
    "index" : false,
    "arraySize" : 1
  }, {
    "name" : "HordeCreatureId",
    "type" : "int",
    "index" : false,
    "arraySize" : 1
  }, {
    "name" : "AllianceCreatureId",
    "type" : "int",
    "index" : false,
    "arraySize" : 1
  }, {
    "name" : "HordeIconFileDataId",
    "type" : "int",
    "index" : false,
    "arraySize" : 1
  }, {
    "name" : "AllianceIconFileDataId",
    "type" : "int",
    "index" : false,
    "arraySize" : 1
  }, {
    "name" : "HordeSlottingBroadcastTextId",
    "type" : "int",
    "index" : false,
    "arraySize" : 1
  }, {
    "name" : "AllySlottingBroadcastTextId",
    "type" : "int",
    "index" : false,
    "arraySize" : 1
  }, {
    "name" : "HordeGarrFollItemSetId",
    "type" : "ushort",
    "index" : false,
    "arraySize" : 1
  }, {
    "name" : "AllianceGarrFollItemSetId",
    "type" : "ushort",
    "index" : false,
    "arraySize" : 1
  }, {
    "name" : "ItemLevelWeapon",
    "type" : "ushort",
    "index" : false,
    "arraySize" : 1
  }, {
    "name" : "ItemLevelArmor",
    "type" : "ushort",
    "index" : false,
    "arraySize" : 1
  }, {
    "name" : "HordeUITextureKitId",
    "type" : "ushort",
    "index" : false,
    "arraySize" : 1
  }, {
    "name" : "AllianceUITextureKitId",
    "type" : "ushort",
    "index" : false,
    "arraySize" : 1
  }, {
    "name" : "GarrFollowerTypeId",
    "type" : "byte",
    "index" : false,
    "arraySize" : 1
  }, {
    "name" : "HordeGarrFollRaceId",
    "type" : "byte",
    "index" : false,
    "arraySize" : 1
  }, {
    "name" : "AllianceGarrFollRaceId",
    "type" : "byte",
    "index" : false,
    "arraySize" : 1
  }, {
    "name" : "Quality",
    "type" : "byte",
    "index" : false,
    "arraySize" : 1
  }, {
    "name" : "HordeGarrClassSpecId",
    "type" : "byte",
    "index" : false,
    "arraySize" : 1
  }, {
    "name" : "AllianceGarrClassSpecId",
    "type" : "byte",
    "index" : false,
    "arraySize" : 1
  }, {
    "name" : "FollowerLevel",
    "type" : "byte",
    "index" : false,
    "arraySize" : 1
  }, {
    "name" : "Gender",
    "type" : "byte",
    "index" : false,
    "arraySize" : 1
  }, {
    "name" : "Flags",
    "type" : "byte",
    "index" : false,
    "arraySize" : 1
  }, {
    "name" : "HordeSourceTypeEnum",
    "type" : "byte",
    "index" : false,
    "arraySize" : 1
  }, {
    "name" : "AllianceSourceTypeEnum",
    "type" : "byte",
    "index" : false,
    "arraySize" : 1
  }, {
    "name" : "GarrTypeId",
    "type" : "byte",
    "index" : false,
    "arraySize" : 1
  }, {
    "name" : "Vitality",
    "type" : "byte",
    "index" : false,
    "arraySize" : 1
  }, {
    "name" : "ChrClassId",
    "type" : "byte",
    "index" : false,
    "arraySize" : 1
  }, {
    "name" : "HordeFlavorGarrStringId",
    "type" : "byte",
    "index" : false,
    "arraySize" : 1
  }, {
    "name" : "AllianceFlavorGarrStringId",
    "type" : "byte",
    "index" : false,
    "arraySize" : 1
  }, {
    "name" : "ID",
    "type" : "int",
    "index" : true,
    "arraySize" : 1
  } ]
}