{
  "name" : "GarrPlotBuilding",
  "build" : 26231,
  "fields" : [ {
    "name" : "ID",
    "type" : "int",
    "index" : true,
    "arraySize" : 1
  }, {
    "name" : "GarrPlotId",
    "type" : "byte",
    "index" : false,
    "arraySize" : 1
  }, {
    "name" : "GarrBuildingId",
    "type" : "byte",
    "index" : false,
    "arraySize" : 1
  } ]
}