{
  "name" : "GemProperties",
  "build" : 23835,
  "fields" : [ {
    "name" : "ID",
    "type" : "int",
    "index" : true,
    "arraySize" : 1
  }, {
    "name" : "Type",
    "type" : "uint",
    "index" : false,
    "arraySize" : 1
  }, {
    "name" : "EnchantID",
    "type" : "ushort",
    "index" : false,
    "arraySize" : 1
  }, {
    "name" : "MinItemLevel",
    "type" : "ushort",
    "index" : false,
    "arraySize" : 1
  } ]
}