{
  "name" : "GlyphRequiredSpec",
  "build" : 24793,
  "fields" : [ {
    "name" : "ID",
    "type" : "int",
    "index" : true,
    "arraySize" : 1
  }, {
    "name" : "GlyphPropertiesID",
    "type" : "ushort",
    "index" : false,
    "arraySize" : 1
  }, {
    "name" : "ChrSpecializationID",
    "type" : "ushort",
    "index" : false,
    "arraySize" : 1
  } ]
}