{
  "name" : "GlyphProperties",
  "build" : 25632,
  "fields" : [ {
    "name" : "ID",
    "type" : "int",
    "index" : true,
    "arraySize" : 1
  }, {
    "name" : "SpellID",
    "type" : "uint",
    "index" : false,
    "arraySize" : 1
  }, {
    "name" : "SpellIconID",
    "type" : "ushort",
    "index" : false,
    "arraySize" : 1
  }, {
    "name" : "Type",
    "type" : "byte",
    "index" : false,
    "arraySize" : 1
  }, {
    "name" : "GlyphExclusiveCategoryID",
    "type" : "byte",
    "index" : false,
    "arraySize" : 1
  } ]
}