{
  "name" : "GroupFinderCategory",
  "build" : 24492,
  "fields" : [ {
    "name" : "ID",
    "type" : "int",
    "index" : true,
    "arraySize" : 1
  }, {
    "name" : "Field4",
    "type" : "string",
    "index" : false,
    "arraySize" : 1
  }, {
    "name" : "Field8",
    "type" : "byte",
    "index" : false,
    "arraySize" : 1
  }, {
    "name" : "Field9",
    "type" : "byte",
    "index" : false,
    "arraySize" : 1
  } ]
}