{
  "name" : "GroundEffectDoodad",
  "build" : 12340,
  "fields" : [ {
    "name" : "ID",
    "type" : "int",
    "index" : true,
    "arraySize" : 1
  }, {
    "name" : "Doodadpath",
    "type" : "string",
    "index" : false,
    "arraySize" : 1
  }, {
    "name" : "Flags",
    "type" : "int",
    "index" : false,
    "arraySize" : 1
  } ]
}