{
  "name" : "GuildColorBorder",
  "build" : 23835,
  "fields" : [ {
    "name" : "ID",
    "type" : "int",
    "index" : true,
    "arraySize" : 1
  }, {
    "name" : "Red",
    "type" : "byte",
    "index" : false,
    "arraySize" : 1
  }, {
    "name" : "Green",
    "type" : "byte",
    "index" : false,
    "arraySize" : 1
  }, {
    "name" : "Blue",
    "type" : "byte",
    "index" : false,
    "arraySize" : 1
  } ]
}