{
  "name" : "Holidays",
  "build" : 22248,
  "fields" : [ {
    "name" : "ID",
    "type" : "int",
    "index" : true,
    "arraySize" : 1
  }, {
    "name" : "Field00",
    "type" : "int",
    "index" : false,
    "arraySize" : 1
  }, {
    "name" : "Field40",
    "type" : "string",
    "index" : false,
    "arraySize" : 1
  }, {
    "name" : "Field44",
    "type" : "ushort",
    "index" : false,
    "arraySize" : 1
  }, {
    "name" : "Field58",
    "type" : "ushort",
    "index" : false,
    "arraySize" : 1
  }, {
    "name" : "Field5A",
    "type" : "byte",
    "index" : false,
    "arraySize" : 1
  }, {
    "name" : "Field5B",
    "type" : "byte",
    "index" : false,
    "arraySize" : 1
  }, {
    "name" : "Field65",
    "type" : "byte",
    "index" : false,
    "arraySize" : 1
  }, {
    "name" : "Field66",
    "type" : "byte",
    "index" : false,
    "arraySize" : 1
  }, {
    "name" : "Field67",
    "type" : "byte",
    "index" : false,
    "arraySize" : 1
  }, {
    "name" : "Field68",
    "type" : "byte",
    "index" : false,
    "arraySize" : 1
  }, {
    "name" : "Field69",
    "type" : "byte",
    "index" : false,
    "arraySize" : 1
  } ]
}