{
  "name" : "Holidays",
  "build" : 26231,
  "fields" : [ {
    "name" : "ID",
    "type" : "int",
    "index" : true,
    "arraySize" : 1
  }, {
    "name" : "Date",
    "type" : "int",
    "index" : false,
    "arraySize" : 1
  }, {
    "name" : "Duration",
    "type" : "ushort",
    "index" : false,
    "arraySize" : 1
  }, {
    "name" : "Region",
    "type" : "ushort",
    "index" : false,
    "arraySize" : 1
  }, {
    "name" : "Looping",
    "type" : "byte",
    "index" : false,
    "arraySize" : 1
  }, {
    "name" : "CalendarFlags",
    "type" : "byte",
    "index" : false,
    "arraySize" : 1
  }, {
    "name" : "Priority",
    "type" : "byte",
    "index" : false,
    "arraySize" : 1
  }, {
    "name" : "CalendarFilterType",
    "type" : "byte",
    "index" : false,
    "arraySize" : 1
  }, {
    "name" : "Flags",
    "type" : "byte",
    "index" : false,
    "arraySize" : 1
  }, {
    "name" : "HolidayNameId",
    "type" : "int",
    "index" : false,
    "arraySize" : 1
  }, {
    "name" : "HolidayDescriptionId",
    "type" : "int",
    "index" : false,
    "arraySize" : 1
  }, {
    "name" : "TextureFileDataId",
    "type" : "int",
    "index" : false,
    "arraySize" : 1
  } ]
}