{
  "name" : "Holidays",
  "build" : 23835,
  "fields" : [ {
    "name" : "ID",
    "type" : "int",
    "index" : true,
    "arraySize" : 1
  }, {
    "name" : "Date",
    "type" : "uint",
    "index" : false,
    "arraySize" : 1
  }, {
    "name" : "TextureFilename",
    "type" : "string",
    "index" : false,
    "arraySize" : 1
  }, {
    "name" : "Duration",
    "type" : "ushort",
    "index" : false,
    "arraySize" : 1
  }, {
    "name" : "Region",
    "type" : "ushort",
    "index" : false,
    "arraySize" : 1
  }, {
    "name" : "Looping",
    "type" : "byte",
    "index" : false,
    "arraySize" : 1
  }, {
    "name" : "CalendarFlags",
    "type" : "byte",
    "index" : false,
    "arraySize" : 1
  }, {
    "name" : "Priority",
    "type" : "byte",
    "index" : false,
    "arraySize" : 1
  }, {
    "name" : "CalendarFilterType",
    "type" : "byte",
    "index" : false,
    "arraySize" : 1
  }, {
    "name" : "Flags",
    "type" : "byte",
    "index" : false,
    "arraySize" : 1
  }, {
    "name" : "HolidayNameID",
    "type" : "uint",
    "index" : false,
    "arraySize" : 1
  }, {
    "name" : "HolidayDescriptionID",
    "type" : "uint",
    "index" : false,
    "arraySize" : 1
  } ]
}