{
  "name" : "ImportPriceShield",
  "build" : 26231,
  "fields" : [ {
    "name" : "ID",
    "type" : "int",
    "index" : true,
    "arraySize" : 1
  }, {
    "name" : "Data",
    "type" : "float",
    "index" : false,
    "arraySize" : 1
  } ]
}