{
  "name" : "ItemClass",
  "build" : 12340,
  "fields" : [ {
    "name" : "ID",
    "type" : "int",
    "index" : true,
    "arraySize" : 1
  }, {
    "name" : "ClassID",
    "type" : "int",
    "index" : false,
    "arraySize" : 1
  }, {
    "name" : "SubclassMapID",
    "type" : "int",
    "index" : false,
    "arraySize" : 1
  }, {
    "name" : "Flags",
    "type" : "int",
    "index" : false,
    "arraySize" : 1
  }, {
    "name" : "ClassName_Lang",
    "type" : "loc",
    "index" : false,
    "arraySize" : 1
  } ]
}