{
  "name" : "ItemExtendedCost",
  "build" : 8606,
  "fields" : [ {
    "name" : "ID",
    "type" : "int",
    "index" : true,
    "arraySize" : 1
  }, {
    "name" : "HonorPoints",
    "type" : "int",
    "index" : false,
    "arraySize" : 1
  }, {
    "name" : "ArenaPoints",
    "type" : "int",
    "index" : false,
    "arraySize" : 1
  }, {
    "name" : "ItemID",
    "type" : "int",
    "index" : false,
    "arraySize" : 1
  }, {
    "name" : "ItemCount",
    "type" : "int",
    "index" : false,
    "arraySize" : 1
  } ]
}