{
  "name" : "ItemSearchName",
  "build" : 26231,
  "fields" : [ {
    "name" : "AllowableRace",
    "type" : "ulong",
    "index" : false,
    "arraySize" : 1
  }, {
    "name" : "Display",
    "type" : "string",
    "index" : false,
    "arraySize" : 1
  }, {
    "name" : "ID",
    "type" : "int",
    "index" : true,
    "arraySize" : 1
  }, {
    "name" : "Flags",
    "type" : "uint",
    "index" : false,
    "arraySize" : 1
  }, {
    "name" : "ItemLevel",
    "type" : "ushort",
    "index" : false,
    "arraySize" : 1
  }, {
    "name" : "OverallQualityId",
    "type" : "byte",
    "index" : false,
    "arraySize" : 1
  }, {
    "name" : "ExpansionId",
    "type" : "byte",
    "index" : false,
    "arraySize" : 1
  }, {
    "name" : "RequiredLevel",
    "type" : "byte",
    "index" : false,
    "arraySize" : 1
  }, {
    "name" : "MinFactionId",
    "type" : "ushort",
    "index" : false,
    "arraySize" : 1
  }, {
    "name" : "MinReputation",
    "type" : "byte",
    "index" : false,
    "arraySize" : 1
  }, {
    "name" : "AllowableClass",
    "type" : "int",
    "index" : false,
    "arraySize" : 1
  }, {
    "name" : "RequiredSkill",
    "type" : "ushort",
    "index" : false,
    "arraySize" : 1
  }, {
    "name" : "RequiredSkillRank",
    "type" : "ushort",
    "index" : false,
    "arraySize" : 1
  }, {
    "name" : "RequiredAbility",
    "type" : "int",
    "index" : false,
    "arraySize" : 1
  } ]
}