{
  "name" : "ItemSetSpell",
  "build" : 24793,
  "fields" : [ {
    "name" : "ID",
    "type" : "int",
    "index" : true,
    "arraySize" : 1
  }, {
    "name" : "SpellID",
    "type" : "uint",
    "index" : false,
    "arraySize" : 1
  }, {
    "name" : "ItemSetID",
    "type" : "ushort",
    "index" : false,
    "arraySize" : 1
  }, {
    "name" : "ChrSpecID",
    "type" : "ushort",
    "index" : false,
    "arraySize" : 1
  }, {
    "name" : "Threshold",
    "type" : "byte",
    "index" : false,
    "arraySize" : 1
  } ]
}