{
  "name" : "ItemDamageThrown",
  "build" : 12340,
  "fields" : [ {
    "name" : "ID",
    "type" : "int",
    "index" : true,
    "arraySize" : 1
  }, {
    "name" : "Quality",
    "type" : "float",
    "index" : false,
    "arraySize" : 1
  }, {
    "name" : "ItemLevel",
    "type" : "int",
    "index" : false,
    "arraySize" : 1
  } ]
}