{
  "name" : "ItemAppearance",
  "build" : 25632,
  "fields" : [ {
    "name" : "ID",
    "type" : "int",
    "index" : true,
    "arraySize" : 1
  }, {
    "name" : "DisplayID",
    "type" : "uint",
    "index" : false,
    "arraySize" : 1
  }, {
    "name" : "IconFileDataID",
    "type" : "uint",
    "index" : false,
    "arraySize" : 1
  }, {
    "name" : "UIOrder",
    "type" : "uint",
    "index" : false,
    "arraySize" : 1
  }, {
    "name" : "ObjectComponentSlot",
    "type" : "byte",
    "index" : false,
    "arraySize" : 1
  } ]
}