{
  "name" : "ItemDisplayInfoMaterialRes",
  "build" : 22248,
  "fields" : [ {
    "name" : "ID",
    "type" : "int",
    "index" : true,
    "arraySize" : 1
  }, {
    "name" : "Field00",
    "type" : "int",
    "index" : false,
    "arraySize" : 1
  }, {
    "name" : "Field04",
    "type" : "int",
    "index" : false,
    "arraySize" : 1
  }, {
    "name" : "Field08",
    "type" : "byte",
    "index" : false,
    "arraySize" : 1
  } ]
}