{
  "name" : "ItemBonus",
  "build" : 24492,
  "fields" : [ {
    "name" : "ID",
    "type" : "int",
    "index" : true,
    "arraySize" : 1
  }, {
    "name" : "Value",
    "type" : "int",
    "index" : false,
    "arraySize" : 1
  }, {
    "name" : "BonusListID",
    "type" : "ushort",
    "index" : false,
    "arraySize" : 1
  }, {
    "name" : "Type",
    "type" : "byte",
    "index" : false,
    "arraySize" : 1
  }, {
    "name" : "Index",
    "type" : "byte",
    "index" : false,
    "arraySize" : 1
  } ]
}