{
  "name" : "ItemCondExtCosts",
  "build" : 8606,
  "fields" : [ {
    "name" : "ID",
    "type" : "int",
    "index" : true,
    "arraySize" : 1
  }, {
    "name" : "CondExtendedCost",
    "type" : "int",
    "index" : false,
    "arraySize" : 1
  }, {
    "name" : "Itemextendedcostentry",
    "type" : "int",
    "index" : false,
    "arraySize" : 1
  }, {
    "name" : "Arenaseason",
    "type" : "int",
    "index" : false,
    "arraySize" : 1
  } ]
}