{
  "name" : "ItemSet",
  "build" : 12340,
  "fields" : [ {
    "name" : "ID",
    "type" : "int",
    "index" : true,
    "arraySize" : 1
  }, {
    "name" : "Name_Lang",
    "type" : "loc",
    "index" : false,
    "arraySize" : 1
  }, {
    "name" : "ItemID",
    "type" : "int",
    "index" : false,
    "arraySize" : 1
  }, {
    "name" : "SetSpellID",
    "type" : "int",
    "index" : false,
    "arraySize" : 1
  }, {
    "name" : "SetThreshold",
    "type" : "int",
    "index" : false,
    "arraySize" : 1
  }, {
    "name" : "RequiredSkill",
    "type" : "int",
    "index" : false,
    "arraySize" : 1
  }, {
    "name" : "RequiredSkillRank",
    "type" : "int",
    "index" : false,
    "arraySize" : 1
  } ]
}