{
  "name" : "ItemPriceBase",
  "build" : 21742,
  "fields" : [ {
    "name" : "ID",
    "type" : "int",
    "index" : true,
    "arraySize" : 1
  }, {
    "name" : "ItemLevel",
    "type" : "int",
    "index" : false,
    "arraySize" : 1
  }, {
    "name" : "Armor",
    "type" : "float",
    "index" : false,
    "arraySize" : 1
  }, {
    "name" : "Weapon",
    "type" : "float",
    "index" : false,
    "arraySize" : 1
  } ]
}