{
  "name" : "ItemUpgrade",
  "build" : 23835,
  "fields" : [ {
    "name" : "ID",
    "type" : "int",
    "index" : true,
    "arraySize" : 1
  }, {
    "name" : "CurrencyCost",
    "type" : "uint",
    "index" : false,
    "arraySize" : 1
  }, {
    "name" : "PrevItemUpgradeID",
    "type" : "ushort",
    "index" : false,
    "arraySize" : 1
  }, {
    "name" : "CurrencyID",
    "type" : "ushort",
    "index" : false,
    "arraySize" : 1
  }, {
    "name" : "ItemUpgradePathID",
    "type" : "byte",
    "index" : false,
    "arraySize" : 1
  }, {
    "name" : "ItemLevelBonus",
    "type" : "byte",
    "index" : false,
    "arraySize" : 1
  } ]
}