{
  "name" : "ItemDisenchantLoot",
  "build" : 26231,
  "fields" : [ {
    "name" : "ID",
    "type" : "int",
    "index" : true,
    "arraySize" : 1
  }, {
    "name" : "MinLevel",
    "type" : "ushort",
    "index" : false,
    "arraySize" : 1
  }, {
    "name" : "MaxLevel",
    "type" : "ushort",
    "index" : false,
    "arraySize" : 1
  }, {
    "name" : "SkillRequired",
    "type" : "ushort",
    "index" : false,
    "arraySize" : 1
  }, {
    "name" : "Subclass",
    "type" : "byte",
    "index" : false,
    "arraySize" : 1
  }, {
    "name" : "Quality",
    "type" : "byte",
    "index" : false,
    "arraySize" : 1
  }, {
    "name" : "ExpansionId",
    "type" : "byte",
    "index" : false,
    "arraySize" : 1
  } ]
}