{
  "name" : "ItemChildEquipment",
  "build" : 26231,
  "fields" : [ {
    "name" : "ID",
    "type" : "int",
    "index" : true,
    "arraySize" : 1
  }, {
    "name" : "ChildItemId",
    "type" : "int",
    "index" : false,
    "arraySize" : 1
  }, {
    "name" : "ChildItemEquipSlot",
    "type" : "byte",
    "index" : false,
    "arraySize" : 1
  } ]
}