{
  "name" : "ItemDisplayInfoMaterialRes",
  "build" : 26231,
  "fields" : [ {
    "name" : "ID",
    "type" : "int",
    "index" : true,
    "arraySize" : 1
  }, {
    "name" : "MaterialResourcesId",
    "type" : "int",
    "index" : false,
    "arraySize" : 1
  }, {
    "name" : "ComponentSection",
    "type" : "byte",
    "index" : false,
    "arraySize" : 1
  } ]
}