{
  "name" : "ItemModifiedAppearance",
  "build" : 25632,
  "fields" : [ {
    "name" : "ItemID",
    "type" : "uint",
    "index" : false,
    "arraySize" : 1
  }, {
    "name" : "ID",
    "type" : "int",
    "index" : true,
    "arraySize" : 1
  }, {
    "name" : "AppearanceModID",
    "type" : "byte",
    "index" : false,
    "arraySize" : 1
  }, {
    "name" : "AppearanceID",
    "type" : "ushort",
    "index" : false,
    "arraySize" : 1
  }, {
    "name" : "Index",
    "type" : "byte",
    "index" : false,
    "arraySize" : 1
  }, {
    "name" : "SourceType",
    "type" : "byte",
    "index" : false,
    "arraySize" : 1
  } ]
}