{
  "name" : "ItemArmorQuality",
  "build" : 26231,
  "fields" : [ {
    "name" : "ID",
    "type" : "int",
    "index" : true,
    "arraySize" : 1
  }, {
    "name" : "Qualitymod",
    "type" : "float",
    "index" : false,
    "arraySize" : 1
  }, {
    "name" : "ItemLevel",
    "type" : "ushort",
    "index" : false,
    "arraySize" : 1
  } ]
}