{
  "name" : "ItemRandomSuffix",
  "build" : 21742,
  "fields" : [ {
    "name" : "ID",
    "type" : "int",
    "index" : true,
    "arraySize" : 1
  }, {
    "name" : "Name_Lang",
    "type" : "string",
    "index" : false,
    "arraySize" : 1
  }, {
    "name" : "InternalName",
    "type" : "string",
    "index" : false,
    "arraySize" : 1
  }, {
    "name" : "Enchantment",
    "type" : "int",
    "index" : false,
    "arraySize" : 1
  }, {
    "name" : "AllocationPct",
    "type" : "int",
    "index" : false,
    "arraySize" : 1
  } ]
}