{
  "name" : "ItemSpec",
  "build" : 21742,
  "fields" : [ {
    "name" : "ID",
    "type" : "int",
    "index" : true,
    "arraySize" : 1
  }, {
    "name" : "MinLevel",
    "type" : "int",
    "index" : false,
    "arraySize" : 1
  }, {
    "name" : "MaxLevel",
    "type" : "int",
    "index" : false,
    "arraySize" : 1
  }, {
    "name" : "ItemType",
    "type" : "int",
    "index" : false,
    "arraySize" : 1
  }, {
    "name" : "PrimaryStat",
    "type" : "int",
    "index" : false,
    "arraySize" : 1
  }, {
    "name" : "SecondaryStat",
    "type" : "int",
    "index" : false,
    "arraySize" : 1
  }, {
    "name" : "SpecializationID",
    "type" : "int",
    "index" : false,
    "arraySize" : 1
  } ]
}