{
  "name" : "Item",
  "build" : 26231,
  "fields" : [ {
    "name" : "ID",
    "type" : "int",
    "index" : true,
    "arraySize" : 1
  }, {
    "name" : "IconFileDataId",
    "type" : "int",
    "index" : false,
    "arraySize" : 1
  }, {
    "name" : "ClassId",
    "type" : "byte",
    "index" : false,
    "arraySize" : 1
  }, {
    "name" : "SubclassId",
    "type" : "byte",
    "index" : false,
    "arraySize" : 1
  }, {
    "name" : "SoundOverrideSubclassId",
    "type" : "byte",
    "index" : false,
    "arraySize" : 1
  }, {
    "name" : "Material",
    "type" : "byte",
    "index" : false,
    "arraySize" : 1
  }, {
    "name" : "InventoryType",
    "type" : "byte",
    "index" : false,
    "arraySize" : 1
  }, {
    "name" : "SheatheType",
    "type" : "byte",
    "index" : false,
    "arraySize" : 1
  }, {
    "name" : "ItemGroupSoundsId",
    "type" : "byte",
    "index" : false,
    "arraySize" : 1
  } ]
}