{
  "name" : "Item",
  "build" : 18414,
  "fields" : [ {
    "name" : "ID",
    "type" : "int",
    "index" : true,
    "arraySize" : 1
  }, {
    "name" : "Class",
    "type" : "uint",
    "index" : false,
    "arraySize" : 1
  }, {
    "name" : "SubClass",
    "type" : "uint",
    "index" : false,
    "arraySize" : 1
  }, {
    "name" : "SoundOverrideSubclass",
    "type" : "int",
    "index" : false,
    "arraySize" : 1
  }, {
    "name" : "Material",
    "type" : "int",
    "index" : false,
    "arraySize" : 1
  }, {
    "name" : "DisplayId",
    "type" : "uint",
    "index" : false,
    "arraySize" : 1
  }, {
    "name" : "InventoryType",
    "type" : "uint",
    "index" : false,
    "arraySize" : 1
  }, {
    "name" : "Sheath",
    "type" : "uint",
    "index" : false,
    "arraySize" : 1
  } ]
}