{
  "name" : "ItemSparse",
  "build" : 24793,
  "fields" : [ {
    "name" : "ID",
    "type" : "int",
    "index" : true,
    "arraySize" : 1
  }, {
    "name" : "Flags",
    "type" : "uint",
    "index" : false,
    "arraySize" : 1
  }, {
    "name" : "Field02",
    "type" : "float",
    "index" : false,
    "arraySize" : 1
  }, {
    "name" : "Field03",
    "type" : "float",
    "index" : false,
    "arraySize" : 1
  }, {
    "name" : "BuyCount",
    "type" : "uint",
    "index" : false,
    "arraySize" : 1
  }, {
    "name" : "BuyPrice",
    "type" : "uint",
    "index" : false,
    "arraySize" : 1
  }, {
    "name" : "SellPrice",
    "type" : "uint",
    "index" : false,
    "arraySize" : 1
  }, {
    "name" : "AllowableRace",
    "type" : "int",
    "index" : false,
    "arraySize" : 1
  }, {
    "name" : "RequiredSpell",
    "type" : "uint",
    "index" : false,
    "arraySize" : 1
  }, {
    "name" : "MaxCount",
    "type" : "uint",
    "index" : false,
    "arraySize" : 1
  }, {
    "name" : "Stackable",
    "type" : "uint",
    "index" : false,
    "arraySize" : 1
  }, {
    "name" : "ItemStatAllocation",
    "type" : "int",
    "index" : false,
    "arraySize" : 1
  }, {
    "name" : "ItemStatSocketCostMultiplier",
    "type" : "float",
    "index" : false,
    "arraySize" : 1
  }, {
    "name" : "RangedModRange",
    "type" : "float",
    "index" : false,
    "arraySize" : 1
  }, {
    "name" : "Name",
    "type" : "string",
    "index" : false,
    "arraySize" : 1
  }, {
    "name" : "Name2",
    "type" : "string",
    "index" : false,
    "arraySize" : 1
  }, {
    "name" : "Name3",
    "type" : "string",
    "index" : false,
    "arraySize" : 1
  }, {
    "name" : "Name4",
    "type" : "string",
    "index" : false,
    "arraySize" : 1
  }, {
    "name" : "Description",
    "type" : "string",
    "index" : false,
    "arraySize" : 1
  }, {
    "name" : "BagFamily",
    "type" : "uint",
    "index" : false,
    "arraySize" : 1
  }, {
    "name" : "ArmorDamageModifier",
    "type" : "float",
    "index" : false,
    "arraySize" : 1
  }, {
    "name" : "Duration",
    "type" : "uint",
    "index" : false,
    "arraySize" : 1
  }, {
    "name" : "StatScalingFactor",
    "type" : "float",
    "index" : false,
    "arraySize" : 1
  }, {
    "name" : "AllowableClass",
    "type" : "ushort",
    "index" : false,
    "arraySize" : 1
  }, {
    "name" : "ItemLevel",
    "type" : "ushort",
    "index" : false,
    "arraySize" : 1
  }, {
    "name" : "RequiredSkill",
    "type" : "ushort",
    "index" : false,
    "arraySize" : 1
  }, {
    "name" : "RequiredSkillRank",
    "type" : "ushort",
    "index" : false,
    "arraySize" : 1
  }, {
    "name" : "RequiredReputationFaction",
    "type" : "ushort",
    "index" : false,
    "arraySize" : 1
  }, {
    "name" : "ItemStatValue",
    "type" : "ushort",
    "index" : false,
    "arraySize" : 1
  }, {
    "name" : "ScalingStatDistribution",
    "type" : "ushort",
    "index" : false,
    "arraySize" : 1
  }, {
    "name" : "Delay",
    "type" : "ushort",
    "index" : false,
    "arraySize" : 1
  }, {
    "name" : "PageText",
    "type" : "ushort",
    "index" : false,
    "arraySize" : 1
  }, {
    "name" : "StartQuest",
    "type" : "ushort",
    "index" : false,
    "arraySize" : 1
  }, {
    "name" : "LockID",
    "type" : "ushort",
    "index" : false,
    "arraySize" : 1
  }, {
    "name" : "RandomProperty",
    "type" : "ushort",
    "index" : false,
    "arraySize" : 1
  }, {
    "name" : "RandomSuffix",
    "type" : "ushort",
    "index" : false,
    "arraySize" : 1
  }, {
    "name" : "ItemSet",
    "type" : "ushort",
    "index" : false,
    "arraySize" : 1
  }, {
    "name" : "Area",
    "type" : "ushort",
    "index" : false,
    "arraySize" : 1
  }, {
    "name" : "Map",
    "type" : "ushort",
    "index" : false,
    "arraySize" : 1
  }, {
    "name" : "TotemCategory",
    "type" : "ushort",
    "index" : false,
    "arraySize" : 1
  }, {
    "name" : "SocketBonus",
    "type" : "ushort",
    "index" : false,
    "arraySize" : 1
  }, {
    "name" : "GemProperties",
    "type" : "ushort",
    "index" : false,
    "arraySize" : 1
  }, {
    "name" : "ItemLimitCategory",
    "type" : "ushort",
    "index" : false,
    "arraySize" : 1
  }, {
    "name" : "HolidayID",
    "type" : "ushort",
    "index" : false,
    "arraySize" : 1
  }, {
    "name" : "RequiredTransmogHolidayID",
    "type" : "ushort",
    "index" : false,
    "arraySize" : 1
  }, {
    "name" : "ItemNameDescriptionID",
    "type" : "ushort",
    "index" : false,
    "arraySize" : 1
  }, {
    "name" : "Quality",
    "type" : "byte",
    "index" : false,
    "arraySize" : 1
  }, {
    "name" : "InventoryType",
    "type" : "byte",
    "index" : false,
    "arraySize" : 1
  }, {
    "name" : "RequiredLevel",
    "type" : "byte",
    "index" : false,
    "arraySize" : 1
  }, {
    "name" : "RequiredHonorRank",
    "type" : "byte",
    "index" : false,
    "arraySize" : 1
  }, {
    "name" : "RequiredCityRank",
    "type" : "byte",
    "index" : false,
    "arraySize" : 1
  }, {
    "name" : "RequiredReputationRank",
    "type" : "byte",
    "index" : false,
    "arraySize" : 1
  }, {
    "name" : "ContainerSlots",
    "type" : "byte",
    "index" : false,
    "arraySize" : 1
  }, {
    "name" : "ItemStatType",
    "type" : "byte",
    "index" : false,
    "arraySize" : 1
  }, {
    "name" : "DamageType",
    "type" : "byte",
    "index" : false,
    "arraySize" : 1
  }, {
    "name" : "Bonding",
    "type" : "byte",
    "index" : false,
    "arraySize" : 1
  }, {
    "name" : "LanguageID",
    "type" : "byte",
    "index" : false,
    "arraySize" : 1
  }, {
    "name" : "PageMaterial",
    "type" : "byte",
    "index" : false,
    "arraySize" : 1
  }, {
    "name" : "Material",
    "type" : "byte",
    "index" : false,
    "arraySize" : 1
  }, {
    "name" : "Sheath",
    "type" : "byte",
    "index" : false,
    "arraySize" : 1
  }, {
    "name" : "SocketColor",
    "type" : "byte",
    "index" : false,
    "arraySize" : 1
  }, {
    "name" : "CurrencySubstitutionID",
    "type" : "byte",
    "index" : false,
    "arraySize" : 1
  }, {
    "name" : "CurrencySubstitutionCount",
    "type" : "byte",
    "index" : false,
    "arraySize" : 1
  }, {
    "name" : "ArtifactID",
    "type" : "byte",
    "index" : false,
    "arraySize" : 1
  }, {
    "name" : "RequiredExpansion",
    "type" : "byte",
    "index" : false,
    "arraySize" : 1
  } ]
}