{
  "name" : "ItemDamageOneHand",
  "build" : 24492,
  "fields" : [ {
    "name" : "ID",
    "type" : "int",
    "index" : true,
    "arraySize" : 1
  }, {
    "name" : "DPS",
    "type" : "float",
    "index" : false,
    "arraySize" : 1
  }, {
    "name" : "ItemLevel",
    "type" : "ushort",
    "index" : false,
    "arraySize" : 1
  } ]
}