{
  "name" : "ItemDisplayInfo",
  "build" : 24793,
  "fields" : [ {
    "name" : "ID",
    "type" : "int",
    "index" : true,
    "arraySize" : 1
  }, {
    "name" : "Modelfiledata",
    "type" : "ushort",
    "index" : false,
    "arraySize" : 1
  }, {
    "name" : "Texturefiledata",
    "type" : "int",
    "index" : false,
    "arraySize" : 1
  }, {
    "name" : "Field0E",
    "type" : "byte",
    "index" : false,
    "arraySize" : 1
  }, {
    "name" : "Field11",
    "type" : "byte",
    "index" : false,
    "arraySize" : 1
  }, {
    "name" : "Field14",
    "type" : "int",
    "index" : false,
    "arraySize" : 1
  }, {
    "name" : "Field17",
    "type" : "byte",
    "index" : false,
    "arraySize" : 1
  }, {
    "name" : "GeosetFlag",
    "type" : "ushort",
    "index" : false,
    "arraySize" : 1
  }, {
    "name" : "GeosetFlag2",
    "type" : "ushort",
    "index" : false,
    "arraySize" : 1
  }, {
    "name" : "ItemVisualID",
    "type" : "ushort",
    "index" : false,
    "arraySize" : 1
  }, {
    "name" : "Field20",
    "type" : "ushort",
    "index" : false,
    "arraySize" : 1
  }, {
    "name" : "Field22",
    "type" : "byte",
    "index" : false,
    "arraySize" : 1
  }, {
    "name" : "Field23",
    "type" : "byte",
    "index" : false,
    "arraySize" : 1
  }, {
    "name" : "FlagLinkToBowItem",
    "type" : "int",
    "index" : false,
    "arraySize" : 1
  }, {
    "name" : "OtherFlagForBowItem?",
    "type" : "int",
    "index" : false,
    "arraySize" : 1
  }, {
    "name" : "ArtifactFlagFor?",
    "type" : "int",
    "index" : false,
    "arraySize" : 1
  } ]
}