{
  "name" : "ItemDisplayInfo",
  "build" : 23835,
  "fields" : [ {
    "name" : "ID",
    "type" : "int",
    "index" : true,
    "arraySize" : 1
  }, {
    "name" : "Field04",
    "type" : "ushort",
    "index" : false,
    "arraySize" : 1
  }, {
    "name" : "Field08",
    "type" : "int",
    "index" : false,
    "arraySize" : 1
  }, {
    "name" : "Field0E",
    "type" : "byte",
    "index" : false,
    "arraySize" : 1
  }, {
    "name" : "Field11",
    "type" : "byte",
    "index" : false,
    "arraySize" : 1
  }, {
    "name" : "Field14",
    "type" : "int",
    "index" : false,
    "arraySize" : 1
  }, {
    "name" : "Field17",
    "type" : "byte",
    "index" : false,
    "arraySize" : 1
  }, {
    "name" : "Field18",
    "type" : "ushort",
    "index" : false,
    "arraySize" : 1
  }, {
    "name" : "Field1C",
    "type" : "ushort",
    "index" : false,
    "arraySize" : 1
  }, {
    "name" : "Field1E",
    "type" : "ushort",
    "index" : false,
    "arraySize" : 1
  }, {
    "name" : "Field20",
    "type" : "ushort",
    "index" : false,
    "arraySize" : 1
  }, {
    "name" : "Field22",
    "type" : "byte",
    "index" : false,
    "arraySize" : 1
  }, {
    "name" : "Field23",
    "type" : "byte",
    "index" : false,
    "arraySize" : 1
  }, {
    "name" : "Field24",
    "type" : "int",
    "index" : false,
    "arraySize" : 1
  }, {
    "name" : "Field27",
    "type" : "int",
    "index" : false,
    "arraySize" : 1
  }, {
    "name" : "Field2A",
    "type" : "int",
    "index" : false,
    "arraySize" : 1
  } ]
}