{
  "name" : "ItemArmorTotal",
  "build" : 21742,
  "fields" : [ {
    "name" : "ID",
    "type" : "int",
    "index" : true,
    "arraySize" : 1
  }, {
    "name" : "ItemLevel",
    "type" : "int",
    "index" : false,
    "arraySize" : 1
  }, {
    "name" : "Cloth",
    "type" : "float",
    "index" : false,
    "arraySize" : 1
  }, {
    "name" : "Leather",
    "type" : "float",
    "index" : false,
    "arraySize" : 1
  }, {
    "name" : "Mail",
    "type" : "float",
    "index" : false,
    "arraySize" : 1
  }, {
    "name" : "Plate",
    "type" : "float",
    "index" : false,
    "arraySize" : 1
  } ]
}