{
  "name" : "Item-Sparse",
  "build" : 18414,
  "fields" : [ {
    "name" : "ID",
    "type" : "int",
    "index" : true,
    "arraySize" : 1
  }, {
    "name" : "Quality",
    "type" : "uint",
    "index" : false,
    "arraySize" : 1
  }, {
    "name" : "Flags",
    "type" : "uint",
    "index" : false,
    "arraySize" : 1
  }, {
    "name" : "Flags2",
    "type" : "uint",
    "index" : false,
    "arraySize" : 1
  }, {
    "name" : "Flags3",
    "type" : "uint",
    "index" : false,
    "arraySize" : 1
  }, {
    "name" : "Field05",
    "type" : "float",
    "index" : false,
    "arraySize" : 1
  }, {
    "name" : "Field06",
    "type" : "float",
    "index" : false,
    "arraySize" : 1
  }, {
    "name" : "BuyCount",
    "type" : "uint",
    "index" : false,
    "arraySize" : 1
  }, {
    "name" : "BuyPrice",
    "type" : "uint",
    "index" : false,
    "arraySize" : 1
  }, {
    "name" : "SellPrice",
    "type" : "uint",
    "index" : false,
    "arraySize" : 1
  }, {
    "name" : "InventoryType",
    "type" : "uint",
    "index" : false,
    "arraySize" : 1
  }, {
    "name" : "AllowableClass",
    "type" : "int",
    "index" : false,
    "arraySize" : 1
  }, {
    "name" : "AllowableRace",
    "type" : "int",
    "index" : false,
    "arraySize" : 1
  }, {
    "name" : "ItemLevel",
    "type" : "uint",
    "index" : false,
    "arraySize" : 1
  }, {
    "name" : "RequiredLevel",
    "type" : "int",
    "index" : false,
    "arraySize" : 1
  }, {
    "name" : "RequiredSkill",
    "type" : "uint",
    "index" : false,
    "arraySize" : 1
  }, {
    "name" : "RequiredSkillRank",
    "type" : "uint",
    "index" : false,
    "arraySize" : 1
  }, {
    "name" : "RequiredSpell",
    "type" : "uint",
    "index" : false,
    "arraySize" : 1
  }, {
    "name" : "RequiredHonorRank",
    "type" : "uint",
    "index" : false,
    "arraySize" : 1
  }, {
    "name" : "RequiredCityRank",
    "type" : "uint",
    "index" : false,
    "arraySize" : 1
  }, {
    "name" : "RequiredReputationFaction",
    "type" : "uint",
    "index" : false,
    "arraySize" : 1
  }, {
    "name" : "RequiredReputationRank",
    "type" : "uint",
    "index" : false,
    "arraySize" : 1
  }, {
    "name" : "MaxCount",
    "type" : "uint",
    "index" : false,
    "arraySize" : 1
  }, {
    "name" : "Stackable",
    "type" : "uint",
    "index" : false,
    "arraySize" : 1
  }, {
    "name" : "ContainerSlots",
    "type" : "uint",
    "index" : false,
    "arraySize" : 1
  }, {
    "name" : "ItemStatType",
    "type" : "int",
    "index" : false,
    "arraySize" : 1
  }, {
    "name" : "ItemStatValue",
    "type" : "uint",
    "index" : false,
    "arraySize" : 1
  }, {
    "name" : "ItemStatUnk1",
    "type" : "int",
    "index" : false,
    "arraySize" : 1
  }, {
    "name" : "ItemStatUnk2",
    "type" : "int",
    "index" : false,
    "arraySize" : 1
  }, {
    "name" : "ScalingStatDistribution",
    "type" : "uint",
    "index" : false,
    "arraySize" : 1
  }, {
    "name" : "DamageType",
    "type" : "uint",
    "index" : false,
    "arraySize" : 1
  }, {
    "name" : "Delay",
    "type" : "uint",
    "index" : false,
    "arraySize" : 1
  }, {
    "name" : "RangedModRange",
    "type" : "float",
    "index" : false,
    "arraySize" : 1
  }, {
    "name" : "SpellId",
    "type" : "int",
    "index" : false,
    "arraySize" : 1
  }, {
    "name" : "SpellTrigger",
    "type" : "int",
    "index" : false,
    "arraySize" : 1
  }, {
    "name" : "SpellCharges",
    "type" : "int",
    "index" : false,
    "arraySize" : 1
  }, {
    "name" : "SpellCooldown",
    "type" : "int",
    "index" : false,
    "arraySize" : 1
  }, {
    "name" : "SpellCategory",
    "type" : "int",
    "index" : false,
    "arraySize" : 1
  }, {
    "name" : "SpellCategoryCooldown",
    "type" : "int",
    "index" : false,
    "arraySize" : 1
  }, {
    "name" : "Bonding",
    "type" : "uint",
    "index" : false,
    "arraySize" : 1
  }, {
    "name" : "Name",
    "type" : "string",
    "index" : false,
    "arraySize" : 1
  }, {
    "name" : "Name2",
    "type" : "string",
    "index" : false,
    "arraySize" : 1
  }, {
    "name" : "Name3",
    "type" : "string",
    "index" : false,
    "arraySize" : 1
  }, {
    "name" : "Name4",
    "type" : "string",
    "index" : false,
    "arraySize" : 1
  }, {
    "name" : "Description",
    "type" : "string",
    "index" : false,
    "arraySize" : 1
  }, {
    "name" : "PageText",
    "type" : "uint",
    "index" : false,
    "arraySize" : 1
  }, {
    "name" : "LanguageID",
    "type" : "uint",
    "index" : false,
    "arraySize" : 1
  }, {
    "name" : "PageMaterial",
    "type" : "uint",
    "index" : false,
    "arraySize" : 1
  }, {
    "name" : "StartQuest",
    "type" : "uint",
    "index" : false,
    "arraySize" : 1
  }, {
    "name" : "LockID",
    "type" : "uint",
    "index" : false,
    "arraySize" : 1
  }, {
    "name" : "Material",
    "type" : "int",
    "index" : false,
    "arraySize" : 1
  }, {
    "name" : "Sheath",
    "type" : "uint",
    "index" : false,
    "arraySize" : 1
  }, {
    "name" : "RandomProperty",
    "type" : "uint",
    "index" : false,
    "arraySize" : 1
  }, {
    "name" : "RandomSuffix",
    "type" : "uint",
    "index" : false,
    "arraySize" : 1
  }, {
    "name" : "ItemSet",
    "type" : "uint",
    "index" : false,
    "arraySize" : 1
  }, {
    "name" : "Area",
    "type" : "uint",
    "index" : false,
    "arraySize" : 1
  }, {
    "name" : "Map",
    "type" : "uint",
    "index" : false,
    "arraySize" : 1
  }, {
    "name" : "BagFamily",
    "type" : "uint",
    "index" : false,
    "arraySize" : 1
  }, {
    "name" : "TotemCategory",
    "type" : "uint",
    "index" : false,
    "arraySize" : 1
  }, {
    "name" : "Color",
    "type" : "uint",
    "index" : false,
    "arraySize" : 1
  }, {
    "name" : "Content",
    "type" : "uint",
    "index" : false,
    "arraySize" : 1
  }, {
    "name" : "SocketBonus",
    "type" : "int",
    "index" : false,
    "arraySize" : 1
  }, {
    "name" : "GemProperties",
    "type" : "uint",
    "index" : false,
    "arraySize" : 1
  }, {
    "name" : "ArmorDamageModifier",
    "type" : "float",
    "index" : false,
    "arraySize" : 1
  }, {
    "name" : "Duration",
    "type" : "uint",
    "index" : false,
    "arraySize" : 1
  }, {
    "name" : "ItemLimitCategory",
    "type" : "uint",
    "index" : false,
    "arraySize" : 1
  }, {
    "name" : "HolidayId",
    "type" : "uint",
    "index" : false,
    "arraySize" : 1
  }, {
    "name" : "StatScalingFactor",
    "type" : "float",
    "index" : false,
    "arraySize" : 1
  }, {
    "name" : "CurrencySubstitutionId",
    "type" : "int",
    "index" : false,
    "arraySize" : 1
  }, {
    "name" : "CurrencySubstitutionCount",
    "type" : "int",
    "index" : false,
    "arraySize" : 1
  } ]
}