{
  "name" : "ItemPriceBase",
  "build" : 23835,
  "fields" : [ {
    "name" : "ID",
    "type" : "int",
    "index" : true,
    "arraySize" : 1
  }, {
    "name" : "ArmorFactor",
    "type" : "float",
    "index" : false,
    "arraySize" : 1
  }, {
    "name" : "WeaponFactor",
    "type" : "float",
    "index" : false,
    "arraySize" : 1
  }, {
    "name" : "ItemLevel",
    "type" : "ushort",
    "index" : false,
    "arraySize" : 1
  } ]
}