{
  "name" : "JournalInstance",
  "build" : 18414,
  "fields" : [ {
    "name" : "ID",
    "type" : "int",
    "index" : true,
    "arraySize" : 1
  }, {
    "name" : "MapId",
    "type" : "int",
    "index" : false,
    "arraySize" : 1
  }, {
    "name" : "AreaId",
    "type" : "int",
    "index" : false,
    "arraySize" : 1
  }, {
    "name" : "Field03",
    "type" : "int",
    "index" : false,
    "arraySize" : 1
  }, {
    "name" : "Field04",
    "type" : "int",
    "index" : false,
    "arraySize" : 1
  }, {
    "name" : "Field05",
    "type" : "int",
    "index" : false,
    "arraySize" : 1
  }, {
    "name" : "Name",
    "type" : "string",
    "index" : false,
    "arraySize" : 1
  }, {
    "name" : "Description",
    "type" : "string",
    "index" : false,
    "arraySize" : 1
  } ]
}