{
  "name" : "JournalEncounter",
  "build" : 23835,
  "fields" : [ {
    "name" : "ID",
    "type" : "int",
    "index" : true,
    "arraySize" : 1
  }, {
    "name" : "Field04",
    "type" : "float",
    "index" : false,
    "arraySize" : 1
  }, {
    "name" : "Field0C",
    "type" : "string",
    "index" : false,
    "arraySize" : 1
  }, {
    "name" : "Field10",
    "type" : "string",
    "index" : false,
    "arraySize" : 1
  }, {
    "name" : "Field14",
    "type" : "ushort",
    "index" : false,
    "arraySize" : 1
  }, {
    "name" : "Field16",
    "type" : "ushort",
    "index" : false,
    "arraySize" : 1
  }, {
    "name" : "Field18",
    "type" : "ushort",
    "index" : false,
    "arraySize" : 1
  }, {
    "name" : "Field1A",
    "type" : "ushort",
    "index" : false,
    "arraySize" : 1
  }, {
    "name" : "Field1C",
    "type" : "byte",
    "index" : false,
    "arraySize" : 1
  }, {
    "name" : "Field1D",
    "type" : "byte",
    "index" : false,
    "arraySize" : 1
  }, {
    "name" : "Field1E",
    "type" : "byte",
    "index" : false,
    "arraySize" : 1
  }, {
    "name" : "Field1F",
    "type" : "byte",
    "index" : false,
    "arraySize" : 1
  } ]
}