{
  "name" : "JournalTierXInstance",
  "build" : 21742,
  "fields" : [ {
    "name" : "ID",
    "type" : "int",
    "index" : true,
    "arraySize" : 1
  }, {
    "name" : "JournalInstanceID",
    "type" : "int",
    "index" : false,
    "arraySize" : 1
  } ]
}