{
  "name" : "JournalInstance",
  "build" : 21742,
  "fields" : [ {
    "name" : "ID",
    "type" : "int",
    "index" : true,
    "arraySize" : 1
  }, {
    "name" : "MapID",
    "type" : "int",
    "index" : false,
    "arraySize" : 1
  }, {
    "name" : "AreaID",
    "type" : "int",
    "index" : false,
    "arraySize" : 1
  }, {
    "name" : "ButtonFiledataID",
    "type" : "int",
    "index" : false,
    "arraySize" : 1
  }, {
    "name" : "ButtonSmallFileDataID",
    "type" : "int",
    "index" : false,
    "arraySize" : 1
  }, {
    "name" : "BackgroundFiledataID",
    "type" : "int",
    "index" : false,
    "arraySize" : 1
  }, {
    "name" : "LoreFileDataID",
    "type" : "int",
    "index" : false,
    "arraySize" : 1
  }, {
    "name" : "Field07",
    "type" : "int",
    "index" : false,
    "arraySize" : 1
  }, {
    "name" : "Name_Lang",
    "type" : "string",
    "index" : false,
    "arraySize" : 1
  }, {
    "name" : "Description_Lang",
    "type" : "string",
    "index" : false,
    "arraySize" : 1
  } ]
}