{
  "name" : "JournalEncounter",
  "build" : 15595,
  "fields" : [ {
    "name" : "ID",
    "type" : "int",
    "index" : true,
    "arraySize" : 1
  }, {
    "name" : "DungeonMapId",
    "type" : "int",
    "index" : false,
    "arraySize" : 1
  }, {
    "name" : "Field02",
    "type" : "int",
    "index" : false,
    "arraySize" : 1
  }, {
    "name" : "Field03",
    "type" : "float",
    "index" : false,
    "arraySize" : 1
  }, {
    "name" : "Field04",
    "type" : "float",
    "index" : false,
    "arraySize" : 1
  }, {
    "name" : "SectionId",
    "type" : "int",
    "index" : false,
    "arraySize" : 1
  }, {
    "name" : "InstanceId",
    "type" : "int",
    "index" : false,
    "arraySize" : 1
  }, {
    "name" : "Index",
    "type" : "int",
    "index" : false,
    "arraySize" : 1
  }, {
    "name" : "Field08",
    "type" : "int",
    "index" : false,
    "arraySize" : 1
  }, {
    "name" : "Name",
    "type" : "string",
    "index" : false,
    "arraySize" : 1
  }, {
    "name" : "Description",
    "type" : "string",
    "index" : false,
    "arraySize" : 1
  } ]
}