{
  "name" : "Languages",
  "build" : 8606,
  "fields" : [ {
    "name" : "ID",
    "type" : "int",
    "index" : true,
    "arraySize" : 1
  }, {
    "name" : "Name",
    "type" : "loc",
    "index" : false,
    "arraySize" : 1
  } ]
}