{
  "name" : "LfgDungeonGroup",
  "build" : 22248,
  "fields" : [ {
    "name" : "ID",
    "type" : "int",
    "index" : true,
    "arraySize" : 1
  }, {
    "name" : "Field00",
    "type" : "string",
    "index" : false,
    "arraySize" : 1
  }, {
    "name" : "Field04",
    "type" : "ushort",
    "index" : false,
    "arraySize" : 1
  }, {
    "name" : "Field06",
    "type" : "byte",
    "index" : false,
    "arraySize" : 1
  }, {
    "name" : "Field07",
    "type" : "byte",
    "index" : false,
    "arraySize" : 1
  } ]
}