{
  "name" : "LfgDungeons",
  "build" : 21742,
  "fields" : [ {
    "name" : "ID",
    "type" : "int",
    "index" : true,
    "arraySize" : 1
  }, {
    "name" : "Name_Lang",
    "type" : "string",
    "index" : false,
    "arraySize" : 1
  }, {
    "name" : "MinLevel",
    "type" : "int",
    "index" : false,
    "arraySize" : 1
  }, {
    "name" : "MaxLevel",
    "type" : "int",
    "index" : false,
    "arraySize" : 1
  }, {
    "name" : "Target_Level",
    "type" : "int",
    "index" : false,
    "arraySize" : 1
  }, {
    "name" : "Target_Level_Min",
    "type" : "int",
    "index" : false,
    "arraySize" : 1
  }, {
    "name" : "Target_Level_Max",
    "type" : "int",
    "index" : false,
    "arraySize" : 1
  }, {
    "name" : "MapID",
    "type" : "int",
    "index" : false,
    "arraySize" : 1
  }, {
    "name" : "DifficultyID",
    "type" : "int",
    "index" : false,
    "arraySize" : 1
  }, {
    "name" : "Flags",
    "type" : "int",
    "index" : false,
    "arraySize" : 1
  }, {
    "name" : "TypeID",
    "type" : "int",
    "index" : false,
    "arraySize" : 1
  }, {
    "name" : "Faction",
    "type" : "int",
    "index" : false,
    "arraySize" : 1
  }, {
    "name" : "TextureFileName",
    "type" : "string",
    "index" : false,
    "arraySize" : 1
  }, {
    "name" : "ExpansionLevel",
    "type" : "int",
    "index" : false,
    "arraySize" : 1
  }, {
    "name" : "Order_Index",
    "type" : "int",
    "index" : false,
    "arraySize" : 1
  }, {
    "name" : "Group_Id",
    "type" : "int",
    "index" : false,
    "arraySize" : 1
  }, {
    "name" : "Description_Lang",
    "type" : "string",
    "index" : false,
    "arraySize" : 1
  }, {
    "name" : "Random_Id",
    "type" : "int",
    "index" : false,
    "arraySize" : 1
  }, {
    "name" : "Count_Tank",
    "type" : "int",
    "index" : false,
    "arraySize" : 1
  }, {
    "name" : "Count_Healer",
    "type" : "int",
    "index" : false,
    "arraySize" : 1
  }, {
    "name" : "Count_Damage",
    "type" : "int",
    "index" : false,
    "arraySize" : 1
  }, {
    "name" : "Min_Count_Tank",
    "type" : "int",
    "index" : false,
    "arraySize" : 1
  }, {
    "name" : "Min_Count_Healer",
    "type" : "int",
    "index" : false,
    "arraySize" : 1
  }, {
    "name" : "Min_Count_Damage",
    "type" : "int",
    "index" : false,
    "arraySize" : 1
  }, {
    "name" : "ScenarioID",
    "type" : "int",
    "index" : false,
    "arraySize" : 1
  }, {
    "name" : "SubType",
    "type" : "int",
    "index" : false,
    "arraySize" : 1
  }, {
    "name" : "Bonus_Reputation_Amount",
    "type" : "int",
    "index" : false,
    "arraySize" : 1
  }, {
    "name" : "MentorCharLevel",
    "type" : "int",
    "index" : false,
    "arraySize" : 1
  }, {
    "name" : "MentorItemLevel",
    "type" : "int",
    "index" : false,
    "arraySize" : 1
  } ]
}