{
  "name" : "LFGDungeons",
  "build" : 25632,
  "fields" : [ {
    "name" : "ID",
    "type" : "int",
    "index" : true,
    "arraySize" : 1
  }, {
    "name" : "Name",
    "type" : "string",
    "index" : false,
    "arraySize" : 1
  }, {
    "name" : "Description",
    "type" : "string",
    "index" : false,
    "arraySize" : 1
  }, {
    "name" : "Flags",
    "type" : "uint",
    "index" : false,
    "arraySize" : 1
  }, {
    "name" : "MinItemLevel",
    "type" : "float",
    "index" : false,
    "arraySize" : 1
  }, {
    "name" : "MaxLevel",
    "type" : "ushort",
    "index" : false,
    "arraySize" : 1
  }, {
    "name" : "TargetLevelMax",
    "type" : "ushort",
    "index" : false,
    "arraySize" : 1
  }, {
    "name" : "MapID",
    "type" : "ushort",
    "index" : false,
    "arraySize" : 1
  }, {
    "name" : "RandomID",
    "type" : "ushort",
    "index" : false,
    "arraySize" : 1
  }, {
    "name" : "ScenarioID",
    "type" : "ushort",
    "index" : false,
    "arraySize" : 1
  }, {
    "name" : "LastBossJournalEncounterID",
    "type" : "ushort",
    "index" : false,
    "arraySize" : 1
  }, {
    "name" : "BonusReputationAmount",
    "type" : "ushort",
    "index" : false,
    "arraySize" : 1
  }, {
    "name" : "MentorItemLevel",
    "type" : "ushort",
    "index" : false,
    "arraySize" : 1
  }, {
    "name" : "PlayerConditionID",
    "type" : "ushort",
    "index" : false,
    "arraySize" : 1
  }, {
    "name" : "MinLevel",
    "type" : "byte",
    "index" : false,
    "arraySize" : 1
  }, {
    "name" : "TargetLevel",
    "type" : "byte",
    "index" : false,
    "arraySize" : 1
  }, {
    "name" : "TargetLevelMin",
    "type" : "byte",
    "index" : false,
    "arraySize" : 1
  }, {
    "name" : "DifficultyID",
    "type" : "byte",
    "index" : false,
    "arraySize" : 1
  }, {
    "name" : "Type",
    "type" : "byte",
    "index" : false,
    "arraySize" : 1
  }, {
    "name" : "Faction",
    "type" : "byte",
    "index" : false,
    "arraySize" : 1
  }, {
    "name" : "Expansion",
    "type" : "byte",
    "index" : false,
    "arraySize" : 1
  }, {
    "name" : "OrderIndex",
    "type" : "byte",
    "index" : false,
    "arraySize" : 1
  }, {
    "name" : "GroupID",
    "type" : "byte",
    "index" : false,
    "arraySize" : 1
  }, {
    "name" : "CountTank",
    "type" : "byte",
    "index" : false,
    "arraySize" : 1
  }, {
    "name" : "CountHealer",
    "type" : "byte",
    "index" : false,
    "arraySize" : 1
  }, {
    "name" : "CountDamage",
    "type" : "byte",
    "index" : false,
    "arraySize" : 1
  }, {
    "name" : "MinCountTank",
    "type" : "byte",
    "index" : false,
    "arraySize" : 1
  }, {
    "name" : "MinCountHealer",
    "type" : "byte",
    "index" : false,
    "arraySize" : 1
  }, {
    "name" : "MinCountDamage",
    "type" : "byte",
    "index" : false,
    "arraySize" : 1
  }, {
    "name" : "SubType",
    "type" : "byte",
    "index" : false,
    "arraySize" : 1
  }, {
    "name" : "MentorCharLevel",
    "type" : "byte",
    "index" : false,
    "arraySize" : 1
  }, {
    "name" : "TextureFileDataID",
    "type" : "int",
    "index" : false,
    "arraySize" : 1
  }, {
    "name" : "RewardIconFileDataID",
    "type" : "int",
    "index" : false,
    "arraySize" : 1
  }, {
    "name" : "ProposalTextureFileDataID",
    "type" : "int",
    "index" : false,
    "arraySize" : 1
  } ]
}