{
  "name" : "LfgDungeonGroup",
  "build" : 26231,
  "fields" : [ {
    "name" : "ID",
    "type" : "int",
    "index" : true,
    "arraySize" : 1
  }, {
    "name" : "Name",
    "type" : "string",
    "index" : false,
    "arraySize" : 1
  }, {
    "name" : "OrderIndex",
    "type" : "ushort",
    "index" : false,
    "arraySize" : 1
  }, {
    "name" : "ParentGroupId",
    "type" : "byte",
    "index" : false,
    "arraySize" : 1
  }, {
    "name" : "Typeid",
    "type" : "byte",
    "index" : false,
    "arraySize" : 1
  } ]
}