{
  "name" : "LightData",
  "build" : 24492,
  "fields" : [ {
    "name" : "ID",
    "type" : "int",
    "index" : true,
    "arraySize" : 1
  }, {
    "name" : "Field004",
    "type" : "int",
    "index" : false,
    "arraySize" : 1
  }, {
    "name" : "Field008",
    "type" : "int",
    "index" : false,
    "arraySize" : 1
  }, {
    "name" : "Field00C",
    "type" : "int",
    "index" : false,
    "arraySize" : 1
  }, {
    "name" : "Field010",
    "type" : "int",
    "index" : false,
    "arraySize" : 1
  }, {
    "name" : "Field014",
    "type" : "int",
    "index" : false,
    "arraySize" : 1
  }, {
    "name" : "Field018",
    "type" : "int",
    "index" : false,
    "arraySize" : 1
  }, {
    "name" : "Field01C",
    "type" : "int",
    "index" : false,
    "arraySize" : 1
  }, {
    "name" : "Field020",
    "type" : "int",
    "index" : false,
    "arraySize" : 1
  }, {
    "name" : "Field024",
    "type" : "int",
    "index" : false,
    "arraySize" : 1
  }, {
    "name" : "Field028",
    "type" : "int",
    "index" : false,
    "arraySize" : 1
  }, {
    "name" : "Field02C",
    "type" : "int",
    "index" : false,
    "arraySize" : 1
  }, {
    "name" : "Field030",
    "type" : "int",
    "index" : false,
    "arraySize" : 1
  }, {
    "name" : "Field034",
    "type" : "int",
    "index" : false,
    "arraySize" : 1
  }, {
    "name" : "Field038",
    "type" : "int",
    "index" : false,
    "arraySize" : 1
  }, {
    "name" : "Field03C",
    "type" : "int",
    "index" : false,
    "arraySize" : 1
  }, {
    "name" : "Field040",
    "type" : "int",
    "index" : false,
    "arraySize" : 1
  }, {
    "name" : "Field044",
    "type" : "int",
    "index" : false,
    "arraySize" : 1
  }, {
    "name" : "Field048",
    "type" : "int",
    "index" : false,
    "arraySize" : 1
  }, {
    "name" : "Field04C",
    "type" : "uint",
    "index" : false,
    "arraySize" : 1
  }, {
    "name" : "Field050",
    "type" : "int",
    "index" : false,
    "arraySize" : 1
  }, {
    "name" : "Field054",
    "type" : "float",
    "index" : false,
    "arraySize" : 1
  }, {
    "name" : "Field058",
    "type" : "float",
    "index" : false,
    "arraySize" : 1
  }, {
    "name" : "Field05C",
    "type" : "int",
    "index" : false,
    "arraySize" : 1
  }, {
    "name" : "Field060",
    "type" : "float",
    "index" : false,
    "arraySize" : 1
  }, {
    "name" : "Field064",
    "type" : "float",
    "index" : false,
    "arraySize" : 1
  }, {
    "name" : "Field068",
    "type" : "float",
    "index" : false,
    "arraySize" : 1
  }, {
    "name" : "Field06C",
    "type" : "float",
    "index" : false,
    "arraySize" : 1
  }, {
    "name" : "Field070",
    "type" : "uint",
    "index" : false,
    "arraySize" : 1
  }, {
    "name" : "Field074",
    "type" : "uint",
    "index" : false,
    "arraySize" : 1
  }, {
    "name" : "Field078",
    "type" : "uint",
    "index" : false,
    "arraySize" : 1
  }, {
    "name" : "Field07C",
    "type" : "uint",
    "index" : false,
    "arraySize" : 1
  }, {
    "name" : "Field080",
    "type" : "uint",
    "index" : false,
    "arraySize" : 1
  }, {
    "name" : "Field084",
    "type" : "uint",
    "index" : false,
    "arraySize" : 1
  }, {
    "name" : "Field088",
    "type" : "ushort",
    "index" : false,
    "arraySize" : 1
  }, {
    "name" : "Field08A",
    "type" : "ushort",
    "index" : false,
    "arraySize" : 1
  } ]
}