{
  "name" : "LightintBand",
  "build" : 12340,
  "fields" : [ {
    "name" : "ID",
    "type" : "int",
    "index" : true,
    "arraySize" : 1
  }, {
    "name" : "Num",
    "type" : "int",
    "index" : false,
    "arraySize" : 1
  }, {
    "name" : "Time",
    "type" : "int",
    "index" : false,
    "arraySize" : 1
  }, {
    "name" : "Data",
    "type" : "int",
    "index" : false,
    "arraySize" : 1
  } ]
}