{
  "name" : "Light",
  "build" : 25632,
  "fields" : [ {
    "name" : "ID",
    "type" : "int",
    "index" : true,
    "arraySize" : 1
  }, {
    "name" : "Pos",
    "type" : "float",
    "index" : false,
    "arraySize" : 1
  }, {
    "name" : "FalloffStart",
    "type" : "float",
    "index" : false,
    "arraySize" : 1
  }, {
    "name" : "FalloffEnd",
    "type" : "float",
    "index" : false,
    "arraySize" : 1
  }, {
    "name" : "MapID",
    "type" : "ushort",
    "index" : false,
    "arraySize" : 1
  }, {
    "name" : "LightParamsID",
    "type" : "ushort",
    "index" : false,
    "arraySize" : 1
  } ]
}