{
  "name" : "Light",
  "build" : 21742,
  "fields" : [ {
    "name" : "ID",
    "type" : "int",
    "index" : true,
    "arraySize" : 1
  }, {
    "name" : "ContinentID",
    "type" : "int",
    "index" : false,
    "arraySize" : 1
  }, {
    "name" : "X",
    "type" : "float",
    "index" : false,
    "arraySize" : 1
  }, {
    "name" : "Y",
    "type" : "float",
    "index" : false,
    "arraySize" : 1
  }, {
    "name" : "Z",
    "type" : "float",
    "index" : false,
    "arraySize" : 1
  }, {
    "name" : "FalloffStart",
    "type" : "float",
    "index" : false,
    "arraySize" : 1
  }, {
    "name" : "FalloffEnd",
    "type" : "float",
    "index" : false,
    "arraySize" : 1
  }, {
    "name" : "LightParamsID",
    "type" : "int",
    "index" : false,
    "arraySize" : 1
  } ]
}