{
  "name" : "LiquidType",
  "build" : 22248,
  "fields" : [ {
    "name" : "ID",
    "type" : "int",
    "index" : true,
    "arraySize" : 1
  }, {
    "name" : "Field00",
    "type" : "string",
    "index" : false,
    "arraySize" : 1
  }, {
    "name" : "Field04",
    "type" : "int",
    "index" : false,
    "arraySize" : 1
  }, {
    "name" : "Field08",
    "type" : "float",
    "index" : false,
    "arraySize" : 1
  }, {
    "name" : "Field0C",
    "type" : "float",
    "index" : false,
    "arraySize" : 1
  }, {
    "name" : "Field10",
    "type" : "float",
    "index" : false,
    "arraySize" : 1
  }, {
    "name" : "Field14",
    "type" : "float",
    "index" : false,
    "arraySize" : 1
  }, {
    "name" : "Field18",
    "type" : "float",
    "index" : false,
    "arraySize" : 1
  }, {
    "name" : "Field1C",
    "type" : "string",
    "index" : false,
    "arraySize" : 1
  }, {
    "name" : "Field34",
    "type" : "int",
    "index" : false,
    "arraySize" : 1
  }, {
    "name" : "Field3C",
    "type" : "float",
    "index" : false,
    "arraySize" : 1
  }, {
    "name" : "Field84",
    "type" : "int",
    "index" : false,
    "arraySize" : 1
  }, {
    "name" : "Field94",
    "type" : "ushort",
    "index" : false,
    "arraySize" : 1
  }, {
    "name" : "Field96",
    "type" : "ushort",
    "index" : false,
    "arraySize" : 1
  }, {
    "name" : "Field98",
    "type" : "byte",
    "index" : false,
    "arraySize" : 1
  }, {
    "name" : "Field99",
    "type" : "byte",
    "index" : false,
    "arraySize" : 1
  }, {
    "name" : "Field9A",
    "type" : "byte",
    "index" : false,
    "arraySize" : 1
  }, {
    "name" : "Field9B",
    "type" : "byte",
    "index" : false,
    "arraySize" : 1
  }, {
    "name" : "Field9C",
    "type" : "byte",
    "index" : false,
    "arraySize" : 1
  }, {
    "name" : "FieldA2",
    "type" : "int",
    "index" : false,
    "arraySize" : 1
  } ]
}