{
  "name" : "LiquidObject",
  "build" : 26231,
  "fields" : [ {
    "name" : "ID",
    "type" : "int",
    "index" : true,
    "arraySize" : 1
  }, {
    "name" : "FlowDirection",
    "type" : "float",
    "index" : false,
    "arraySize" : 1
  }, {
    "name" : "FlowSpeed",
    "type" : "float",
    "index" : false,
    "arraySize" : 1
  }, {
    "name" : "LiquidTypeId",
    "type" : "ushort",
    "index" : false,
    "arraySize" : 1
  }, {
    "name" : "Fishable",
    "type" : "byte",
    "index" : false,
    "arraySize" : 1
  }, {
    "name" : "Reflection",
    "type" : "byte",
    "index" : false,
    "arraySize" : 1
  } ]
}