{
  "name" : "LoadingScreenTaxiSplines",
  "build" : 21742,
  "fields" : [ {
    "name" : "ID",
    "type" : "int",
    "index" : true,
    "arraySize" : 1
  }, {
    "name" : "PathID",
    "type" : "int",
    "index" : false,
    "arraySize" : 1
  }, {
    "name" : "Locx",
    "type" : "float",
    "index" : false,
    "arraySize" : 1
  }, {
    "name" : "Locy",
    "type" : "float",
    "index" : false,
    "arraySize" : 1
  }, {
    "name" : "LegIndex",
    "type" : "int",
    "index" : false,
    "arraySize" : 1
  }, {
    "name" : "LoadingScreenID",
    "type" : "int",
    "index" : false,
    "arraySize" : 1
  } ]
}