{
  "name" : "LockType",
  "build" : 3368,
  "fields" : [ {
    "name" : "ID",
    "type" : "int",
    "index" : true,
    "arraySize" : 1
  }, {
    "name" : "Name",
    "type" : "loc",
    "index" : false,
    "arraySize" : 1
  }, {
    "name" : "ResourceName",
    "type" : "loc",
    "index" : false,
    "arraySize" : 1
  }, {
    "name" : "Verb",
    "type" : "loc",
    "index" : false,
    "arraySize" : 1
  } ]
}