{
  "name" : "Lock",
  "build" : 8606,
  "fields" : [ {
    "name" : "ID",
    "type" : "int",
    "index" : true,
    "arraySize" : 1
  }, {
    "name" : "Type",
    "type" : "int",
    "index" : false,
    "arraySize" : 1
  }, {
    "name" : "Index",
    "type" : "int",
    "index" : false,
    "arraySize" : 1
  }, {
    "name" : "Skill",
    "type" : "int",
    "index" : false,
    "arraySize" : 1
  }, {
    "name" : "Action",
    "type" : "int",
    "index" : false,
    "arraySize" : 1
  } ]
}