{
  "name" : "LookAtController",
  "build" : 22578,
  "fields" : [ {
    "name" : "ID",
    "type" : "int",
    "index" : true,
    "arraySize" : 1
  }, {
    "name" : "Field00",
    "type" : "float",
    "index" : false,
    "arraySize" : 1
  }, {
    "name" : "Field04",
    "type" : "float",
    "index" : false,
    "arraySize" : 1
  }, {
    "name" : "Field08",
    "type" : "float",
    "index" : false,
    "arraySize" : 1
  }, {
    "name" : "Field0C",
    "type" : "float",
    "index" : false,
    "arraySize" : 1
  }, {
    "name" : "Field10",
    "type" : "ushort",
    "index" : false,
    "arraySize" : 1
  }, {
    "name" : "Field12",
    "type" : "ushort",
    "index" : false,
    "arraySize" : 1
  }, {
    "name" : "Field14",
    "type" : "ushort",
    "index" : false,
    "arraySize" : 1
  }, {
    "name" : "Field16",
    "type" : "ushort",
    "index" : false,
    "arraySize" : 1
  }, {
    "name" : "Field18",
    "type" : "byte",
    "index" : false,
    "arraySize" : 1
  }, {
    "name" : "Field19",
    "type" : "byte",
    "index" : false,
    "arraySize" : 1
  }, {
    "name" : "Field1A",
    "type" : "byte",
    "index" : false,
    "arraySize" : 1
  }, {
    "name" : "Field1B",
    "type" : "byte",
    "index" : false,
    "arraySize" : 1
  }, {
    "name" : "Field1C",
    "type" : "byte",
    "index" : false,
    "arraySize" : 1
  }, {
    "name" : "Field1D",
    "type" : "int",
    "index" : false,
    "arraySize" : 1
  }, {
    "name" : "Field21",
    "type" : "int",
    "index" : false,
    "arraySize" : 1
  }, {
    "name" : "Field25",
    "type" : "int",
    "index" : false,
    "arraySize" : 1
  }, {
    "name" : "Field29",
    "type" : "int",
    "index" : false,
    "arraySize" : 1
  }, {
    "name" : "Field2D",
    "type" : "int",
    "index" : false,
    "arraySize" : 1
  } ]
}