{
  "name" : "ManagedWorldState",
  "build" : 24492,
  "fields" : [ {
    "name" : "ID",
    "type" : "int",
    "index" : true,
    "arraySize" : 1
  }, {
    "name" : "Field04",
    "type" : "int",
    "index" : false,
    "arraySize" : 1
  }, {
    "name" : "Field08",
    "type" : "int",
    "index" : false,
    "arraySize" : 1
  }, {
    "name" : "Field0C",
    "type" : "int",
    "index" : false,
    "arraySize" : 1
  }, {
    "name" : "Field10",
    "type" : "int",
    "index" : false,
    "arraySize" : 1
  }, {
    "name" : "Field14",
    "type" : "int",
    "index" : false,
    "arraySize" : 1
  }, {
    "name" : "Field18",
    "type" : "int",
    "index" : false,
    "arraySize" : 1
  }, {
    "name" : "Field1C",
    "type" : "int",
    "index" : false,
    "arraySize" : 1
  }, {
    "name" : "Field20",
    "type" : "int",
    "index" : false,
    "arraySize" : 1
  } ]
}