{
  "name" : "ManagedWorldStateBuff",
  "build" : 26231,
  "fields" : [ {
    "name" : "ID",
    "type" : "int",
    "index" : true,
    "arraySize" : 1
  }, {
    "name" : "OccurrenceValue",
    "type" : "int",
    "index" : false,
    "arraySize" : 1
  }, {
    "name" : "BuffSpellId",
    "type" : "int",
    "index" : false,
    "arraySize" : 1
  }, {
    "name" : "PlayerConditionId",
    "type" : "int",
    "index" : false,
    "arraySize" : 1
  } ]
}