{
  "fields": [
    {
      "name": "ID",
      "type": "int",
      "index": "true"
    },
    {
      "name": "diretory",
      "type": "string"
    },
    {
      "name": "Flags",
      "type": "uint",
      "arraySize": "2"
    },
    {
      "name": "MinimapIconScale",
      "type": "float"
    },
    {
      "name": "Corpse",
      "type": "float",
      "arraySize": "2"
    },
    {
      "name": "mapName",
      "type": "string"
    },
    {
      "name": "MapDescLocale_1",
      "type": "string"
    },
    {
      "name": "MapDescLocale_2",
      "type": "string"
    },
    {
      "name": "ShortDescription",
      "type": "string"
    },
    {
      "name": "LongDescription",
      "type": "string"
    },
    {
      "name": "AreaTableID",
      "type": "ushort"
    },
    {
      "name": "loadingScreenId",
      "type": "ushort"
    },
    {
      "name": "CorpseMapID",
      "type": "short"
    },
    {
      "name": "TimeOfDayOverride",
      "type": "ushort"
    },
    {
      "name": "ParentMapID",
      "type": "short"
    },
    {
      "name": "CosmeticParentMapID",
      "type": "short"
    },
    {
      "name": "WindSettingsID",
      "type": "ushort"
    },
    {
      "name": "InstanceType",
      "type": "byte"
    },
    {
      "name": "Unk",
      "type": "byte"
    },
    {
      "name": "ExpansionID",
      "type": "byte"
    },
    {
      "name": "MaxPlayers",
      "type": "byte"
    },
    {
      "name": "TimeOffset",
      "type": "byte"
    }
  ],
  "name": "Map",
  "build": "24793"
}