{
  "fields": [
    {
      "name": "id",
      "type": "int",
      "index": "true"
    },
    {
      "name": "directory",
      "type": "string"
    },
    {
      "name": "Field04",
      "type": "int",
      "arraySize": "2"
    },
    {
      "name": "Field0C",
      "type": "float"
    },
    {
      "name": "Field10",
      "type": "float",
      "arraySize": "2"
    },
    {
      "name": "mapName",
      "type": "string"
    },
    {
      "name": "Field1C",
      "type": "string"
    },
    {
      "name": "Field20",
      "type": "string"
    },
    {
      "name": "Field24",
      "type": "ushort"
    },
    {
      "name": "loadingScreenId",
      "type": "ushort"
    },
    {
      "name": "Field28",
      "type": "ushort"
    },
    {
      "name": "Field2A",
      "type": "ushort"
    },
    {
      "name": "Field2C",
      "type": "ushort"
    },
    {
      "name": "Field2E",
      "type": "ushort"
    },
    {
      "name": "Field30",
      "type": "ushort"
    },
    {
      "name": "Field32",
      "type": "byte"
    },
    {
      "name": "Field33",
      "type": "byte"
    },
    {
      "name": "Field34",
      "type": "byte"
    },
    {
      "name": "Field35",
      "type": "byte"
    },
    {
      "name": "Field36",
      "type": "byte"
    }
  ],
  "name": "Map",
  "build": "22578"
}