{
  "name" : "MarketingPromotionsXLocale",
  "build" : 24793,
  "fields" : [ {
    "name" : "ID",
    "type" : "int",
    "index" : true,
    "arraySize" : 1
  }, {
    "name" : "Field04",
    "type" : "uint",
    "index" : false,
    "arraySize" : 1
  }, {
    "name" : "Field08",
    "type" : "uint",
    "index" : false,
    "arraySize" : 1
  }, {
    "name" : "Field0C",
    "type" : "uint",
    "index" : false,
    "arraySize" : 1
  }, {
    "name" : "Field10",
    "type" : "uint",
    "index" : false,
    "arraySize" : 1
  }, {
    "name" : "Field14",
    "type" : "string",
    "index" : false,
    "arraySize" : 1
  }, {
    "name" : "Field18",
    "type" : "byte",
    "index" : false,
    "arraySize" : 1
  }, {
    "name" : "Field19",
    "type" : "byte",
    "index" : false,
    "arraySize" : 1
  } ]
}