{
  "name" : "Material",
  "build" : 8606,
  "fields" : [ {
    "name" : "ID",
    "type" : "int",
    "index" : true,
    "arraySize" : 1
  }, {
    "name" : "Flags",
    "type" : "int",
    "index" : false,
    "arraySize" : 1
  }, {
    "name" : "FoleySoundID",
    "type" : "int",
    "index" : false,
    "arraySize" : 1
  } ]
}