{
  "name" : "Material",
  "build" : 24492,
  "fields" : [ {
    "name" : "ID",
    "type" : "int",
    "index" : true,
    "arraySize" : 1
  }, {
    "name" : "Field4",
    "type" : "byte",
    "index" : false,
    "arraySize" : 1
  }, {
    "name" : "Field5",
    "type" : "ushort",
    "index" : false,
    "arraySize" : 1
  }, {
    "name" : "Field7",
    "type" : "ushort",
    "index" : false,
    "arraySize" : 1
  }, {
    "name" : "Field9",
    "type" : "ushort",
    "index" : false,
    "arraySize" : 1
  } ]
}