{
  "name" : "MinorTalent",
  "build" : 26231,
  "fields" : [ {
    "name" : "ID",
    "type" : "int",
    "index" : true,
    "arraySize" : 1
  }, {
    "name" : "SpellId",
    "type" : "int",
    "index" : false,
    "arraySize" : 1
  }, {
    "name" : "OrderIndex",
    "type" : "int",
    "index" : false,
    "arraySize" : 1
  } ]
}