{
  "name" : "ModelRibbonQuality",
  "build" : 26231,
  "fields" : [ {
    "name" : "ID",
    "type" : "int",
    "index" : true,
    "arraySize" : 1
  }, {
    "name" : "RibbonQualityId",
    "type" : "byte",
    "index" : false,
    "arraySize" : 1
  } ]
}