{
  "name" : "ModifierTree",
  "build" : 24492,
  "fields" : [ {
    "name" : "ID",
    "type" : "int",
    "index" : true,
    "arraySize" : 1
  }, {
    "name" : "Asset",
    "type" : "uint",
    "index" : false,
    "arraySize" : 1
  }, {
    "name" : "Parent",
    "type" : "ushort",
    "index" : false,
    "arraySize" : 1
  }, {
    "name" : "Type",
    "type" : "byte",
    "index" : false,
    "arraySize" : 1
  }, {
    "name" : "Field04",
    "type" : "byte",
    "index" : false,
    "arraySize" : 1
  }, {
    "name" : "Operator",
    "type" : "byte",
    "index" : false,
    "arraySize" : 1
  }, {
    "name" : "Amount",
    "type" : "byte",
    "index" : false,
    "arraySize" : 1
  } ]
}