{
  "name" : "Mount",
  "build" : 21742,
  "fields" : [ {
    "name" : "ID",
    "type" : "int",
    "index" : true,
    "arraySize" : 1
  }, {
    "name" : "SpellId",
    "type" : "int",
    "index" : false,
    "arraySize" : 1
  }, {
    "name" : "MountTypeID",
    "type" : "int",
    "index" : false,
    "arraySize" : 1
  }, {
    "name" : "DisplayId",
    "type" : "int",
    "index" : false,
    "arraySize" : 1
  }, {
    "name" : "Flags",
    "type" : "int",
    "index" : false,
    "arraySize" : 1
  }, {
    "name" : "Name",
    "type" : "string",
    "index" : false,
    "arraySize" : 1
  }, {
    "name" : "Description",
    "type" : "string",
    "index" : false,
    "arraySize" : 1
  }, {
    "name" : "SourceDescription",
    "type" : "string",
    "index" : false,
    "arraySize" : 1
  }, {
    "name" : "Source",
    "type" : "int",
    "index" : false,
    "arraySize" : 1
  }, {
    "name" : "PlayerConditionId",
    "type" : "int",
    "index" : false,
    "arraySize" : 1
  } ]
}