{
  "name" : "MountXDisplay",
  "build" : 26231,
  "fields" : [ {
    "name" : "ID",
    "type" : "int",
    "index" : true,
    "arraySize" : 1
  }, {
    "name" : "CreatureDisplayInfoId",
    "type" : "int",
    "index" : false,
    "arraySize" : 1
  }, {
    "name" : "PlayerConditionId",
    "type" : "int",
    "index" : false,
    "arraySize" : 1
  } ]
}