{
  "name" : "Movie",
  "build" : 12340,
  "fields" : [ {
    "name" : "ID",
    "type" : "int",
    "index" : true,
    "arraySize" : 1
  }, {
    "name" : "Filename",
    "type" : "string",
    "index" : false,
    "arraySize" : 1
  }, {
    "name" : "Volume",
    "type" : "int",
    "index" : false,
    "arraySize" : 1
  } ]
}