{
  "name" : "MovieVariation",
  "build" : 26231,
  "fields" : [ {
    "name" : "ID",
    "type" : "int",
    "index" : true,
    "arraySize" : 1
  }, {
    "name" : "FileDataId",
    "type" : "int",
    "index" : false,
    "arraySize" : 1
  }, {
    "name" : "OverlayFileDataId",
    "type" : "int",
    "index" : false,
    "arraySize" : 1
  } ]
}