{
  "name" : "NameGen",
  "build" : 24492,
  "fields" : [ {
    "name" : "ID",
    "type" : "int",
    "index" : true,
    "arraySize" : 1
  }, {
    "name" : "Name",
    "type" : "string",
    "index" : false,
    "arraySize" : 1
  }, {
    "name" : "Race",
    "type" : "byte",
    "index" : false,
    "arraySize" : 1
  }, {
    "name" : "Sex",
    "type" : "byte",
    "index" : false,
    "arraySize" : 1
  } ]
}