{
  "name" : "NpcCache",
  "build" : 12340,
  "fields" : [ {
    "name" : "ID",
    "type" : "int",
    "index" : true,
    "arraySize" : 1
  }, {
    "name" : "prob0",
    "type" : "float",
    "index" : false,
    "arraySize" : 1
  }, {
    "name" : "text0_0",
    "type" : "string",
    "index" : false,
    "arraySize" : 1
  }, {
    "name" : "text0_1",
    "type" : "string",
    "index" : false,
    "arraySize" : 1
  }, {
    "name" : "lang0",
    "type" : "uint",
    "index" : false,
    "arraySize" : 1
  }, {
    "name" : "em0_0",
    "type" : "uint",
    "index" : false,
    "arraySize" : 1
  }, {
    "name" : "em0_1",
    "type" : "uint",
    "index" : false,
    "arraySize" : 1
  }, {
    "name" : "em0_2",
    "type" : "uint",
    "index" : false,
    "arraySize" : 1
  }, {
    "name" : "em0_3",
    "type" : "uint",
    "index" : false,
    "arraySize" : 1
  }, {
    "name" : "em0_4",
    "type" : "uint",
    "index" : false,
    "arraySize" : 1
  }, {
    "name" : "em0_5",
    "type" : "uint",
    "index" : false,
    "arraySize" : 1
  }, {
    "name" : "prob1",
    "type" : "float",
    "index" : false,
    "arraySize" : 1
  }, {
    "name" : "text1_0",
    "type" : "string",
    "index" : false,
    "arraySize" : 1
  }, {
    "name" : "text1_1",
    "type" : "string",
    "index" : false,
    "arraySize" : 1
  }, {
    "name" : "lang1",
    "type" : "uint",
    "index" : false,
    "arraySize" : 1
  }, {
    "name" : "em1_0",
    "type" : "uint",
    "index" : false,
    "arraySize" : 1
  }, {
    "name" : "em1_1",
    "type" : "uint",
    "index" : false,
    "arraySize" : 1
  }, {
    "name" : "em1_2",
    "type" : "uint",
    "index" : false,
    "arraySize" : 1
  }, {
    "name" : "em1_3",
    "type" : "uint",
    "index" : false,
    "arraySize" : 1
  }, {
    "name" : "em1_4",
    "type" : "uint",
    "index" : false,
    "arraySize" : 1
  }, {
    "name" : "em1_5",
    "type" : "uint",
    "index" : false,
    "arraySize" : 1
  }, {
    "name" : "prob2",
    "type" : "float",
    "index" : false,
    "arraySize" : 1
  }, {
    "name" : "text2_0",
    "type" : "string",
    "index" : false,
    "arraySize" : 1
  }, {
    "name" : "text2_1",
    "type" : "string",
    "index" : false,
    "arraySize" : 1
  }, {
    "name" : "lang2",
    "type" : "uint",
    "index" : false,
    "arraySize" : 1
  }, {
    "name" : "em2_0",
    "type" : "uint",
    "index" : false,
    "arraySize" : 1
  }, {
    "name" : "em2_1",
    "type" : "uint",
    "index" : false,
    "arraySize" : 1
  }, {
    "name" : "em2_2",
    "type" : "uint",
    "index" : false,
    "arraySize" : 1
  }, {
    "name" : "em2_3",
    "type" : "uint",
    "index" : false,
    "arraySize" : 1
  }, {
    "name" : "em2_4",
    "type" : "uint",
    "index" : false,
    "arraySize" : 1
  }, {
    "name" : "em2_5",
    "type" : "uint",
    "index" : false,
    "arraySize" : 1
  }, {
    "name" : "prob3",
    "type" : "float",
    "index" : false,
    "arraySize" : 1
  }, {
    "name" : "text3_0",
    "type" : "string",
    "index" : false,
    "arraySize" : 1
  }, {
    "name" : "text3_1",
    "type" : "string",
    "index" : false,
    "arraySize" : 1
  }, {
    "name" : "lang3",
    "type" : "uint",
    "index" : false,
    "arraySize" : 1
  }, {
    "name" : "em3_0",
    "type" : "uint",
    "index" : false,
    "arraySize" : 1
  }, {
    "name" : "em3_1",
    "type" : "uint",
    "index" : false,
    "arraySize" : 1
  }, {
    "name" : "em3_2",
    "type" : "uint",
    "index" : false,
    "arraySize" : 1
  }, {
    "name" : "em3_3",
    "type" : "uint",
    "index" : false,
    "arraySize" : 1
  }, {
    "name" : "em3_4",
    "type" : "uint",
    "index" : false,
    "arraySize" : 1
  }, {
    "name" : "em3_5",
    "type" : "uint",
    "index" : false,
    "arraySize" : 1
  }, {
    "name" : "prob4",
    "type" : "float",
    "index" : false,
    "arraySize" : 1
  }, {
    "name" : "text4_0",
    "type" : "string",
    "index" : false,
    "arraySize" : 1
  }, {
    "name" : "text4_1",
    "type" : "string",
    "index" : false,
    "arraySize" : 1
  }, {
    "name" : "lang4",
    "type" : "uint",
    "index" : false,
    "arraySize" : 1
  }, {
    "name" : "em4_0",
    "type" : "uint",
    "index" : false,
    "arraySize" : 1
  }, {
    "name" : "em4_1",
    "type" : "uint",
    "index" : false,
    "arraySize" : 1
  }, {
    "name" : "em4_2",
    "type" : "uint",
    "index" : false,
    "arraySize" : 1
  }, {
    "name" : "em4_3",
    "type" : "uint",
    "index" : false,
    "arraySize" : 1
  }, {
    "name" : "em4_4",
    "type" : "uint",
    "index" : false,
    "arraySize" : 1
  }, {
    "name" : "em4_5",
    "type" : "uint",
    "index" : false,
    "arraySize" : 1
  }, {
    "name" : "prob5",
    "type" : "float",
    "index" : false,
    "arraySize" : 1
  }, {
    "name" : "text5_0",
    "type" : "string",
    "index" : false,
    "arraySize" : 1
  }, {
    "name" : "text5_1",
    "type" : "string",
    "index" : false,
    "arraySize" : 1
  }, {
    "name" : "lang5",
    "type" : "uint",
    "index" : false,
    "arraySize" : 1
  }, {
    "name" : "em5_0",
    "type" : "uint",
    "index" : false,
    "arraySize" : 1
  }, {
    "name" : "em5_1",
    "type" : "uint",
    "index" : false,
    "arraySize" : 1
  }, {
    "name" : "em5_2",
    "type" : "uint",
    "index" : false,
    "arraySize" : 1
  }, {
    "name" : "em5_3",
    "type" : "uint",
    "index" : false,
    "arraySize" : 1
  }, {
    "name" : "em5_4",
    "type" : "uint",
    "index" : false,
    "arraySize" : 1
  }, {
    "name" : "em5_5",
    "type" : "uint",
    "index" : false,
    "arraySize" : 1
  }, {
    "name" : "prob6",
    "type" : "float",
    "index" : false,
    "arraySize" : 1
  }, {
    "name" : "text6_0",
    "type" : "string",
    "index" : false,
    "arraySize" : 1
  }, {
    "name" : "text6_1",
    "type" : "string",
    "index" : false,
    "arraySize" : 1
  }, {
    "name" : "lang6",
    "type" : "uint",
    "index" : false,
    "arraySize" : 1
  }, {
    "name" : "em6_0",
    "type" : "uint",
    "index" : false,
    "arraySize" : 1
  }, {
    "name" : "em6_1",
    "type" : "uint",
    "index" : false,
    "arraySize" : 1
  }, {
    "name" : "em6_2",
    "type" : "uint",
    "index" : false,
    "arraySize" : 1
  }, {
    "name" : "em6_3",
    "type" : "uint",
    "index" : false,
    "arraySize" : 1
  }, {
    "name" : "em6_4",
    "type" : "uint",
    "index" : false,
    "arraySize" : 1
  }, {
    "name" : "em6_5",
    "type" : "uint",
    "index" : false,
    "arraySize" : 1
  }, {
    "name" : "prob7",
    "type" : "float",
    "index" : false,
    "arraySize" : 1
  }, {
    "name" : "text7_0",
    "type" : "string",
    "index" : false,
    "arraySize" : 1
  }, {
    "name" : "text7_1",
    "type" : "string",
    "index" : false,
    "arraySize" : 1
  }, {
    "name" : "lang7",
    "type" : "uint",
    "index" : false,
    "arraySize" : 1
  }, {
    "name" : "em7_0",
    "type" : "uint",
    "index" : false,
    "arraySize" : 1
  }, {
    "name" : "em7_1",
    "type" : "uint",
    "index" : false,
    "arraySize" : 1
  }, {
    "name" : "em7_2",
    "type" : "uint",
    "index" : false,
    "arraySize" : 1
  }, {
    "name" : "em7_3",
    "type" : "uint",
    "index" : false,
    "arraySize" : 1
  }, {
    "name" : "em7_4",
    "type" : "uint",
    "index" : false,
    "arraySize" : 1
  }, {
    "name" : "em7_5",
    "type" : "uint",
    "index" : false,
    "arraySize" : 1
  } ]
}