{
  "name" : "ObjectEffectPackageElem",
  "build" : 26231,
  "fields" : [ {
    "name" : "ID",
    "type" : "int",
    "index" : true,
    "arraySize" : 1
  }, {
    "name" : "ObjectEffectPackageId",
    "type" : "ushort",
    "index" : false,
    "arraySize" : 1
  }, {
    "name" : "ObjectEffectGroupId",
    "type" : "ushort",
    "index" : false,
    "arraySize" : 1
  }, {
    "name" : "StateType",
    "type" : "ushort",
    "index" : false,
    "arraySize" : 1
  } ]
}