{
  "name" : "ObjectEffect",
  "build" : 24492,
  "fields" : [ {
    "name" : "ID",
    "type" : "int",
    "index" : true,
    "arraySize" : 1
  }, {
    "name" : "Field04",
    "type" : "int",
    "index" : false,
    "arraySize" : 1
  }, {
    "name" : "Field10",
    "type" : "ushort",
    "index" : false,
    "arraySize" : 1
  }, {
    "name" : "Field12",
    "type" : "byte",
    "index" : false,
    "arraySize" : 1
  }, {
    "name" : "Field13",
    "type" : "byte",
    "index" : false,
    "arraySize" : 1
  }, {
    "name" : "Field14",
    "type" : "byte",
    "index" : false,
    "arraySize" : 1
  }, {
    "name" : "Field15",
    "type" : "byte",
    "index" : false,
    "arraySize" : 1
  }, {
    "name" : "Field16",
    "type" : "int",
    "index" : false,
    "arraySize" : 1
  }, {
    "name" : "Field19",
    "type" : "ushort",
    "index" : false,
    "arraySize" : 1
  } ]
}