{
  "name" : "PageTextCache",
  "build" : 12340,
  "fields" : [ {
    "name" : "Entry",
    "type" : "int",
    "index" : true,
    "arraySize" : 1
  }, {
    "name" : "Text",
    "type" : "string",
    "index" : false,
    "arraySize" : 1
  }, {
    "name" : "NextPage",
    "type" : "uint",
    "index" : false,
    "arraySize" : 1
  } ]
}