{
  "name" : "ParticleColor",
  "build" : 8606,
  "fields" : [ {
    "name" : "ID",
    "type" : "int",
    "index" : true,
    "arraySize" : 1
  }, {
    "name" : "Start",
    "type" : "int",
    "index" : false,
    "arraySize" : 1
  }, {
    "name" : "Mid",
    "type" : "int",
    "index" : false,
    "arraySize" : 1
  }, {
    "name" : "End",
    "type" : "int",
    "index" : false,
    "arraySize" : 1
  } ]
}