{
  "name" : "PathNodeProperty",
  "build" : 23835,
  "fields" : [ {
    "name" : "Field0",
    "type" : "ushort",
    "index" : false,
    "arraySize" : 1
  }, {
    "name" : "Field2",
    "type" : "ushort",
    "index" : false,
    "arraySize" : 1
  }, {
    "name" : "Field4",
    "type" : "byte",
    "index" : false,
    "arraySize" : 1
  }, {
    "name" : "ID",
    "type" : "int",
    "index" : true,
    "arraySize" : 1
  }, {
    "name" : "Field8",
    "type" : "int",
    "index" : false,
    "arraySize" : 1
  } ]
}