{
  "name" : "PetPersonality",
  "build" : 5875,
  "fields" : [ {
    "name" : "ID",
    "type" : "int",
    "index" : true,
    "arraySize" : 1
  }, {
    "name" : "Name",
    "type" : "loc",
    "index" : false,
    "arraySize" : 1
  }, {
    "name" : "HappinessThreshold",
    "type" : "int",
    "index" : false,
    "arraySize" : 1
  }, {
    "name" : "HappinessDamage",
    "type" : "float",
    "index" : false,
    "arraySize" : 1
  }, {
    "name" : "DamageModifier",
    "type" : "float",
    "index" : false,
    "arraySize" : 1
  } ]
}