{
  "name" : "Phase",
  "build" : 12340,
  "fields" : [ {
    "name" : "ID",
    "type" : "int",
    "index" : true,
    "arraySize" : 1
  }, {
    "name" : "MapID",
    "type" : "int",
    "index" : false,
    "arraySize" : 1
  }, {
    "name" : "PhaseShift",
    "type" : "int",
    "index" : false,
    "arraySize" : 1
  }, {
    "name" : "ChildMap",
    "type" : "int",
    "index" : false,
    "arraySize" : 1
  } ]
}