{
  "name" : "Phaseshiftzonesounds",
  "build" : 25632,
  "fields" : [ {
    "name" : "ID",
    "type" : "int",
    "index" : true,
    "arraySize" : 1
  }, {
    "name" : "Field1",
    "type" : "ushort",
    "index" : false,
    "arraySize" : 1
  }, {
    "name" : "Field2",
    "type" : "ushort",
    "index" : false,
    "arraySize" : 1
  }, {
    "name" : "Field3",
    "type" : "ushort",
    "index" : false,
    "arraySize" : 1
  }, {
    "name" : "Field4",
    "type" : "ushort",
    "index" : false,
    "arraySize" : 1
  }, {
    "name" : "Field5",
    "type" : "ushort",
    "index" : false,
    "arraySize" : 1
  }, {
    "name" : "Field6",
    "type" : "byte",
    "index" : false,
    "arraySize" : 1
  }, {
    "name" : "Field7",
    "type" : "byte",
    "index" : false,
    "arraySize" : 1
  }, {
    "name" : "Field8",
    "type" : "byte",
    "index" : false,
    "arraySize" : 1
  }, {
    "name" : "Field9",
    "type" : "byte",
    "index" : false,
    "arraySize" : 1
  }, {
    "name" : "FieldA",
    "type" : "ushort",
    "index" : false,
    "arraySize" : 1
  }, {
    "name" : "FieldB",
    "type" : "ushort",
    "index" : false,
    "arraySize" : 1
  }, {
    "name" : "FieldC",
    "type" : "byte",
    "index" : false,
    "arraySize" : 1
  }, {
    "name" : "FieldD",
    "type" : "byte",
    "index" : false,
    "arraySize" : 1
  } ]
}