{
  "name" : "PlayerCondition",
  "build" : 25632,
  "fields" : [ {
    "name" : "RaceMask",
    "type" : "long",
    "index" : false,
    "arraySize" : 1
  }, {
    "name" : "FailureDescription",
    "type" : "string",
    "index" : false,
    "arraySize" : 1
  }, {
    "name" : "ID",
    "type" : "int",
    "index" : true,
    "arraySize" : 1
  }, {
    "name" : "Flags",
    "type" : "byte",
    "index" : false,
    "arraySize" : 1
  }, {
    "name" : "MinLevel",
    "type" : "ushort",
    "index" : false,
    "arraySize" : 1
  }, {
    "name" : "MaxLevel",
    "type" : "ushort",
    "index" : false,
    "arraySize" : 1
  }, {
    "name" : "ClassMask",
    "type" : "int",
    "index" : false,
    "arraySize" : 1
  }, {
    "name" : "Gender",
    "type" : "byte",
    "index" : false,
    "arraySize" : 1
  }, {
    "name" : "NativeGender",
    "type" : "byte",
    "index" : false,
    "arraySize" : 1
  }, {
    "name" : "SkillLogic",
    "type" : "uint",
    "index" : false,
    "arraySize" : 1
  }, {
    "name" : "LanguageID",
    "type" : "byte",
    "index" : false,
    "arraySize" : 1
  }, {
    "name" : "MinLanguage",
    "type" : "byte",
    "index" : false,
    "arraySize" : 1
  }, {
    "name" : "MaxLanguage",
    "type" : "int",
    "index" : false,
    "arraySize" : 1
  }, {
    "name" : "MaxFactionID",
    "type" : "ushort",
    "index" : false,
    "arraySize" : 1
  }, {
    "name" : "MaxReputation",
    "type" : "byte",
    "index" : false,
    "arraySize" : 1
  }, {
    "name" : "ReputationLogic",
    "type" : "uint",
    "index" : false,
    "arraySize" : 1
  }, {
    "name" : "Unknown1",
    "type" : "byte",
    "index" : false,
    "arraySize" : 1
  }, {
    "name" : "MinPVPRank",
    "type" : "byte",
    "index" : false,
    "arraySize" : 1
  }, {
    "name" : "MaxPVPRank",
    "type" : "byte",
    "index" : false,
    "arraySize" : 1
  }, {
    "name" : "PvpMedal",
    "type" : "byte",
    "index" : false,
    "arraySize" : 1
  }, {
    "name" : "PrevQuestLogic",
    "type" : "uint",
    "index" : false,
    "arraySize" : 1
  }, {
    "name" : "CurrQuestLogic",
    "type" : "uint",
    "index" : false,
    "arraySize" : 1
  }, {
    "name" : "CurrentCompletedQuestLogic",
    "type" : "uint",
    "index" : false,
    "arraySize" : 1
  }, {
    "name" : "SpellLogic",
    "type" : "uint",
    "index" : false,
    "arraySize" : 1
  }, {
    "name" : "ItemLogic",
    "type" : "uint",
    "index" : false,
    "arraySize" : 1
  }, {
    "name" : "ItemFlags",
    "type" : "byte",
    "index" : false,
    "arraySize" : 1
  }, {
    "name" : "AuraSpellLogic",
    "type" : "uint",
    "index" : false,
    "arraySize" : 1
  }, {
    "name" : "WorldStateExpressionID",
    "type" : "ushort",
    "index" : false,
    "arraySize" : 1
  }, {
    "name" : "WeatherID",
    "type" : "byte",
    "index" : false,
    "arraySize" : 1
  }, {
    "name" : "PartyStatus",
    "type" : "byte",
    "index" : false,
    "arraySize" : 1
  }, {
    "name" : "LifetimeMaxPVPRank",
    "type" : "byte",
    "index" : false,
    "arraySize" : 1
  }, {
    "name" : "AchievementLogic",
    "type" : "uint",
    "index" : false,
    "arraySize" : 1
  }, {
    "name" : "LfgLogic",
    "type" : "uint",
    "index" : false,
    "arraySize" : 1
  }, {
    "name" : "AreaLogic",
    "type" : "uint",
    "index" : false,
    "arraySize" : 1
  }, {
    "name" : "CurrencyLogic",
    "type" : "uint",
    "index" : false,
    "arraySize" : 1
  }, {
    "name" : "QuestKillID",
    "type" : "ushort",
    "index" : false,
    "arraySize" : 1
  }, {
    "name" : "QuestKillLogic",
    "type" : "uint",
    "index" : false,
    "arraySize" : 1
  }, {
    "name" : "MinExpansionLevel",
    "type" : "byte",
    "index" : false,
    "arraySize" : 1
  }, {
    "name" : "MaxExpansionLevel",
    "type" : "byte",
    "index" : false,
    "arraySize" : 1
  }, {
    "name" : "MinExpansionTier",
    "type" : "byte",
    "index" : false,
    "arraySize" : 1
  }, {
    "name" : "MaxExpansionTier",
    "type" : "byte",
    "index" : false,
    "arraySize" : 1
  }, {
    "name" : "MinGuildLevel",
    "type" : "byte",
    "index" : false,
    "arraySize" : 1
  }, {
    "name" : "MaxGuildLevel",
    "type" : "byte",
    "index" : false,
    "arraySize" : 1
  }, {
    "name" : "PhaseUseFlags",
    "type" : "byte",
    "index" : false,
    "arraySize" : 1
  }, {
    "name" : "PhaseID",
    "type" : "ushort",
    "index" : false,
    "arraySize" : 1
  }, {
    "name" : "PhaseGroupID",
    "type" : "uint",
    "index" : false,
    "arraySize" : 1
  }, {
    "name" : "MinAvgItemLevel",
    "type" : "int",
    "index" : false,
    "arraySize" : 1
  }, {
    "name" : "MaxAvgItemLevel",
    "type" : "int",
    "index" : false,
    "arraySize" : 1
  }, {
    "name" : "MinAvgEquippedItemLevel",
    "type" : "ushort",
    "index" : false,
    "arraySize" : 1
  }, {
    "name" : "MaxAvgEquippedItemLevel",
    "type" : "ushort",
    "index" : false,
    "arraySize" : 1
  }, {
    "name" : "ChrSpecializationIndex",
    "type" : "byte",
    "index" : false,
    "arraySize" : 1
  }, {
    "name" : "ChrSpecializationRole",
    "type" : "byte",
    "index" : false,
    "arraySize" : 1
  }, {
    "name" : "PowerType",
    "type" : "byte",
    "index" : false,
    "arraySize" : 1
  }, {
    "name" : "PowerTypeComp",
    "type" : "byte",
    "index" : false,
    "arraySize" : 1
  }, {
    "name" : "PowerTypeValue",
    "type" : "byte",
    "index" : false,
    "arraySize" : 1
  }, {
    "name" : "ModifierTreeID",
    "type" : "uint",
    "index" : false,
    "arraySize" : 1
  }, {
    "name" : "MainHandItemSubclassMask",
    "type" : "int",
    "index" : false,
    "arraySize" : 1
  }, {
    "name" : "SkillID",
    "type" : "ushort",
    "index" : false,
    "arraySize" : 1
  }, {
    "name" : "MinSkill",
    "type" : "ushort",
    "index" : false,
    "arraySize" : 1
  }, {
    "name" : "MaxSkill",
    "type" : "ushort",
    "index" : false,
    "arraySize" : 1
  }, {
    "name" : "MinFactionID",
    "type" : "uint",
    "index" : false,
    "arraySize" : 1
  }, {
    "name" : "MinReputation",
    "type" : "byte",
    "index" : false,
    "arraySize" : 1
  }, {
    "name" : "PrevQuestID",
    "type" : "ushort",
    "index" : false,
    "arraySize" : 1
  }, {
    "name" : "CurrQuestID",
    "type" : "ushort",
    "index" : false,
    "arraySize" : 1
  }, {
    "name" : "CurrentCompletedQuestID",
    "type" : "ushort",
    "index" : false,
    "arraySize" : 1
  }, {
    "name" : "SpellID",
    "type" : "int",
    "index" : false,
    "arraySize" : 1
  }, {
    "name" : "ItemID",
    "type" : "int",
    "index" : false,
    "arraySize" : 1
  }, {
    "name" : "ItemCount",
    "type" : "uint",
    "index" : false,
    "arraySize" : 1
  }, {
    "name" : "Explored",
    "type" : "ushort",
    "index" : false,
    "arraySize" : 1
  }, {
    "name" : "Time",
    "type" : "uint",
    "index" : false,
    "arraySize" : 1
  }, {
    "name" : "AuraSpellID",
    "type" : "uint",
    "index" : false,
    "arraySize" : 1
  }, {
    "name" : "AuraCount",
    "type" : "byte",
    "index" : false,
    "arraySize" : 1
  }, {
    "name" : "Achievement",
    "type" : "ushort",
    "index" : false,
    "arraySize" : 1
  }, {
    "name" : "LfgStatus",
    "type" : "byte",
    "index" : false,
    "arraySize" : 1
  }, {
    "name" : "LfgCompare",
    "type" : "byte",
    "index" : false,
    "arraySize" : 1
  }, {
    "name" : "LfgValue",
    "type" : "uint",
    "index" : false,
    "arraySize" : 1
  }, {
    "name" : "AreaID",
    "type" : "ushort",
    "index" : false,
    "arraySize" : 1
  }, {
    "name" : "CurrencyID",
    "type" : "uint",
    "index" : false,
    "arraySize" : 1
  }, {
    "name" : "CurrencyCount",
    "type" : "uint",
    "index" : false,
    "arraySize" : 1
  }, {
    "name" : "QuestKillMonster",
    "type" : "uint",
    "index" : false,
    "arraySize" : 1
  }, {
    "name" : "MovementFlags",
    "type" : "int",
    "index" : false,
    "arraySize" : 1
  } ]
}