{
  "name" : "PositionerState",
  "build" : 22248,
  "fields" : [ {
    "name" : "ID",
    "type" : "int",
    "index" : true,
    "arraySize" : 1
  }, {
    "name" : "Field00",
    "type" : "float",
    "index" : false,
    "arraySize" : 1
  }, {
    "name" : "Field04",
    "type" : "byte",
    "index" : false,
    "arraySize" : 1
  }, {
    "name" : "Field05",
    "type" : "int",
    "index" : false,
    "arraySize" : 1
  }, {
    "name" : "Field09",
    "type" : "int",
    "index" : false,
    "arraySize" : 1
  }, {
    "name" : "Field0D",
    "type" : "int",
    "index" : false,
    "arraySize" : 1
  }, {
    "name" : "Field11",
    "type" : "int",
    "index" : false,
    "arraySize" : 1
  }, {
    "name" : "Field15",
    "type" : "int",
    "index" : false,
    "arraySize" : 1
  }, {
    "name" : "Field19",
    "type" : "int",
    "index" : false,
    "arraySize" : 1
  } ]
}