{
  "name" : "PositionerState",
  "build" : 23835,
  "fields" : [ {
    "name" : "ID",
    "type" : "int",
    "index" : true,
    "arraySize" : 1
  }, {
    "name" : "Field04",
    "type" : "float",
    "index" : false,
    "arraySize" : 1
  }, {
    "name" : "Field08",
    "type" : "byte",
    "index" : false,
    "arraySize" : 1
  }, {
    "name" : "Field09",
    "type" : "ushort",
    "index" : false,
    "arraySize" : 1
  }, {
    "name" : "Field0B",
    "type" : "byte",
    "index" : false,
    "arraySize" : 1
  }, {
    "name" : "Field0C",
    "type" : "ushort",
    "index" : false,
    "arraySize" : 1
  }, {
    "name" : "Field0E",
    "type" : "ushort",
    "index" : false,
    "arraySize" : 1
  }, {
    "name" : "Field10",
    "type" : "ushort",
    "index" : false,
    "arraySize" : 1
  }, {
    "name" : "Field12",
    "type" : "ushort",
    "index" : false,
    "arraySize" : 1
  } ]
}