{
  "name" : "PowerType",
  "build" : 24793,
  "fields" : [ {
    "name" : "ID",
    "type" : "int",
    "index" : true,
    "arraySize" : 1
  }, {
    "name" : "PowerTypeToken",
    "type" : "string",
    "index" : false,
    "arraySize" : 1
  }, {
    "name" : "PowerCostToken",
    "type" : "string",
    "index" : false,
    "arraySize" : 1
  }, {
    "name" : "RegenerationPeace",
    "type" : "float",
    "index" : false,
    "arraySize" : 1
  }, {
    "name" : "RegenerationCombat",
    "type" : "float",
    "index" : false,
    "arraySize" : 1
  }, {
    "name" : "MaxPower",
    "type" : "ushort",
    "index" : false,
    "arraySize" : 1
  }, {
    "name" : "RegenerationDelay",
    "type" : "ushort",
    "index" : false,
    "arraySize" : 1
  }, {
    "name" : "Flags",
    "type" : "ushort",
    "index" : false,
    "arraySize" : 1
  }, {
    "name" : "PowerTypeEnum",
    "type" : "byte",
    "index" : false,
    "arraySize" : 1
  }, {
    "name" : "RegenerationMin",
    "type" : "byte",
    "index" : false,
    "arraySize" : 1
  }, {
    "name" : "RegenerationCenter",
    "type" : "byte",
    "index" : false,
    "arraySize" : 1
  }, {
    "name" : "RegenerationMax",
    "type" : "byte",
    "index" : false,
    "arraySize" : 1
  }, {
    "name" : "UIModifier",
    "type" : "byte",
    "index" : false,
    "arraySize" : 1
  } ]
}