{
  "name" : "PvpDifficulty",
  "build" : 24492,
  "fields" : [ {
    "name" : "ID",
    "type" : "int",
    "index" : true,
    "arraySize" : 1
  }, {
    "name" : "MapID",
    "type" : "ushort",
    "index" : false,
    "arraySize" : 1
  }, {
    "name" : "BracketID",
    "type" : "byte",
    "index" : false,
    "arraySize" : 1
  }, {
    "name" : "MinLevel",
    "type" : "byte",
    "index" : false,
    "arraySize" : 1
  }, {
    "name" : "MaxLevel",
    "type" : "byte",
    "index" : false,
    "arraySize" : 1
  } ]
}