{
  "name" : "PvpTalentSlotUnlock",
  "build" : 26231,
  "fields" : [ {
    "name" : "ID",
    "type" : "int",
    "index" : true,
    "arraySize" : 1
  }, {
    "name" : "Slot",
    "type" : "byte",
    "index" : false,
    "arraySize" : 1
  }, {
    "name" : "LevelRequired",
    "type" : "int",
    "index" : false,
    "arraySize" : 1
  }, {
    "name" : "DeathKnightLevelRequired",
    "type" : "int",
    "index" : false,
    "arraySize" : 1
  }, {
    "name" : "DemonHunterLevelRequired",
    "type" : "int",
    "index" : false,
    "arraySize" : 1
  } ]
}