{
  "name" : "QuestMoneyReward",
  "build" : 24492,
  "fields" : [ {
    "name" : "ID",
    "type" : "int",
    "index" : true,
    "arraySize" : 1
  }, {
    "name" : "Money",
    "type" : "uint",
    "index" : false,
    "arraySize" : 1
  } ]
}