{
  "name" : "QuestPOIBlob",
  "build" : 21742,
  "fields" : [ {
    "name" : "ID",
    "type" : "int",
    "index" : true,
    "arraySize" : 1
  }, {
    "name" : "NumPoints",
    "type" : "int",
    "index" : false,
    "arraySize" : 1
  }, {
    "name" : "MapID",
    "type" : "int",
    "index" : false,
    "arraySize" : 1
  }, {
    "name" : "WorldMapAreaID",
    "type" : "int",
    "index" : false,
    "arraySize" : 1
  } ]
}