{
  "name" : "QuestFeedbackEffect",
  "build" : 21742,
  "fields" : [ {
    "name" : "ID",
    "type" : "int",
    "index" : true,
    "arraySize" : 1
  }, {
    "name" : "FileDataID",
    "type" : "int",
    "index" : false,
    "arraySize" : 1
  }, {
    "name" : "AttachPoint",
    "type" : "int",
    "index" : false,
    "arraySize" : 1
  }, {
    "name" : "Minimapobject",
    "type" : "int",
    "index" : false,
    "arraySize" : 1
  }, {
    "name" : "Priority",
    "type" : "int",
    "index" : false,
    "arraySize" : 1
  }, {
    "name" : "Flags",
    "type" : "int",
    "index" : false,
    "arraySize" : 1
  } ]
}