{
  "name" : "QuestV2",
  "build" : 26231,
  "fields" : [ {
    "name" : "ID",
    "type" : "int",
    "index" : true,
    "arraySize" : 1
  }, {
    "name" : "UniqueBitFlag",
    "type" : "ushort",
    "index" : false,
    "arraySize" : 1
  } ]
}