{
  "name" : "QuestSort",
  "build" : 5875,
  "fields" : [ {
    "name" : "ID",
    "type" : "int",
    "index" : true,
    "arraySize" : 1
  }, {
    "name" : "SortName",
    "type" : "loc",
    "index" : false,
    "arraySize" : 1
  } ]
}