{
  "name" : "RandPropPoints",
  "build" : 24793,
  "fields" : [ {
    "name" : "ID",
    "type" : "int",
    "index" : true,
    "arraySize" : 1
  }, {
    "name" : "EpicPropertiesPoints",
    "type" : "uint",
    "index" : false,
    "arraySize" : 1
  }, {
    "name" : "RarePropertiesPoints",
    "type" : "uint",
    "index" : false,
    "arraySize" : 1
  }, {
    "name" : "UncommonPropertiesPoints",
    "type" : "uint",
    "index" : false,
    "arraySize" : 1
  } ]
}