{
  "name" : "RandPropPoints",
  "build" : 8606,
  "fields" : [ {
    "name" : "ID",
    "type" : "int",
    "index" : true,
    "arraySize" : 1
  }, {
    "name" : "Epic",
    "type" : "int",
    "index" : false,
    "arraySize" : 1
  }, {
    "name" : "Superior",
    "type" : "int",
    "index" : false,
    "arraySize" : 1
  }, {
    "name" : "Good",
    "type" : "int",
    "index" : false,
    "arraySize" : 1
  } ]
}