{
  "name" : "ResearchSite",
  "build" : 18414,
  "fields" : [ {
    "name" : "ID",
    "type" : "int",
    "index" : true,
    "arraySize" : 1
  }, {
    "name" : "MapId",
    "type" : "int",
    "index" : false,
    "arraySize" : 1
  }, {
    "name" : "Poi_Id",
    "type" : "int",
    "index" : false,
    "arraySize" : 1
  }, {
    "name" : "Name",
    "type" : "string",
    "index" : false,
    "arraySize" : 1
  }, {
    "name" : "TextureIndex",
    "type" : "int",
    "index" : false,
    "arraySize" : 1
  } ]
}