{
  "name" : "RewardPackXItem",
  "build" : 26231,
  "fields" : [ {
    "name" : "ID",
    "type" : "int",
    "index" : true,
    "arraySize" : 1
  }, {
    "name" : "ItemId",
    "type" : "int",
    "index" : false,
    "arraySize" : 1
  }, {
    "name" : "ItemQuantity",
    "type" : "int",
    "index" : false,
    "arraySize" : 1
  } ]
}