{
  "name" : "RibbonQuality",
  "build" : 24492,
  "fields" : [ {
    "name" : "ID",
    "type" : "int",
    "index" : true,
    "arraySize" : 1
  }, {
    "name" : "Field04",
    "type" : "float",
    "index" : false,
    "arraySize" : 1
  }, {
    "name" : "Field08",
    "type" : "float",
    "index" : false,
    "arraySize" : 1
  }, {
    "name" : "Field0C",
    "type" : "float",
    "index" : false,
    "arraySize" : 1
  }, {
    "name" : "Field10",
    "type" : "byte",
    "index" : false,
    "arraySize" : 1
  } ]
}