{
  "name" : "RulesetItemUpgrade",
  "build" : 24793,
  "fields" : [ {
    "name" : "ID",
    "type" : "int",
    "index" : true,
    "arraySize" : 1
  }, {
    "name" : "ItemID",
    "type" : "uint",
    "index" : false,
    "arraySize" : 1
  }, {
    "name" : "ItemUpgradeID",
    "type" : "ushort",
    "index" : false,
    "arraySize" : 1
  } ]
}