{
  "name" : "ScalingStatValues",
  "build" : 21742,
  "fields" : [ {
    "name" : "ID",
    "type" : "int",
    "index" : true,
    "arraySize" : 1
  }, {
    "name" : "Charlevel",
    "type" : "int",
    "index" : false,
    "arraySize" : 1
  }, {
    "name" : "EffectiveLevel",
    "type" : "int",
    "index" : false,
    "arraySize" : 1
  }, {
    "name" : "WeaponDPS1H",
    "type" : "int",
    "index" : false,
    "arraySize" : 1
  }, {
    "name" : "WeaponDPS2H",
    "type" : "int",
    "index" : false,
    "arraySize" : 1
  }, {
    "name" : "SpellcasterDPS1H",
    "type" : "int",
    "index" : false,
    "arraySize" : 1
  }, {
    "name" : "SpellcasterDPS2H",
    "type" : "int",
    "index" : false,
    "arraySize" : 1
  }, {
    "name" : "RangedDPS",
    "type" : "int",
    "index" : false,
    "arraySize" : 1
  }, {
    "name" : "WandDPS",
    "type" : "int",
    "index" : false,
    "arraySize" : 1
  }, {
    "name" : "SpellPower",
    "type" : "int",
    "index" : false,
    "arraySize" : 1
  }, {
    "name" : "BudgetPrimary",
    "type" : "int",
    "index" : false,
    "arraySize" : 1
  }, {
    "name" : "BudgetSecondary",
    "type" : "int",
    "index" : false,
    "arraySize" : 1
  }, {
    "name" : "BudgetTertiary",
    "type" : "int",
    "index" : false,
    "arraySize" : 1
  }, {
    "name" : "BudgetSub",
    "type" : "int",
    "index" : false,
    "arraySize" : 1
  }, {
    "name" : "BudgetTrivial",
    "type" : "int",
    "index" : false,
    "arraySize" : 1
  }, {
    "name" : "ArmorShoulder",
    "type" : "int",
    "index" : false,
    "arraySize" : 1
  }, {
    "name" : "ArmorChest",
    "type" : "int",
    "index" : false,
    "arraySize" : 1
  }, {
    "name" : "ArmorHead",
    "type" : "int",
    "index" : false,
    "arraySize" : 1
  }, {
    "name" : "ArmorLegs",
    "type" : "int",
    "index" : false,
    "arraySize" : 1
  }, {
    "name" : "ArmorFeet",
    "type" : "int",
    "index" : false,
    "arraySize" : 1
  }, {
    "name" : "ArmorWaist",
    "type" : "int",
    "index" : false,
    "arraySize" : 1
  }, {
    "name" : "ArmorHands",
    "type" : "int",
    "index" : false,
    "arraySize" : 1
  }, {
    "name" : "ArmorWrists",
    "type" : "int",
    "index" : false,
    "arraySize" : 1
  }, {
    "name" : "ArmorBack",
    "type" : "int",
    "index" : false,
    "arraySize" : 1
  }, {
    "name" : "ArmorShield",
    "type" : "int",
    "index" : false,
    "arraySize" : 1
  } ]
}