{
  "name" : "Scenario",
  "build" : 25632,
  "fields" : [ {
    "name" : "ID",
    "type" : "int",
    "index" : true,
    "arraySize" : 1
  }, {
    "name" : "Name",
    "type" : "string",
    "index" : false,
    "arraySize" : 1
  }, {
    "name" : "Data",
    "type" : "ushort",
    "index" : false,
    "arraySize" : 1
  }, {
    "name" : "Flags",
    "type" : "byte",
    "index" : false,
    "arraySize" : 1
  }, {
    "name" : "Type",
    "type" : "byte",
    "index" : false,
    "arraySize" : 1
  } ]
}