{
  "name" : "SceneScript",
  "build" : 23835,
  "fields" : [ {
    "name" : "ID",
    "type" : "int",
    "index" : true,
    "arraySize" : 1
  }, {
    "name" : "Name",
    "type" : "string",
    "index" : false,
    "arraySize" : 1
  }, {
    "name" : "Script",
    "type" : "string",
    "index" : false,
    "arraySize" : 1
  }, {
    "name" : "PrevScriptId",
    "type" : "ushort",
    "index" : false,
    "arraySize" : 1
  }, {
    "name" : "NextScriptId",
    "type" : "ushort",
    "index" : false,
    "arraySize" : 1
  } ]
}