{
  "name" : "ScenarioStep",
  "build" : 24492,
  "fields" : [ {
    "name" : "ID",
    "type" : "int",
    "index" : true,
    "arraySize" : 1
  }, {
    "name" : "Description",
    "type" : "string",
    "index" : false,
    "arraySize" : 1
  }, {
    "name" : "Name",
    "type" : "string",
    "index" : false,
    "arraySize" : 1
  }, {
    "name" : "CriteriaTreeID",
    "type" : "ushort",
    "index" : false,
    "arraySize" : 1
  }, {
    "name" : "ScenarioID",
    "type" : "ushort",
    "index" : false,
    "arraySize" : 1
  }, {
    "name" : "PreviousStepID",
    "type" : "ushort",
    "index" : false,
    "arraySize" : 1
  }, {
    "name" : "QuestRewardID",
    "type" : "ushort",
    "index" : false,
    "arraySize" : 1
  }, {
    "name" : "Step",
    "type" : "byte",
    "index" : false,
    "arraySize" : 1
  }, {
    "name" : "Flags",
    "type" : "byte",
    "index" : false,
    "arraySize" : 1
  }, {
    "name" : "BonusRequiredStepID",
    "type" : "uint",
    "index" : false,
    "arraySize" : 1
  } ]
}