{
  "name" : "ScreenEffect",
  "build" : 21742,
  "fields" : [ {
    "name" : "ID",
    "type" : "int",
    "index" : true,
    "arraySize" : 1
  }, {
    "name" : "Name",
    "type" : "string",
    "index" : false,
    "arraySize" : 1
  }, {
    "name" : "Effect",
    "type" : "int",
    "index" : false,
    "arraySize" : 1
  }, {
    "name" : "Param",
    "type" : "int",
    "index" : false,
    "arraySize" : 1
  }, {
    "name" : "LightParamsID",
    "type" : "int",
    "index" : false,
    "arraySize" : 1
  }, {
    "name" : "LightParamsFadeIn",
    "type" : "int",
    "index" : false,
    "arraySize" : 1
  }, {
    "name" : "LightParamsFadeOut",
    "type" : "int",
    "index" : false,
    "arraySize" : 1
  }, {
    "name" : "LightFlags",
    "type" : "int",
    "index" : false,
    "arraySize" : 1
  }, {
    "name" : "SoundAmbienceID",
    "type" : "int",
    "index" : false,
    "arraySize" : 1
  }, {
    "name" : "ZoneMusicID",
    "type" : "int",
    "index" : false,
    "arraySize" : 1
  }, {
    "name" : "TimeOfDayOverride",
    "type" : "int",
    "index" : false,
    "arraySize" : 1
  }, {
    "name" : "EffectMask",
    "type" : "int",
    "index" : false,
    "arraySize" : 1
  } ]
}