{
  "name" : "ScreenEffect",
  "build" : 26231,
  "fields" : [ {
    "name" : "ID",
    "type" : "int",
    "index" : true,
    "arraySize" : 1
  }, {
    "name" : "Name",
    "type" : "string",
    "index" : false,
    "arraySize" : 1
  }, {
    "name" : "Param",
    "type" : "uint",
    "index" : false,
    "arraySize" : 1
  }, {
    "name" : "LightParamsId",
    "type" : "ushort",
    "index" : false,
    "arraySize" : 1
  }, {
    "name" : "LightParamsFadeIn",
    "type" : "ushort",
    "index" : false,
    "arraySize" : 1
  }, {
    "name" : "LightParamsFadeOut",
    "type" : "ushort",
    "index" : false,
    "arraySize" : 1
  }, {
    "name" : "TimeOfDayOverride",
    "type" : "ushort",
    "index" : false,
    "arraySize" : 1
  }, {
    "name" : "Effect",
    "type" : "byte",
    "index" : false,
    "arraySize" : 1
  }, {
    "name" : "LightFlags",
    "type" : "byte",
    "index" : false,
    "arraySize" : 1
  }, {
    "name" : "EffectMask",
    "type" : "byte",
    "index" : false,
    "arraySize" : 1
  }, {
    "name" : "FullScreenEffectId",
    "type" : "int",
    "index" : false,
    "arraySize" : 1
  }, {
    "name" : "SoundAmbienceId",
    "type" : "int",
    "index" : false,
    "arraySize" : 1
  }, {
    "name" : "ZoneMusicId",
    "type" : "int",
    "index" : false,
    "arraySize" : 1
  } ]
}