{
  "name" : "ShadowyEffect",
  "build" : 26231,
  "fields" : [ {
    "name" : "ID",
    "type" : "int",
    "index" : true,
    "arraySize" : 1
  }, {
    "name" : "PrimaryColor",
    "type" : "uint",
    "index" : false,
    "arraySize" : 1
  }, {
    "name" : "SecondaryColor",
    "type" : "uint",
    "index" : false,
    "arraySize" : 1
  }, {
    "name" : "Duration",
    "type" : "float",
    "index" : false,
    "arraySize" : 1
  }, {
    "name" : "Value",
    "type" : "float",
    "index" : false,
    "arraySize" : 1
  }, {
    "name" : "FadeInTime",
    "type" : "float",
    "index" : false,
    "arraySize" : 1
  }, {
    "name" : "FadeOutTime",
    "type" : "float",
    "index" : false,
    "arraySize" : 1
  }, {
    "name" : "InnerStrength",
    "type" : "float",
    "index" : false,
    "arraySize" : 1
  }, {
    "name" : "OuterStrength",
    "type" : "float",
    "index" : false,
    "arraySize" : 1
  }, {
    "name" : "InitialDelay",
    "type" : "float",
    "index" : false,
    "arraySize" : 1
  }, {
    "name" : "AttachPos",
    "type" : "byte",
    "index" : false,
    "arraySize" : 1
  }, {
    "name" : "Flags",
    "type" : "byte",
    "index" : false,
    "arraySize" : 1
  }, {
    "name" : "CurveId",
    "type" : "int",
    "index" : false,
    "arraySize" : 1
  }, {
    "name" : "Priority",
    "type" : "int",
    "index" : false,
    "arraySize" : 1
  } ]
}