{
  "name" : "ShadowyEffect",
  "build" : 24793,
  "fields" : [ {
    "name" : "ID",
    "type" : "int",
    "index" : true,
    "arraySize" : 1
  }, {
    "name" : "Field04",
    "type" : "int",
    "index" : false,
    "arraySize" : 1
  }, {
    "name" : "Field08",
    "type" : "int",
    "index" : false,
    "arraySize" : 1
  }, {
    "name" : "Field0C",
    "type" : "float",
    "index" : false,
    "arraySize" : 1
  }, {
    "name" : "Field10",
    "type" : "float",
    "index" : false,
    "arraySize" : 1
  }, {
    "name" : "Field14",
    "type" : "float",
    "index" : false,
    "arraySize" : 1
  }, {
    "name" : "Field18",
    "type" : "float",
    "index" : false,
    "arraySize" : 1
  }, {
    "name" : "Field1C",
    "type" : "float",
    "index" : false,
    "arraySize" : 1
  }, {
    "name" : "Field20",
    "type" : "float",
    "index" : false,
    "arraySize" : 1
  }, {
    "name" : "Field24",
    "type" : "byte",
    "index" : false,
    "arraySize" : 1
  }, {
    "name" : "Field25",
    "type" : "byte",
    "index" : false,
    "arraySize" : 1
  } ]
}