{
  "name" : "SkillLineAbility",
  "build" : 26231,
  "fields" : [ {
    "name" : "RaceMask",
    "type" : "ulong",
    "index" : false,
    "arraySize" : 1
  }, {
    "name" : "ID",
    "type" : "int",
    "index" : true,
    "arraySize" : 1
  }, {
    "name" : "Spell",
    "type" : "int",
    "index" : false,
    "arraySize" : 1
  }, {
    "name" : "SupercedesSpell",
    "type" : "int",
    "index" : false,
    "arraySize" : 1
  }, {
    "name" : "SkillLine",
    "type" : "ushort",
    "index" : false,
    "arraySize" : 1
  }, {
    "name" : "TrivialSkillLineRankHigh",
    "type" : "ushort",
    "index" : false,
    "arraySize" : 1
  }, {
    "name" : "TrivialSkillLineRankLow",
    "type" : "ushort",
    "index" : false,
    "arraySize" : 1
  }, {
    "name" : "UniqueBit",
    "type" : "ushort",
    "index" : false,
    "arraySize" : 1
  }, {
    "name" : "TradeSkillCategoryId",
    "type" : "ushort",
    "index" : false,
    "arraySize" : 1
  }, {
    "name" : "NumSkillUps",
    "type" : "byte",
    "index" : false,
    "arraySize" : 1
  }, {
    "name" : "ClassMask",
    "type" : "int",
    "index" : false,
    "arraySize" : 1
  }, {
    "name" : "MinSkillLineRank",
    "type" : "ushort",
    "index" : false,
    "arraySize" : 1
  }, {
    "name" : "AcquireMethod",
    "type" : "byte",
    "index" : false,
    "arraySize" : 1
  }, {
    "name" : "Flags",
    "type" : "byte",
    "index" : false,
    "arraySize" : 1
  }, {
    "name" : "SkillupSkillLineId",
    "type" : "ushort",
    "index" : false,
    "arraySize" : 1
  } ]
}