{
  "name" : "SkillLine",
  "build" : 3368,
  "fields" : [ {
    "name" : "ID",
    "type" : "int",
    "index" : true,
    "arraySize" : 1
  }, {
    "name" : "RaceMask",
    "type" : "int",
    "index" : false,
    "arraySize" : 1
  }, {
    "name" : "ClassMask",
    "type" : "int",
    "index" : false,
    "arraySize" : 1
  }, {
    "name" : "ExcludeRace",
    "type" : "int",
    "index" : false,
    "arraySize" : 1
  }, {
    "name" : "ExcludeClass",
    "type" : "int",
    "index" : false,
    "arraySize" : 1
  }, {
    "name" : "CategoryID",
    "type" : "int",
    "index" : false,
    "arraySize" : 1
  }, {
    "name" : "SkillType",
    "type" : "int",
    "index" : false,
    "arraySize" : 1
  }, {
    "name" : "MinCharLevel",
    "type" : "int",
    "index" : false,
    "arraySize" : 1
  }, {
    "name" : "MaxRank",
    "type" : "int",
    "index" : false,
    "arraySize" : 1
  }, {
    "name" : "Abandonable",
    "type" : "int",
    "index" : false,
    "arraySize" : 1
  }, {
    "name" : "DisplayName",
    "type" : "loc",
    "index" : false,
    "arraySize" : 1
  } ]
}