{
  "name" : "SkillLineAbilitySortedSpell",
  "build" : 21742,
  "fields" : [ {
    "name" : "ID",
    "type" : "int",
    "index" : true,
    "arraySize" : 1
  }, {
    "name" : "Spell",
    "type" : "int",
    "index" : false,
    "arraySize" : 1
  } ]
}