{
  "name" : "SkillLineCategory",
  "build" : 12340,
  "fields" : [ {
    "name" : "ID",
    "type" : "int",
    "index" : true,
    "arraySize" : 1
  }, {
    "name" : "Name_Lang",
    "type" : "loc",
    "index" : false,
    "arraySize" : 1
  }, {
    "name" : "SortIndex",
    "type" : "int",
    "index" : false,
    "arraySize" : 1
  } ]
}