{
  "name" : "SoundEmitterPillPoints",
  "build" : 26231,
  "fields" : [ {
    "name" : "ID",
    "type" : "int",
    "index" : true,
    "arraySize" : 1
  }, {
    "name" : "Position",
    "type" : "float",
    "index" : false,
    "arraySize" : 1
  }, {
    "name" : "SoundEmittersId",
    "type" : "ushort",
    "index" : false,
    "arraySize" : 1
  } ]
}