{
  "name" : "SoundEntries",
  "build" : 5875,
  "fields" : [ {
    "name" : "ID",
    "type" : "int",
    "index" : true,
    "arraySize" : 1
  }, {
    "name" : "SoundType",
    "type" : "int",
    "index" : false,
    "arraySize" : 1
  }, {
    "name" : "Name",
    "type" : "string",
    "index" : false,
    "arraySize" : 1
  }, {
    "name" : "File",
    "type" : "string",
    "index" : false,
    "arraySize" : 1
  }, {
    "name" : "Freq",
    "type" : "int",
    "index" : false,
    "arraySize" : 1
  }, {
    "name" : "DirectoryBase",
    "type" : "string",
    "index" : false,
    "arraySize" : 1
  }, {
    "name" : "VolumeFloat",
    "type" : "float",
    "index" : false,
    "arraySize" : 1
  }, {
    "name" : "Flags",
    "type" : "int",
    "index" : false,
    "arraySize" : 1
  }, {
    "name" : "MinDistance",
    "type" : "float",
    "index" : false,
    "arraySize" : 1
  }, {
    "name" : "DistanceCutoff",
    "type" : "float",
    "index" : false,
    "arraySize" : 1
  }, {
    "name" : "EAXDef",
    "type" : "int",
    "index" : false,
    "arraySize" : 1
  } ]
}