{
  "name" : "SoundBus",
  "build" : 21742,
  "fields" : [ {
    "name" : "ID",
    "type" : "int",
    "index" : true,
    "arraySize" : 1
  }, {
    "name" : "Parent",
    "type" : "int",
    "index" : false,
    "arraySize" : 1
  }, {
    "name" : "DefaultPriority",
    "type" : "int",
    "index" : false,
    "arraySize" : 1
  }, {
    "name" : "DefaultPrioriTypenalty",
    "type" : "int",
    "index" : false,
    "arraySize" : 1
  }, {
    "name" : "RaidPriority",
    "type" : "int",
    "index" : false,
    "arraySize" : 1
  }, {
    "name" : "RaidPrioriTypenalty",
    "type" : "int",
    "index" : false,
    "arraySize" : 1
  }, {
    "name" : "DefaultVolume",
    "type" : "float",
    "index" : false,
    "arraySize" : 1
  }, {
    "name" : "RaidVolume",
    "type" : "float",
    "index" : false,
    "arraySize" : 1
  }, {
    "name" : "DefaultPlaybackLimit",
    "type" : "int",
    "index" : false,
    "arraySize" : 1
  }, {
    "name" : "RaidPlaybackLimit",
    "type" : "int",
    "index" : false,
    "arraySize" : 1
  }, {
    "name" : "BusEnumID",
    "type" : "int",
    "index" : false,
    "arraySize" : 1
  } ]
}