{
  "name" : "Soundemitterpillpoints",
  "build" : 25632,
  "fields" : [ {
    "name" : "ID",
    "type" : "int",
    "index" : true,
    "arraySize" : 1
  }, {
    "name" : "Field1",
    "type" : "float",
    "index" : false,
    "arraySize" : 1
  }, {
    "name" : "Field2",
    "type" : "ushort",
    "index" : false,
    "arraySize" : 1
  } ]
}