{
  "name" : "SoundProviderPreferences",
  "build" : 8606,
  "fields" : [ {
    "name" : "ID",
    "type" : "int",
    "index" : true,
    "arraySize" : 1
  }, {
    "name" : "Description",
    "type" : "string",
    "index" : false,
    "arraySize" : 1
  }, {
    "name" : "Flags",
    "type" : "int",
    "index" : false,
    "arraySize" : 1
  }, {
    "name" : "EAXEnvironmentSelection",
    "type" : "int",
    "index" : false,
    "arraySize" : 1
  }, {
    "name" : "EAXDecayTime",
    "type" : "float",
    "index" : false,
    "arraySize" : 1
  }, {
    "name" : "EAX2EnvironmentSize",
    "type" : "float",
    "index" : false,
    "arraySize" : 1
  }, {
    "name" : "EAX2EnvironmentDiffusion",
    "type" : "float",
    "index" : false,
    "arraySize" : 1
  }, {
    "name" : "EAX2Room",
    "type" : "int",
    "index" : false,
    "arraySize" : 1
  }, {
    "name" : "EAX2RoomHF",
    "type" : "int",
    "index" : false,
    "arraySize" : 1
  }, {
    "name" : "EAX2DecayHFRatio",
    "type" : "float",
    "index" : false,
    "arraySize" : 1
  }, {
    "name" : "EAX2Reflections",
    "type" : "int",
    "index" : false,
    "arraySize" : 1
  }, {
    "name" : "EAX2ReflectionsDelay",
    "type" : "float",
    "index" : false,
    "arraySize" : 1
  }, {
    "name" : "EAX2Reverb",
    "type" : "int",
    "index" : false,
    "arraySize" : 1
  }, {
    "name" : "EAX2ReverbDelay",
    "type" : "float",
    "index" : false,
    "arraySize" : 1
  }, {
    "name" : "EAX2RoomRolloff",
    "type" : "float",
    "index" : false,
    "arraySize" : 1
  }, {
    "name" : "EAX2AirAbsorption",
    "type" : "float",
    "index" : false,
    "arraySize" : 1
  }, {
    "name" : "EAX3RoomLF",
    "type" : "int",
    "index" : false,
    "arraySize" : 1
  }, {
    "name" : "EAX3DecayLFRatio",
    "type" : "float",
    "index" : false,
    "arraySize" : 1
  }, {
    "name" : "EAX3EchoTime",
    "type" : "float",
    "index" : false,
    "arraySize" : 1
  }, {
    "name" : "EAX3EchoDepth",
    "type" : "float",
    "index" : false,
    "arraySize" : 1
  }, {
    "name" : "EAX3ModulationTime",
    "type" : "float",
    "index" : false,
    "arraySize" : 1
  }, {
    "name" : "EAX3ModulationDepth",
    "type" : "float",
    "index" : false,
    "arraySize" : 1
  }, {
    "name" : "EAX3HFReference",
    "type" : "float",
    "index" : false,
    "arraySize" : 1
  }, {
    "name" : "EAX3LFReference",
    "type" : "float",
    "index" : false,
    "arraySize" : 1
  } ]
}