{
  "name" : "SoundEntries",
  "build" : 18414,
  "fields" : [ {
    "name" : "ID",
    "type" : "int",
    "index" : true,
    "arraySize" : 1
  }, {
    "name" : "SoundType",
    "type" : "int",
    "index" : false,
    "arraySize" : 1
  }, {
    "name" : "Name",
    "type" : "string",
    "index" : false,
    "arraySize" : 1
  }, {
    "name" : "FileDataId",
    "type" : "int",
    "index" : false,
    "arraySize" : 1
  }, {
    "name" : "Freq",
    "type" : "int",
    "index" : false,
    "arraySize" : 1
  }, {
    "name" : "Volumefloat",
    "type" : "float",
    "index" : false,
    "arraySize" : 1
  }, {
    "name" : "Flags",
    "type" : "int",
    "index" : false,
    "arraySize" : 1
  }, {
    "name" : "MinDistance",
    "type" : "float",
    "index" : false,
    "arraySize" : 1
  }, {
    "name" : "DistanceCutoff",
    "type" : "float",
    "index" : false,
    "arraySize" : 1
  }, {
    "name" : "EAXDef",
    "type" : "int",
    "index" : false,
    "arraySize" : 1
  }, {
    "name" : "SoundEntriesAdvancedID",
    "type" : "int",
    "index" : false,
    "arraySize" : 1
  }, {
    "name" : "Volumevariationplus",
    "type" : "float",
    "index" : false,
    "arraySize" : 1
  }, {
    "name" : "Volumevariationminus",
    "type" : "float",
    "index" : false,
    "arraySize" : 1
  }, {
    "name" : "Pitchvariationplus",
    "type" : "float",
    "index" : false,
    "arraySize" : 1
  }, {
    "name" : "Pitchvariationminus",
    "type" : "float",
    "index" : false,
    "arraySize" : 1
  }, {
    "name" : "Pitchadjust",
    "type" : "float",
    "index" : false,
    "arraySize" : 1
  }, {
    "name" : "DialogType",
    "type" : "int",
    "index" : false,
    "arraySize" : 1
  } ]
}