{
  "name" : "SoundWaterType",
  "build" : 5875,
  "fields" : [ {
    "name" : "ID",
    "type" : "int",
    "index" : true,
    "arraySize" : 1
  }, {
    "name" : "LiquidTypeID",
    "type" : "int",
    "index" : false,
    "arraySize" : 1
  }, {
    "name" : "FluidSpeed",
    "type" : "int",
    "index" : false,
    "arraySize" : 1
  }, {
    "name" : "SoundID",
    "type" : "int",
    "index" : false,
    "arraySize" : 1
  } ]
}