{
  "name" : "SoundFilterElem",
  "build" : 24793,
  "fields" : [ {
    "name" : "ID",
    "type" : "int",
    "index" : true,
    "arraySize" : 1
  }, {
    "name" : "Field04",
    "type" : "float",
    "index" : false,
    "arraySize" : 1
  }, {
    "name" : "Field28",
    "type" : "byte",
    "index" : false,
    "arraySize" : 1
  }, {
    "name" : "Field29",
    "type" : "byte",
    "index" : false,
    "arraySize" : 1
  } ]
}