{
  "name" : "SoundSamplePreferences",
  "build" : 3368,
  "fields" : [ {
    "name" : "ID",
    "type" : "int",
    "index" : true,
    "arraySize" : 1
  }, {
    "name" : "EAX1EffectLevel",
    "type" : "float",
    "index" : false,
    "arraySize" : 1
  }, {
    "name" : "EAX2SampleDirect",
    "type" : "int",
    "index" : false,
    "arraySize" : 1
  }, {
    "name" : "EAX2SampleDirectHF",
    "type" : "int",
    "index" : false,
    "arraySize" : 1
  }, {
    "name" : "EAX2SampleRoom",
    "type" : "int",
    "index" : false,
    "arraySize" : 1
  }, {
    "name" : "EAX2SampleRoomHF",
    "type" : "int",
    "index" : false,
    "arraySize" : 1
  }, {
    "name" : "EAX2SampleObstruction",
    "type" : "float",
    "index" : false,
    "arraySize" : 1
  }, {
    "name" : "EAX2SampleObstructionLFRatio",
    "type" : "float",
    "index" : false,
    "arraySize" : 1
  }, {
    "name" : "EAX2SampleOcclusion",
    "type" : "float",
    "index" : false,
    "arraySize" : 1
  }, {
    "name" : "EAX2SampleOcclusionLFRatio",
    "type" : "float",
    "index" : false,
    "arraySize" : 1
  }, {
    "name" : "EAX2SampleOcclusionRoomRatio",
    "type" : "float",
    "index" : false,
    "arraySize" : 1
  }, {
    "name" : "EAX2SampleRoomRolloff",
    "type" : "float",
    "index" : false,
    "arraySize" : 1
  }, {
    "name" : "EAX2SampleAirAbsorption",
    "type" : "float",
    "index" : false,
    "arraySize" : 1
  }, {
    "name" : "EAX2SampleOutsideVolumeHF",
    "type" : "int",
    "index" : false,
    "arraySize" : 1
  }, {
    "name" : "EAX3SampleOcclusionDirectRatio",
    "type" : "float",
    "index" : false,
    "arraySize" : 1
  }, {
    "name" : "EAX3SampleExclusion",
    "type" : "float",
    "index" : false,
    "arraySize" : 1
  }, {
    "name" : "EAX3SampleExclusionLFRatio",
    "type" : "float",
    "index" : false,
    "arraySize" : 1
  }, {
    "name" : "EAX3SampleDopplerFactor",
    "type" : "float",
    "index" : false,
    "arraySize" : 1
  }, {
    "name" : "Fast2DPredelayTime",
    "type" : "float",
    "index" : false,
    "arraySize" : 1
  }, {
    "name" : "Fast2DDamping",
    "type" : "float",
    "index" : false,
    "arraySize" : 1
  }, {
    "name" : "Fast2DReverbTime",
    "type" : "float",
    "index" : false,
    "arraySize" : 1
  } ]
}