{
  "name" : "SoundBusName",
  "build" : 23835,
  "fields" : [ {
    "name" : "Field0",
    "type" : "string",
    "index" : false,
    "arraySize" : 1
  }, {
    "name" : "ID",
    "type" : "int",
    "index" : true,
    "arraySize" : 1
  } ]
}