{
  "name" : "SoundKitName",
  "build" : 24793,
  "fields" : [ {
    "name" : "ID",
    "type" : "int",
    "index" : true,
    "arraySize" : 1
  }, {
    "name" : "Field4",
    "type" : "string",
    "index" : false,
    "arraySize" : 1
  } ]
}