{
  "name" : "SourceInfo",
  "build" : 26231,
  "fields" : [ {
    "name" : "ID",
    "type" : "int",
    "index" : true,
    "arraySize" : 1
  }, {
    "name" : "SourceText",
    "type" : "string",
    "index" : false,
    "arraySize" : 1
  }, {
    "name" : "SourceTypeEnum",
    "type" : "byte",
    "index" : false,
    "arraySize" : 1
  }, {
    "name" : "PvpFaction",
    "type" : "byte",
    "index" : false,
    "arraySize" : 1
  } ]
}