{
  "name" : "SpecializationSpells",
  "build" : 26231,
  "fields" : [ {
    "name" : "Description",
    "type" : "string",
    "index" : false,
    "arraySize" : 1
  }, {
    "name" : "SpellId",
    "type" : "int",
    "index" : false,
    "arraySize" : 1
  }, {
    "name" : "OverridesSpellId",
    "type" : "int",
    "index" : false,
    "arraySize" : 1
  }, {
    "name" : "SpecId",
    "type" : "ushort",
    "index" : false,
    "arraySize" : 1
  }, {
    "name" : "DisplayOrder",
    "type" : "byte",
    "index" : false,
    "arraySize" : 1
  }, {
    "name" : "ID",
    "type" : "int",
    "index" : true,
    "arraySize" : 1
  } ]
}