{
  "name" : "SpellFlyout",
  "build" : 15595,
  "fields" : [ {
    "name" : "ID",
    "type" : "int",
    "index" : true,
    "arraySize" : 1
  }, {
    "name" : "ZerosField1",
    "type" : "int",
    "index" : false,
    "arraySize" : 1
  }, {
    "name" : "IntField2",
    "type" : "int",
    "index" : false,
    "arraySize" : 1
  }, {
    "name" : "FlagsField3",
    "type" : "uint",
    "index" : false,
    "arraySize" : 1
  }, {
    "name" : "SpellIconId",
    "type" : "uint",
    "index" : false,
    "arraySize" : 1
  }, {
    "name" : "Name",
    "type" : "string",
    "index" : false,
    "arraySize" : 1
  }, {
    "name" : "Description",
    "type" : "string",
    "index" : false,
    "arraySize" : 1
  } ]
}