{
  "name" : "SpellPower",
  "build" : 23835,
  "fields" : [ {
    "name" : "SpellID",
    "type" : "uint",
    "index" : false,
    "arraySize" : 1
  }, {
    "name" : "ManaCost",
    "type" : "uint",
    "index" : false,
    "arraySize" : 1
  }, {
    "name" : "ManaCostPercentage",
    "type" : "float",
    "index" : false,
    "arraySize" : 1
  }, {
    "name" : "ManaCostPercentagePerSecond",
    "type" : "float",
    "index" : false,
    "arraySize" : 1
  }, {
    "name" : "RequiredAura",
    "type" : "uint",
    "index" : false,
    "arraySize" : 1
  }, {
    "name" : "HealthCostPercentage",
    "type" : "float",
    "index" : false,
    "arraySize" : 1
  }, {
    "name" : "PowerIndex",
    "type" : "byte",
    "index" : false,
    "arraySize" : 1
  }, {
    "name" : "PowerType",
    "type" : "byte",
    "index" : false,
    "arraySize" : 1
  }, {
    "name" : "ID",
    "type" : "int",
    "index" : true,
    "arraySize" : 1
  }, {
    "name" : "ManaCostPerLevel",
    "type" : "int",
    "index" : false,
    "arraySize" : 1
  }, {
    "name" : "ManaCostPerSecond",
    "type" : "int",
    "index" : false,
    "arraySize" : 1
  }, {
    "name" : "ManaCostAdditional",
    "type" : "uint",
    "index" : false,
    "arraySize" : 1
  }, {
    "name" : "PowerDisplayID",
    "type" : "uint",
    "index" : false,
    "arraySize" : 1
  }, {
    "name" : "UnitPowerBarID",
    "type" : "uint",
    "index" : false,
    "arraySize" : 1
  } ]
}