{
  "name" : "SpellItemEnchantmentCondition",
  "build" : 26231,
  "fields" : [ {
    "name" : "ID",
    "type" : "int",
    "index" : true,
    "arraySize" : 1
  }, {
    "name" : "LtOperand",
    "type" : "int",
    "index" : false,
    "arraySize" : 1
  }, {
    "name" : "LtOperandType",
    "type" : "byte",
    "index" : false,
    "arraySize" : 1
  }, {
    "name" : "Operator",
    "type" : "byte",
    "index" : false,
    "arraySize" : 1
  }, {
    "name" : "RtOperandType",
    "type" : "byte",
    "index" : false,
    "arraySize" : 1
  }, {
    "name" : "RtOperand",
    "type" : "byte",
    "index" : false,
    "arraySize" : 1
  }, {
    "name" : "Logic",
    "type" : "byte",
    "index" : false,
    "arraySize" : 1
  } ]
}