{
  "name" : "SpellCastTimes",
  "build" : 24793,
  "fields" : [ {
    "name" : "ID",
    "type" : "int",
    "index" : true,
    "arraySize" : 1
  }, {
    "name" : "CastTime",
    "type" : "int",
    "index" : false,
    "arraySize" : 1
  }, {
    "name" : "MinCastTime",
    "type" : "int",
    "index" : false,
    "arraySize" : 1
  }, {
    "name" : "CastTimePerLevel",
    "type" : "short",
    "index" : false,
    "arraySize" : 1
  } ]
}