{
  "name" : "SpellEquippedItems",
  "build" : 26231,
  "fields" : [ {
    "name" : "ID",
    "type" : "int",
    "index" : true,
    "arraySize" : 1
  }, {
    "name" : "SpellId",
    "type" : "int",
    "index" : false,
    "arraySize" : 1
  }, {
    "name" : "EquippedItemInvTypes",
    "type" : "int",
    "index" : false,
    "arraySize" : 1
  }, {
    "name" : "EquippedItemSubclass",
    "type" : "int",
    "index" : false,
    "arraySize" : 1
  }, {
    "name" : "EquippedItemClass",
    "type" : "byte",
    "index" : false,
    "arraySize" : 1
  } ]
}