{
  "name" : "SpellItemEnchantment",
  "build" : 8606,
  "fields" : [ {
    "name" : "ID",
    "type" : "int",
    "index" : true,
    "arraySize" : 1
  }, {
    "name" : "Effect",
    "type" : "int",
    "index" : false,
    "arraySize" : 1
  }, {
    "name" : "EffectPointsMin",
    "type" : "int",
    "index" : false,
    "arraySize" : 1
  }, {
    "name" : "EffectPointsMax",
    "type" : "int",
    "index" : false,
    "arraySize" : 1
  }, {
    "name" : "EffectArg",
    "type" : "int",
    "index" : false,
    "arraySize" : 1
  }, {
    "name" : "Name_Lang",
    "type" : "loc",
    "index" : false,
    "arraySize" : 1
  }, {
    "name" : "ItemVisual",
    "type" : "int",
    "index" : false,
    "arraySize" : 1
  }, {
    "name" : "Flags",
    "type" : "int",
    "index" : false,
    "arraySize" : 1
  }, {
    "name" : "Src_ItemID",
    "type" : "int",
    "index" : false,
    "arraySize" : 1
  }, {
    "name" : "Condition_Id",
    "type" : "int",
    "index" : false,
    "arraySize" : 1
  } ]
}