{
  "name" : "SpellCastingRequirements",
  "build" : 24492,
  "fields" : [ {
    "name" : "ID",
    "type" : "int",
    "index" : true,
    "arraySize" : 1
  }, {
    "name" : "SpellID",
    "type" : "uint",
    "index" : false,
    "arraySize" : 1
  }, {
    "name" : "MinFactionID",
    "type" : "ushort",
    "index" : false,
    "arraySize" : 1
  }, {
    "name" : "RequiredAreasID",
    "type" : "ushort",
    "index" : false,
    "arraySize" : 1
  }, {
    "name" : "RequiresSpellFocus",
    "type" : "ushort",
    "index" : false,
    "arraySize" : 1
  }, {
    "name" : "FacingCasterFlags",
    "type" : "byte",
    "index" : false,
    "arraySize" : 1
  }, {
    "name" : "MinReputation",
    "type" : "byte",
    "index" : false,
    "arraySize" : 1
  }, {
    "name" : "RequiredAuraVision",
    "type" : "byte",
    "index" : false,
    "arraySize" : 1
  } ]
}