{
  "name" : "SpellChainEffects",
  "build" : 22248,
  "fields" : [ {
    "name" : "ID",
    "type" : "int",
    "index" : true,
    "arraySize" : 1
  }, {
    "name" : "Field00",
    "type" : "float",
    "index" : false,
    "arraySize" : 1
  }, {
    "name" : "Field04",
    "type" : "float",
    "index" : false,
    "arraySize" : 1
  }, {
    "name" : "Field08",
    "type" : "float",
    "index" : false,
    "arraySize" : 1
  }, {
    "name" : "Field0C",
    "type" : "float",
    "index" : false,
    "arraySize" : 1
  }, {
    "name" : "Field10",
    "type" : "int",
    "index" : false,
    "arraySize" : 1
  }, {
    "name" : "Field14",
    "type" : "int",
    "index" : false,
    "arraySize" : 1
  }, {
    "name" : "Field18",
    "type" : "float",
    "index" : false,
    "arraySize" : 1
  }, {
    "name" : "Field1C",
    "type" : "float",
    "index" : false,
    "arraySize" : 1
  }, {
    "name" : "Field20",
    "type" : "float",
    "index" : false,
    "arraySize" : 1
  }, {
    "name" : "Field24",
    "type" : "float",
    "index" : false,
    "arraySize" : 1
  }, {
    "name" : "Field28",
    "type" : "float",
    "index" : false,
    "arraySize" : 1
  }, {
    "name" : "Field2C",
    "type" : "float",
    "index" : false,
    "arraySize" : 1
  }, {
    "name" : "Field30",
    "type" : "float",
    "index" : false,
    "arraySize" : 1
  }, {
    "name" : "Field34",
    "type" : "float",
    "index" : false,
    "arraySize" : 1
  }, {
    "name" : "Field38",
    "type" : "float",
    "index" : false,
    "arraySize" : 1
  }, {
    "name" : "Field3C",
    "type" : "float",
    "index" : false,
    "arraySize" : 1
  }, {
    "name" : "Field40",
    "type" : "float",
    "index" : false,
    "arraySize" : 1
  }, {
    "name" : "Field44",
    "type" : "float",
    "index" : false,
    "arraySize" : 1
  }, {
    "name" : "Field48",
    "type" : "float",
    "index" : false,
    "arraySize" : 1
  }, {
    "name" : "Field4C",
    "type" : "float",
    "index" : false,
    "arraySize" : 1
  }, {
    "name" : "Field50",
    "type" : "float",
    "index" : false,
    "arraySize" : 1
  }, {
    "name" : "Field54",
    "type" : "float",
    "index" : false,
    "arraySize" : 1
  }, {
    "name" : "Field58",
    "type" : "float",
    "index" : false,
    "arraySize" : 1
  }, {
    "name" : "Field5C",
    "type" : "float",
    "index" : false,
    "arraySize" : 1
  }, {
    "name" : "Field60",
    "type" : "float",
    "index" : false,
    "arraySize" : 1
  }, {
    "name" : "Field64",
    "type" : "float",
    "index" : false,
    "arraySize" : 1
  }, {
    "name" : "Field68",
    "type" : "float",
    "index" : false,
    "arraySize" : 1
  }, {
    "name" : "Field6C",
    "type" : "float",
    "index" : false,
    "arraySize" : 1
  }, {
    "name" : "Field70",
    "type" : "float",
    "index" : false,
    "arraySize" : 1
  }, {
    "name" : "Field74",
    "type" : "float",
    "index" : false,
    "arraySize" : 1
  }, {
    "name" : "Field78",
    "type" : "float",
    "index" : false,
    "arraySize" : 1
  }, {
    "name" : "Field7C",
    "type" : "float",
    "index" : false,
    "arraySize" : 1
  }, {
    "name" : "Field80",
    "type" : "float",
    "index" : false,
    "arraySize" : 1
  }, {
    "name" : "Field84",
    "type" : "float",
    "index" : false,
    "arraySize" : 1
  }, {
    "name" : "Field88",
    "type" : "float",
    "index" : false,
    "arraySize" : 1
  }, {
    "name" : "Field8C",
    "type" : "float",
    "index" : false,
    "arraySize" : 1
  }, {
    "name" : "Field90",
    "type" : "float",
    "index" : false,
    "arraySize" : 1
  }, {
    "name" : "Field94",
    "type" : "float",
    "index" : false,
    "arraySize" : 1
  }, {
    "name" : "FieldA0",
    "type" : "float",
    "index" : false,
    "arraySize" : 1
  }, {
    "name" : "FieldAC",
    "type" : "float",
    "index" : false,
    "arraySize" : 1
  }, {
    "name" : "FieldB8",
    "type" : "float",
    "index" : false,
    "arraySize" : 1
  }, {
    "name" : "FieldC4",
    "type" : "int",
    "index" : false,
    "arraySize" : 1
  }, {
    "name" : "FieldC8",
    "type" : "float",
    "index" : false,
    "arraySize" : 1
  }, {
    "name" : "FieldCC",
    "type" : "float",
    "index" : false,
    "arraySize" : 1
  }, {
    "name" : "FieldD0",
    "type" : "string",
    "index" : false,
    "arraySize" : 1
  }, {
    "name" : "FieldDC",
    "type" : "string",
    "index" : false,
    "arraySize" : 1
  }, {
    "name" : "FieldE0",
    "type" : "ushort",
    "index" : false,
    "arraySize" : 1
  }, {
    "name" : "FieldE2",
    "type" : "ushort",
    "index" : false,
    "arraySize" : 1
  }, {
    "name" : "FieldE4",
    "type" : "ushort",
    "index" : false,
    "arraySize" : 1
  }, {
    "name" : "FieldFA",
    "type" : "ushort",
    "index" : false,
    "arraySize" : 1
  }, {
    "name" : "FieldFC",
    "type" : "byte",
    "index" : false,
    "arraySize" : 1
  }, {
    "name" : "FieldFD",
    "type" : "byte",
    "index" : false,
    "arraySize" : 1
  }, {
    "name" : "FieldFE",
    "type" : "byte",
    "index" : false,
    "arraySize" : 1
  }, {
    "name" : "FieldFF",
    "type" : "byte",
    "index" : false,
    "arraySize" : 1
  }, {
    "name" : "Field100",
    "type" : "byte",
    "index" : false,
    "arraySize" : 1
  }, {
    "name" : "Field101",
    "type" : "byte",
    "index" : false,
    "arraySize" : 1
  }, {
    "name" : "Field102",
    "type" : "byte",
    "index" : false,
    "arraySize" : 1
  }, {
    "name" : "Field103",
    "type" : "byte",
    "index" : false,
    "arraySize" : 1
  }, {
    "name" : "Field104",
    "type" : "byte",
    "index" : false,
    "arraySize" : 1
  }, {
    "name" : "Field105",
    "type" : "byte",
    "index" : false,
    "arraySize" : 1
  }, {
    "name" : "Field106",
    "type" : "byte",
    "index" : false,
    "arraySize" : 1
  }, {
    "name" : "Field107",
    "type" : "int",
    "index" : false,
    "arraySize" : 1
  } ]
}