{
  "name" : "SpellLevels",
  "build" : 23835,
  "fields" : [ {
    "name" : "ID",
    "type" : "int",
    "index" : true,
    "arraySize" : 1
  }, {
    "name" : "SpellID",
    "type" : "uint",
    "index" : false,
    "arraySize" : 1
  }, {
    "name" : "BaseLevel",
    "type" : "ushort",
    "index" : false,
    "arraySize" : 1
  }, {
    "name" : "MaxLevel",
    "type" : "ushort",
    "index" : false,
    "arraySize" : 1
  }, {
    "name" : "SpellLevel",
    "type" : "ushort",
    "index" : false,
    "arraySize" : 1
  }, {
    "name" : "DifficultyID",
    "type" : "byte",
    "index" : false,
    "arraySize" : 1
  }, {
    "name" : "MaxUsableLevel",
    "type" : "byte",
    "index" : false,
    "arraySize" : 1
  } ]
}