{
  "name" : "SpellTargetRestrictions",
  "build" : 25632,
  "fields" : [ {
    "name" : "ID",
    "type" : "int",
    "index" : true,
    "arraySize" : 1
  }, {
    "name" : "ConeAngle",
    "type" : "float",
    "index" : false,
    "arraySize" : 1
  }, {
    "name" : "Width",
    "type" : "float",
    "index" : false,
    "arraySize" : 1
  }, {
    "name" : "Targets",
    "type" : "uint",
    "index" : false,
    "arraySize" : 1
  }, {
    "name" : "TargetCreatureType",
    "type" : "ushort",
    "index" : false,
    "arraySize" : 1
  }, {
    "name" : "DifficultyID",
    "type" : "byte",
    "index" : false,
    "arraySize" : 1
  }, {
    "name" : "MaxAffectedTargets",
    "type" : "byte",
    "index" : false,
    "arraySize" : 1
  }, {
    "name" : "MaxTargetLevel",
    "type" : "uint",
    "index" : false,
    "arraySize" : 1
  } ]
}