{
  "name" : "SpellXSpellVisual",
  "build" : 26231,
  "fields" : [ {
    "name" : "SpellVisualId",
    "type" : "int",
    "index" : false,
    "arraySize" : 1
  }, {
    "name" : "ID",
    "type" : "int",
    "index" : true,
    "arraySize" : 1
  }, {
    "name" : "Probability",
    "type" : "float",
    "index" : false,
    "arraySize" : 1
  }, {
    "name" : "CasterPlayerConditionId",
    "type" : "ushort",
    "index" : false,
    "arraySize" : 1
  }, {
    "name" : "CasterUnitConditionId",
    "type" : "ushort",
    "index" : false,
    "arraySize" : 1
  }, {
    "name" : "ViewerPlayerConditionId",
    "type" : "ushort",
    "index" : false,
    "arraySize" : 1
  }, {
    "name" : "ViewerUnitConditionId",
    "type" : "ushort",
    "index" : false,
    "arraySize" : 1
  }, {
    "name" : "SpellIconFileId",
    "type" : "int",
    "index" : false,
    "arraySize" : 1
  }, {
    "name" : "ActiveIconFileId",
    "type" : "int",
    "index" : false,
    "arraySize" : 1
  }, {
    "name" : "Flags",
    "type" : "byte",
    "index" : false,
    "arraySize" : 1
  }, {
    "name" : "DifficultyId",
    "type" : "byte",
    "index" : false,
    "arraySize" : 1
  }, {
    "name" : "Priority",
    "type" : "byte",
    "index" : false,
    "arraySize" : 1
  } ]
}