{
  "name" : "SpellDispelType",
  "build" : 12340,
  "fields" : [ {
    "name" : "ID",
    "type" : "int",
    "index" : true,
    "arraySize" : 1
  }, {
    "name" : "Name_Lang",
    "type" : "loc",
    "index" : false,
    "arraySize" : 1
  }, {
    "name" : "Mask",
    "type" : "int",
    "index" : false,
    "arraySize" : 1
  }, {
    "name" : "ImmunityPossible",
    "type" : "int",
    "index" : false,
    "arraySize" : 1
  }, {
    "name" : "InternalName",
    "type" : "string",
    "index" : false,
    "arraySize" : 1
  } ]
}