{
  "name" : "SpellCooldowns",
  "build" : 21742,
  "fields" : [ {
    "name" : "ID",
    "type" : "int",
    "index" : true,
    "arraySize" : 1
  }, {
    "name" : "SpellID",
    "type" : "int",
    "index" : false,
    "arraySize" : 1
  }, {
    "name" : "DifficultyID",
    "type" : "int",
    "index" : false,
    "arraySize" : 1
  }, {
    "name" : "CategoryRecoveryTime",
    "type" : "int",
    "index" : false,
    "arraySize" : 1
  }, {
    "name" : "RecoveryTime",
    "type" : "int",
    "index" : false,
    "arraySize" : 1
  }, {
    "name" : "StartRecoveryTime",
    "type" : "int",
    "index" : false,
    "arraySize" : 1
  } ]
}