{
  "name" : "SpellCooldowns",
  "build" : 18414,
  "fields" : [ {
    "name" : "ID",
    "type" : "int",
    "index" : true,
    "arraySize" : 1
  }, {
    "name" : "CategoryRecoveryTime",
    "type" : "int",
    "index" : false,
    "arraySize" : 1
  }, {
    "name" : "RecoveryTime",
    "type" : "int",
    "index" : false,
    "arraySize" : 1
  }, {
    "name" : "StartRecoveryTime",
    "type" : "int",
    "index" : false,
    "arraySize" : 1
  }, {
    "name" : "Field04",
    "type" : "int",
    "index" : false,
    "arraySize" : 1
  }, {
    "name" : "Field05",
    "type" : "int",
    "index" : false,
    "arraySize" : 1
  } ]
}