{
  "name" : "SpellCategories",
  "build" : 26231,
  "fields" : [ {
    "name" : "ID",
    "type" : "int",
    "index" : true,
    "arraySize" : 1
  }, {
    "name" : "Category",
    "type" : "ushort",
    "index" : false,
    "arraySize" : 1
  }, {
    "name" : "StartRecoveryCategory",
    "type" : "ushort",
    "index" : false,
    "arraySize" : 1
  }, {
    "name" : "ChargeCategory",
    "type" : "ushort",
    "index" : false,
    "arraySize" : 1
  }, {
    "name" : "DifficultyId",
    "type" : "byte",
    "index" : false,
    "arraySize" : 1
  }, {
    "name" : "DefenseType",
    "type" : "byte",
    "index" : false,
    "arraySize" : 1
  }, {
    "name" : "DispelType",
    "type" : "byte",
    "index" : false,
    "arraySize" : 1
  }, {
    "name" : "Mechanic",
    "type" : "byte",
    "index" : false,
    "arraySize" : 1
  }, {
    "name" : "PreventionType",
    "type" : "byte",
    "index" : false,
    "arraySize" : 1
  } ]
}