{
  "name" : "SpellReagents",
  "build" : 21742,
  "fields" : [ {
    "name" : "ID",
    "type" : "int",
    "index" : true,
    "arraySize" : 1
  }, {
    "name" : "SpellID",
    "type" : "int",
    "index" : false,
    "arraySize" : 1
  }, {
    "name" : "Reagent",
    "type" : "int",
    "index" : false,
    "arraySize" : 1
  }, {
    "name" : "ReagentCount",
    "type" : "ushort",
    "index" : false,
    "arraySize" : 1
  } ]
}