{
  "name" : "SpellAuraRestrictions",
  "build" : 26231,
  "fields" : [ {
    "name" : "ID",
    "type" : "int",
    "index" : true,
    "arraySize" : 1
  }, {
    "name" : "CasterAuraSpell",
    "type" : "int",
    "index" : false,
    "arraySize" : 1
  }, {
    "name" : "TargetAuraSpell",
    "type" : "int",
    "index" : false,
    "arraySize" : 1
  }, {
    "name" : "ExcludeCasterAuraSpell",
    "type" : "int",
    "index" : false,
    "arraySize" : 1
  }, {
    "name" : "ExcludeTargetAuraSpell",
    "type" : "int",
    "index" : false,
    "arraySize" : 1
  }, {
    "name" : "DifficultyId",
    "type" : "byte",
    "index" : false,
    "arraySize" : 1
  }, {
    "name" : "CasterAuraState",
    "type" : "byte",
    "index" : false,
    "arraySize" : 1
  }, {
    "name" : "TargetAuraState",
    "type" : "byte",
    "index" : false,
    "arraySize" : 1
  }, {
    "name" : "ExcludeCasterAuraState",
    "type" : "byte",
    "index" : false,
    "arraySize" : 1
  }, {
    "name" : "ExcludeTargetAuraState",
    "type" : "byte",
    "index" : false,
    "arraySize" : 1
  } ]
}