{
  "name" : "SpellXSpellVisual",
  "build" : 23835,
  "fields" : [ {
    "name" : "SpellID",
    "type" : "uint",
    "index" : false,
    "arraySize" : 1
  }, {
    "name" : "SpellVisualID",
    "type" : "uint",
    "index" : false,
    "arraySize" : 1
  }, {
    "name" : "ID",
    "type" : "int",
    "index" : true,
    "arraySize" : 1
  }, {
    "name" : "Chance",
    "type" : "float",
    "index" : false,
    "arraySize" : 1
  }, {
    "name" : "CasterPlayerConditionID",
    "type" : "ushort",
    "index" : false,
    "arraySize" : 1
  }, {
    "name" : "CasterUnitConditionID",
    "type" : "ushort",
    "index" : false,
    "arraySize" : 1
  }, {
    "name" : "PlayerConditionID",
    "type" : "ushort",
    "index" : false,
    "arraySize" : 1
  }, {
    "name" : "UnitConditionID",
    "type" : "ushort",
    "index" : false,
    "arraySize" : 1
  }, {
    "name" : "IconFileDataID",
    "type" : "uint",
    "index" : false,
    "arraySize" : 1
  }, {
    "name" : "ActiveIconFileDataID",
    "type" : "uint",
    "index" : false,
    "arraySize" : 1
  }, {
    "name" : "Flags",
    "type" : "byte",
    "index" : false,
    "arraySize" : 1
  }, {
    "name" : "DifficultyID",
    "type" : "byte",
    "index" : false,
    "arraySize" : 1
  }, {
    "name" : "Priority",
    "type" : "byte",
    "index" : false,
    "arraySize" : 1
  } ]
}