{
  "name" : "SpellActivationOverlay",
  "build" : 26231,
  "fields" : [ {
    "name" : "ID",
    "type" : "int",
    "index" : true,
    "arraySize" : 1
  }, {
    "name" : "SpellId",
    "type" : "int",
    "index" : false,
    "arraySize" : 1
  }, {
    "name" : "OverlayFileDataId",
    "type" : "int",
    "index" : false,
    "arraySize" : 1
  }, {
    "name" : "Color",
    "type" : "uint",
    "index" : false,
    "arraySize" : 1
  }, {
    "name" : "Scale",
    "type" : "float",
    "index" : false,
    "arraySize" : 1
  }, {
    "name" : "IconHighlightSpellClassMask",
    "type" : "uint",
    "index" : false,
    "arraySize" : 1
  }, {
    "name" : "ScreenLocationId",
    "type" : "byte",
    "index" : false,
    "arraySize" : 1
  }, {
    "name" : "TriggerType",
    "type" : "byte",
    "index" : false,
    "arraySize" : 1
  }, {
    "name" : "SoundEntriesId",
    "type" : "int",
    "index" : false,
    "arraySize" : 1
  } ]
}