{
  "name" : "SpellVisualKit",
  "build" : 5875,
  "fields" : [ {
    "name" : "ID",
    "type" : "int",
    "index" : true,
    "arraySize" : 1
  }, {
    "name" : "StartAnimID",
    "type" : "int",
    "index" : false,
    "arraySize" : 1
  }, {
    "name" : "AnimID",
    "type" : "int",
    "index" : false,
    "arraySize" : 1
  }, {
    "name" : "AnimKitID",
    "type" : "int",
    "index" : false,
    "arraySize" : 1
  }, {
    "name" : "HeadEffect",
    "type" : "int",
    "index" : false,
    "arraySize" : 1
  }, {
    "name" : "ChestEffect",
    "type" : "int",
    "index" : false,
    "arraySize" : 1
  }, {
    "name" : "BaseEffect",
    "type" : "int",
    "index" : false,
    "arraySize" : 1
  }, {
    "name" : "LeftHandEffect",
    "type" : "int",
    "index" : false,
    "arraySize" : 1
  }, {
    "name" : "RightHandEffect",
    "type" : "int",
    "index" : false,
    "arraySize" : 1
  }, {
    "name" : "BreathEffect",
    "type" : "int",
    "index" : false,
    "arraySize" : 1
  }, {
    "name" : "LeftWeaponEffect",
    "type" : "int",
    "index" : false,
    "arraySize" : 1
  }, {
    "name" : "RightWeaponEffect",
    "type" : "int",
    "index" : false,
    "arraySize" : 1
  }, {
    "name" : "SpecialEffect",
    "type" : "int",
    "index" : false,
    "arraySize" : 1
  }, {
    "name" : "WorldEffect",
    "type" : "int",
    "index" : false,
    "arraySize" : 1
  }, {
    "name" : "SoundID",
    "type" : "int",
    "index" : false,
    "arraySize" : 1
  }, {
    "name" : "ShakeID",
    "type" : "int",
    "index" : false,
    "arraySize" : 1
  }, {
    "name" : "CharProc",
    "type" : "int",
    "index" : false,
    "arraySize" : 1
  }, {
    "name" : "CharParamZero",
    "type" : "float",
    "index" : false,
    "arraySize" : 1
  }, {
    "name" : "CharParamOne",
    "type" : "float",
    "index" : false,
    "arraySize" : 1
  }, {
    "name" : "CharParamTwo",
    "type" : "float",
    "index" : false,
    "arraySize" : 1
  }, {
    "name" : "Flags",
    "type" : "int",
    "index" : false,
    "arraySize" : 1
  } ]
}