{
  "name" : "SpellClassOptions",
  "build" : 24793,
  "fields" : [ {
    "name" : "ID",
    "type" : "int",
    "index" : true,
    "arraySize" : 1
  }, {
    "name" : "SpellID",
    "type" : "uint",
    "index" : false,
    "arraySize" : 1
  }, {
    "name" : "SpellClassSet",
    "type" : "byte",
    "index" : false,
    "arraySize" : 1
  }, {
    "name" : "ModalNextSpell",
    "type" : "uint",
    "index" : false,
    "arraySize" : 1
  } ]
}