{
  "name" : "SpellChainEffects",
  "build" : 8606,
  "fields" : [ {
    "name" : "ID",
    "type" : "int",
    "index" : true,
    "arraySize" : 1
  }, {
    "name" : "AvgSegLen",
    "type" : "float",
    "index" : false,
    "arraySize" : 1
  }, {
    "name" : "Width",
    "type" : "float",
    "index" : false,
    "arraySize" : 1
  }, {
    "name" : "NoiseScale",
    "type" : "float",
    "index" : false,
    "arraySize" : 1
  }, {
    "name" : "TexCoordScale",
    "type" : "float",
    "index" : false,
    "arraySize" : 1
  }, {
    "name" : "SegDuration",
    "type" : "int",
    "index" : false,
    "arraySize" : 1
  }, {
    "name" : "SegDelay",
    "type" : "int",
    "index" : false,
    "arraySize" : 1
  }, {
    "name" : "Texture",
    "type" : "string",
    "index" : false,
    "arraySize" : 1
  }, {
    "name" : "Flags",
    "type" : "int",
    "index" : false,
    "arraySize" : 1
  }, {
    "name" : "JointCount",
    "type" : "int",
    "index" : false,
    "arraySize" : 1
  }, {
    "name" : "JointOffsetRadius",
    "type" : "float",
    "index" : false,
    "arraySize" : 1
  }, {
    "name" : "JointsPerMinorJoint",
    "type" : "int",
    "index" : false,
    "arraySize" : 1
  }, {
    "name" : "MinorJointsPerMajorJoint",
    "type" : "int",
    "index" : false,
    "arraySize" : 1
  }, {
    "name" : "MinorJointScale",
    "type" : "float",
    "index" : false,
    "arraySize" : 1
  }, {
    "name" : "MajorJointScale",
    "type" : "float",
    "index" : false,
    "arraySize" : 1
  }, {
    "name" : "JointMoveSpeed",
    "type" : "float",
    "index" : false,
    "arraySize" : 1
  }, {
    "name" : "JointSmoothness",
    "type" : "float",
    "index" : false,
    "arraySize" : 1
  }, {
    "name" : "MinDurationBetweenJointJumps",
    "type" : "float",
    "index" : false,
    "arraySize" : 1
  }, {
    "name" : "MaxDurationBetweenJointJumps",
    "type" : "float",
    "index" : false,
    "arraySize" : 1
  }, {
    "name" : "WaveHeight",
    "type" : "float",
    "index" : false,
    "arraySize" : 1
  }, {
    "name" : "WaveFreq",
    "type" : "float",
    "index" : false,
    "arraySize" : 1
  }, {
    "name" : "WaveSpeed",
    "type" : "float",
    "index" : false,
    "arraySize" : 1
  }, {
    "name" : "MinWaveAngle",
    "type" : "float",
    "index" : false,
    "arraySize" : 1
  }, {
    "name" : "MaxWaveAngle",
    "type" : "float",
    "index" : false,
    "arraySize" : 1
  }, {
    "name" : "MinWaveSpin",
    "type" : "float",
    "index" : false,
    "arraySize" : 1
  }, {
    "name" : "MaxWaveSpin",
    "type" : "float",
    "index" : false,
    "arraySize" : 1
  }, {
    "name" : "ArcHeight",
    "type" : "float",
    "index" : false,
    "arraySize" : 1
  }, {
    "name" : "MinArcAngle",
    "type" : "float",
    "index" : false,
    "arraySize" : 1
  }, {
    "name" : "MaxArcAngle",
    "type" : "float",
    "index" : false,
    "arraySize" : 1
  }, {
    "name" : "MinArcSpin",
    "type" : "float",
    "index" : false,
    "arraySize" : 1
  }, {
    "name" : "MaxArcSpin",
    "type" : "float",
    "index" : false,
    "arraySize" : 1
  }, {
    "name" : "DelayBetweenEffects",
    "type" : "float",
    "index" : false,
    "arraySize" : 1
  }, {
    "name" : "MinFlickerOnDuration",
    "type" : "float",
    "index" : false,
    "arraySize" : 1
  }, {
    "name" : "MaxFlickerOnDuration",
    "type" : "float",
    "index" : false,
    "arraySize" : 1
  }, {
    "name" : "MinFlickerOffDuration",
    "type" : "float",
    "index" : false,
    "arraySize" : 1
  }, {
    "name" : "MaxFlickerOffDuration",
    "type" : "float",
    "index" : false,
    "arraySize" : 1
  }, {
    "name" : "PulseSpeed",
    "type" : "float",
    "index" : false,
    "arraySize" : 1
  }, {
    "name" : "PulseOnLength",
    "type" : "float",
    "index" : false,
    "arraySize" : 1
  }, {
    "name" : "PulseFadeLength",
    "type" : "float",
    "index" : false,
    "arraySize" : 1
  }, {
    "name" : "Alpha",
    "type" : "byte",
    "index" : false,
    "arraySize" : 1
  }, {
    "name" : "Red",
    "type" : "byte",
    "index" : false,
    "arraySize" : 1
  }, {
    "name" : "Green",
    "type" : "byte",
    "index" : false,
    "arraySize" : 1
  }, {
    "name" : "Blue",
    "type" : "byte",
    "index" : false,
    "arraySize" : 1
  }, {
    "name" : "BlendMode",
    "type" : "byte",
    "index" : false,
    "arraySize" : 1
  }, {
    "name" : "Combo",
    "type" : "int",
    "index" : false,
    "arraySize" : 1
  }, {
    "name" : "RenderLayer",
    "type" : "int",
    "index" : false,
    "arraySize" : 1
  }, {
    "name" : "TextureLength",
    "type" : "float",
    "index" : false,
    "arraySize" : 1
  } ]
}