{
  "name" : "SpellCategory",
  "build" : 24492,
  "fields" : [ {
    "name" : "ID",
    "type" : "int",
    "index" : true,
    "arraySize" : 1
  }, {
    "name" : "Name",
    "type" : "string",
    "index" : false,
    "arraySize" : 1
  }, {
    "name" : "ChargeRecoveryTime",
    "type" : "int",
    "index" : false,
    "arraySize" : 1
  }, {
    "name" : "Flags",
    "type" : "byte",
    "index" : false,
    "arraySize" : 1
  }, {
    "name" : "UsesPerWeek",
    "type" : "byte",
    "index" : false,
    "arraySize" : 1
  }, {
    "name" : "MaxCharges",
    "type" : "byte",
    "index" : false,
    "arraySize" : 1
  }, {
    "name" : "ChargeCategoryType",
    "type" : "uint",
    "index" : false,
    "arraySize" : 1
  } ]
}