{
  "name" : "SpellShapeshiftForm",
  "build" : 5875,
  "fields" : [ {
    "name" : "ID",
    "type" : "int",
    "index" : true,
    "arraySize" : 1
  }, {
    "name" : "BonusActionBar",
    "type" : "int",
    "index" : false,
    "arraySize" : 1
  }, {
    "name" : "Name",
    "type" : "loc",
    "index" : false,
    "arraySize" : 1
  }, {
    "name" : "Flags",
    "type" : "int",
    "index" : false,
    "arraySize" : 1
  }, {
    "name" : "CreatureType",
    "type" : "int",
    "index" : false,
    "arraySize" : 1
  }, {
    "name" : "CombatRoundTime",
    "type" : "int",
    "index" : false,
    "arraySize" : 1
  } ]
}