{
  "name" : "Spell",
  "build" : 5875,
  "fields" : [ {
    "name" : "ID",
    "type" : "int",
    "index" : true,
    "arraySize" : 1
  }, {
    "name" : "School",
    "type" : "int",
    "index" : false,
    "arraySize" : 1
  }, {
    "name" : "Category",
    "type" : "int",
    "index" : false,
    "arraySize" : 1
  }, {
    "name" : "CastUI",
    "type" : "int",
    "index" : false,
    "arraySize" : 1
  }, {
    "name" : "DispelType",
    "type" : "int",
    "index" : false,
    "arraySize" : 1
  }, {
    "name" : "Mechanic",
    "type" : "int",
    "index" : false,
    "arraySize" : 1
  }, {
    "name" : "Attributes",
    "type" : "int",
    "index" : false,
    "arraySize" : 1
  }, {
    "name" : "AttributesEx",
    "type" : "int",
    "index" : false,
    "arraySize" : 1
  }, {
    "name" : "AttributesEx2",
    "type" : "int",
    "index" : false,
    "arraySize" : 1
  }, {
    "name" : "AttributesEx3",
    "type" : "int",
    "index" : false,
    "arraySize" : 1
  }, {
    "name" : "AttributesEx4",
    "type" : "int",
    "index" : false,
    "arraySize" : 1
  }, {
    "name" : "ShapeshiftMask",
    "type" : "int",
    "index" : false,
    "arraySize" : 1
  }, {
    "name" : "Shapeshiftexclude",
    "type" : "int",
    "index" : false,
    "arraySize" : 1
  }, {
    "name" : "Targets",
    "type" : "int",
    "index" : false,
    "arraySize" : 1
  }, {
    "name" : "TargetCreatureType",
    "type" : "int",
    "index" : false,
    "arraySize" : 1
  }, {
    "name" : "RequiresSpellFocus",
    "type" : "int",
    "index" : false,
    "arraySize" : 1
  }, {
    "name" : "CasterAuraState",
    "type" : "int",
    "index" : false,
    "arraySize" : 1
  }, {
    "name" : "TargetAuraState",
    "type" : "int",
    "index" : false,
    "arraySize" : 1
  }, {
    "name" : "CastingTimeIndex",
    "type" : "int",
    "index" : false,
    "arraySize" : 1
  }, {
    "name" : "RecoveryTime",
    "type" : "int",
    "index" : false,
    "arraySize" : 1
  }, {
    "name" : "CategoryRecoveryTime",
    "type" : "int",
    "index" : false,
    "arraySize" : 1
  }, {
    "name" : "InterruptFlags",
    "type" : "int",
    "index" : false,
    "arraySize" : 1
  }, {
    "name" : "AuraInterruptFlags",
    "type" : "int",
    "index" : false,
    "arraySize" : 1
  }, {
    "name" : "ChannelInterruptFlags",
    "type" : "int",
    "index" : false,
    "arraySize" : 1
  }, {
    "name" : "ProcTypeMask",
    "type" : "int",
    "index" : false,
    "arraySize" : 1
  }, {
    "name" : "ProcChance",
    "type" : "int",
    "index" : false,
    "arraySize" : 1
  }, {
    "name" : "ProcCharges",
    "type" : "int",
    "index" : false,
    "arraySize" : 1
  }, {
    "name" : "MaxLevel",
    "type" : "int",
    "index" : false,
    "arraySize" : 1
  }, {
    "name" : "BaseLevel",
    "type" : "int",
    "index" : false,
    "arraySize" : 1
  }, {
    "name" : "SpellLevel",
    "type" : "int",
    "index" : false,
    "arraySize" : 1
  }, {
    "name" : "DurationIndex",
    "type" : "int",
    "index" : false,
    "arraySize" : 1
  }, {
    "name" : "PowerType",
    "type" : "int",
    "index" : false,
    "arraySize" : 1
  }, {
    "name" : "ManaCost",
    "type" : "int",
    "index" : false,
    "arraySize" : 1
  }, {
    "name" : "ManaCostPerLevel",
    "type" : "int",
    "index" : false,
    "arraySize" : 1
  }, {
    "name" : "ManaCostPerSecond",
    "type" : "int",
    "index" : false,
    "arraySize" : 1
  }, {
    "name" : "ManaCostPerSecondPerLevel",
    "type" : "int",
    "index" : false,
    "arraySize" : 1
  }, {
    "name" : "RangeIndex",
    "type" : "int",
    "index" : false,
    "arraySize" : 1
  }, {
    "name" : "Speed",
    "type" : "float",
    "index" : false,
    "arraySize" : 1
  }, {
    "name" : "ModalNextSpell",
    "type" : "int",
    "index" : false,
    "arraySize" : 1
  }, {
    "name" : "StackAmount",
    "type" : "int",
    "index" : false,
    "arraySize" : 1
  }, {
    "name" : "Totem",
    "type" : "int",
    "index" : false,
    "arraySize" : 1
  }, {
    "name" : "Reagent",
    "type" : "int",
    "index" : false,
    "arraySize" : 1
  }, {
    "name" : "ReagentCount",
    "type" : "int",
    "index" : false,
    "arraySize" : 1
  }, {
    "name" : "EquippedItemClass",
    "type" : "int",
    "index" : false,
    "arraySize" : 1
  }, {
    "name" : "EquippedItemSubclass",
    "type" : "int",
    "index" : false,
    "arraySize" : 1
  }, {
    "name" : "EquippedItemInvType",
    "type" : "int",
    "index" : false,
    "arraySize" : 1
  }, {
    "name" : "Effect",
    "type" : "int",
    "index" : false,
    "arraySize" : 1
  }, {
    "name" : "EffectDieSides",
    "type" : "int",
    "index" : false,
    "arraySize" : 1
  }, {
    "name" : "EffectBaseDice",
    "type" : "int",
    "index" : false,
    "arraySize" : 1
  }, {
    "name" : "EffectDicePerLevel",
    "type" : "float",
    "index" : false,
    "arraySize" : 1
  }, {
    "name" : "EffectRealPointsPerLevel",
    "type" : "float",
    "index" : false,
    "arraySize" : 1
  }, {
    "name" : "EffectBasePoints",
    "type" : "int",
    "index" : false,
    "arraySize" : 1
  }, {
    "name" : "EffectMechanic",
    "type" : "int",
    "index" : false,
    "arraySize" : 1
  }, {
    "name" : "ImplicitTargetA",
    "type" : "int",
    "index" : false,
    "arraySize" : 1
  }, {
    "name" : "ImplicitTargetB",
    "type" : "int",
    "index" : false,
    "arraySize" : 1
  }, {
    "name" : "EffectRadiusIndex",
    "type" : "int",
    "index" : false,
    "arraySize" : 1
  }, {
    "name" : "EffectAura",
    "type" : "int",
    "index" : false,
    "arraySize" : 1
  }, {
    "name" : "EffectAmplitude",
    "type" : "int",
    "index" : false,
    "arraySize" : 1
  }, {
    "name" : "EffectMultipleValue",
    "type" : "float",
    "index" : false,
    "arraySize" : 1
  }, {
    "name" : "EffectChainTarget",
    "type" : "int",
    "index" : false,
    "arraySize" : 1
  }, {
    "name" : "EffectItemType",
    "type" : "int",
    "index" : false,
    "arraySize" : 1
  }, {
    "name" : "EffectMiscValue",
    "type" : "int",
    "index" : false,
    "arraySize" : 1
  }, {
    "name" : "EffectTriggerSpell",
    "type" : "int",
    "index" : false,
    "arraySize" : 1
  }, {
    "name" : "EffectPointsPerCombo",
    "type" : "float",
    "index" : false,
    "arraySize" : 1
  }, {
    "name" : "SpellVisualID",
    "type" : "int",
    "index" : false,
    "arraySize" : 1
  }, {
    "name" : "SpellIconID",
    "type" : "int",
    "index" : false,
    "arraySize" : 1
  }, {
    "name" : "ActiveIconID",
    "type" : "int",
    "index" : false,
    "arraySize" : 1
  }, {
    "name" : "SpellPriority",
    "type" : "int",
    "index" : false,
    "arraySize" : 1
  }, {
    "name" : "Name",
    "type" : "loc",
    "index" : false,
    "arraySize" : 1
  }, {
    "name" : "NameSubtext",
    "type" : "loc",
    "index" : false,
    "arraySize" : 1
  }, {
    "name" : "Description",
    "type" : "loc",
    "index" : false,
    "arraySize" : 1
  }, {
    "name" : "AuraDescription",
    "type" : "loc",
    "index" : false,
    "arraySize" : 1
  }, {
    "name" : "ManaCostPct",
    "type" : "int",
    "index" : false,
    "arraySize" : 1
  }, {
    "name" : "StartRecoveryCategory",
    "type" : "int",
    "index" : false,
    "arraySize" : 1
  }, {
    "name" : "StartRecoveryTime",
    "type" : "int",
    "index" : false,
    "arraySize" : 1
  }, {
    "name" : "MaxTargetLevel",
    "type" : "int",
    "index" : false,
    "arraySize" : 1
  }, {
    "name" : "SpellClassSet",
    "type" : "int",
    "index" : false,
    "arraySize" : 1
  }, {
    "name" : "SpellClassMask",
    "type" : "int",
    "index" : false,
    "arraySize" : 1
  }, {
    "name" : "MaxTargets",
    "type" : "int",
    "index" : false,
    "arraySize" : 1
  }, {
    "name" : "DefenseType",
    "type" : "int",
    "index" : false,
    "arraySize" : 1
  }, {
    "name" : "PreventionType",
    "type" : "int",
    "index" : false,
    "arraySize" : 1
  }, {
    "name" : "StanceBarOrder",
    "type" : "int",
    "index" : false,
    "arraySize" : 1
  }, {
    "name" : "DamageMultiplier",
    "type" : "float",
    "index" : false,
    "arraySize" : 1
  }, {
    "name" : "MinFactionId",
    "type" : "int",
    "index" : false,
    "arraySize" : 1
  }, {
    "name" : "MinReputation",
    "type" : "int",
    "index" : false,
    "arraySize" : 1
  }, {
    "name" : "RequiredAuraVision",
    "type" : "int",
    "index" : false,
    "arraySize" : 1
  } ]
}