{
  "name" : "Spellchaineffects",
  "build" : 25632,
  "fields" : [ {
    "name" : "ID",
    "type" : "int",
    "index" : true,
    "arraySize" : 1
  }, {
    "name" : "Field01",
    "type" : "float",
    "index" : false,
    "arraySize" : 1
  }, {
    "name" : "Field02",
    "type" : "float",
    "index" : false,
    "arraySize" : 1
  }, {
    "name" : "Field03",
    "type" : "float",
    "index" : false,
    "arraySize" : 1
  }, {
    "name" : "Field04",
    "type" : "int",
    "index" : false,
    "arraySize" : 1
  }, {
    "name" : "Field05",
    "type" : "int",
    "index" : false,
    "arraySize" : 1
  }, {
    "name" : "Field06",
    "type" : "float",
    "index" : false,
    "arraySize" : 1
  }, {
    "name" : "Field07",
    "type" : "float",
    "index" : false,
    "arraySize" : 1
  }, {
    "name" : "Field08",
    "type" : "float",
    "index" : false,
    "arraySize" : 1
  }, {
    "name" : "Field09",
    "type" : "float",
    "index" : false,
    "arraySize" : 1
  }, {
    "name" : "Field0A",
    "type" : "float",
    "index" : false,
    "arraySize" : 1
  }, {
    "name" : "Field0B",
    "type" : "float",
    "index" : false,
    "arraySize" : 1
  }, {
    "name" : "Field0C",
    "type" : "float",
    "index" : false,
    "arraySize" : 1
  }, {
    "name" : "Field0D",
    "type" : "float",
    "index" : false,
    "arraySize" : 1
  }, {
    "name" : "Field0E",
    "type" : "float",
    "index" : false,
    "arraySize" : 1
  }, {
    "name" : "Field0F",
    "type" : "float",
    "index" : false,
    "arraySize" : 1
  }, {
    "name" : "Field10",
    "type" : "float",
    "index" : false,
    "arraySize" : 1
  }, {
    "name" : "Field11",
    "type" : "float",
    "index" : false,
    "arraySize" : 1
  }, {
    "name" : "Field12",
    "type" : "float",
    "index" : false,
    "arraySize" : 1
  }, {
    "name" : "Field13",
    "type" : "float",
    "index" : false,
    "arraySize" : 1
  }, {
    "name" : "Field14",
    "type" : "float",
    "index" : false,
    "arraySize" : 1
  }, {
    "name" : "Field15",
    "type" : "float",
    "index" : false,
    "arraySize" : 1
  }, {
    "name" : "Field16",
    "type" : "float",
    "index" : false,
    "arraySize" : 1
  }, {
    "name" : "Field17",
    "type" : "float",
    "index" : false,
    "arraySize" : 1
  }, {
    "name" : "Field18",
    "type" : "float",
    "index" : false,
    "arraySize" : 1
  }, {
    "name" : "Field19",
    "type" : "float",
    "index" : false,
    "arraySize" : 1
  }, {
    "name" : "Field1A",
    "type" : "float",
    "index" : false,
    "arraySize" : 1
  }, {
    "name" : "Field1B",
    "type" : "float",
    "index" : false,
    "arraySize" : 1
  }, {
    "name" : "Field1C",
    "type" : "float",
    "index" : false,
    "arraySize" : 1
  }, {
    "name" : "Field1D",
    "type" : "float",
    "index" : false,
    "arraySize" : 1
  }, {
    "name" : "Field1E",
    "type" : "float",
    "index" : false,
    "arraySize" : 1
  }, {
    "name" : "Field1F",
    "type" : "float",
    "index" : false,
    "arraySize" : 1
  }, {
    "name" : "Field20",
    "type" : "float",
    "index" : false,
    "arraySize" : 1
  }, {
    "name" : "Field21",
    "type" : "float",
    "index" : false,
    "arraySize" : 1
  }, {
    "name" : "Field22",
    "type" : "float",
    "index" : false,
    "arraySize" : 1
  }, {
    "name" : "Field23",
    "type" : "float",
    "index" : false,
    "arraySize" : 1
  }, {
    "name" : "Field24",
    "type" : "float",
    "index" : false,
    "arraySize" : 1
  }, {
    "name" : "Field25",
    "type" : "float",
    "index" : false,
    "arraySize" : 1
  }, {
    "name" : "Field26",
    "type" : "float",
    "index" : false,
    "arraySize" : 1
  }, {
    "name" : "Field27",
    "type" : "float",
    "index" : false,
    "arraySize" : 1
  }, {
    "name" : "Field28",
    "type" : "int",
    "index" : false,
    "arraySize" : 1
  }, {
    "name" : "Field29",
    "type" : "float",
    "index" : false,
    "arraySize" : 1
  }, {
    "name" : "Field2A",
    "type" : "float",
    "index" : false,
    "arraySize" : 1
  }, {
    "name" : "Field2B",
    "type" : "float",
    "index" : false,
    "arraySize" : 1
  }, {
    "name" : "Field2C",
    "type" : "float",
    "index" : false,
    "arraySize" : 1
  }, {
    "name" : "Field2D",
    "type" : "ushort",
    "index" : false,
    "arraySize" : 1
  }, {
    "name" : "Field2E",
    "type" : "ushort",
    "index" : false,
    "arraySize" : 1
  }, {
    "name" : "Field2F",
    "type" : "ushort",
    "index" : false,
    "arraySize" : 1
  }, {
    "name" : "Field30",
    "type" : "ushort",
    "index" : false,
    "arraySize" : 1
  }, {
    "name" : "Field31",
    "type" : "byte",
    "index" : false,
    "arraySize" : 1
  }, {
    "name" : "Field32",
    "type" : "byte",
    "index" : false,
    "arraySize" : 1
  }, {
    "name" : "Field33",
    "type" : "byte",
    "index" : false,
    "arraySize" : 1
  }, {
    "name" : "Field34",
    "type" : "byte",
    "index" : false,
    "arraySize" : 1
  }, {
    "name" : "Field35",
    "type" : "byte",
    "index" : false,
    "arraySize" : 1
  }, {
    "name" : "Field36",
    "type" : "byte",
    "index" : false,
    "arraySize" : 1
  }, {
    "name" : "Field37",
    "type" : "byte",
    "index" : false,
    "arraySize" : 1
  }, {
    "name" : "Field38",
    "type" : "byte",
    "index" : false,
    "arraySize" : 1
  }, {
    "name" : "Field39",
    "type" : "byte",
    "index" : false,
    "arraySize" : 1
  }, {
    "name" : "Field3A",
    "type" : "byte",
    "index" : false,
    "arraySize" : 1
  }, {
    "name" : "Field3B",
    "type" : "int",
    "index" : false,
    "arraySize" : 1
  }, {
    "name" : "Field3C",
    "type" : "int",
    "index" : false,
    "arraySize" : 1
  } ]
}