{
  "name" : "SpellDescriptionVariables",
  "build" : 26231,
  "fields" : [ {
    "name" : "ID",
    "type" : "int",
    "index" : true,
    "arraySize" : 1
  }, {
    "name" : "Variables",
    "type" : "string",
    "index" : false,
    "arraySize" : 1
  } ]
}