{
  "name" : "Spellauravisxchrspec",
  "build" : 25632,
  "fields" : [ {
    "name" : "ID",
    "type" : "int",
    "index" : true,
    "arraySize" : 1
  }, {
    "name" : "Field1",
    "type" : "ushort",
    "index" : false,
    "arraySize" : 1
  } ]
}