{
  "name" : "SpellItemEnchantmentCondition",
  "build" : 12340,
  "fields" : [ {
    "name" : "ID",
    "type" : "int",
    "index" : true,
    "arraySize" : 1
  }, {
    "name" : "Lt_OperandType",
    "type" : "byte",
    "index" : false,
    "arraySize" : 1
  }, {
    "name" : "Lt_Operand",
    "type" : "int",
    "index" : false,
    "arraySize" : 1
  }, {
    "name" : "Operator",
    "type" : "byte",
    "index" : false,
    "arraySize" : 1
  }, {
    "name" : "Rt_OperandType",
    "type" : "byte",
    "index" : false,
    "arraySize" : 1
  }, {
    "name" : "Rt_Operand",
    "type" : "int",
    "index" : false,
    "arraySize" : 1
  }, {
    "name" : "Logic",
    "type" : "byte",
    "index" : false,
    "arraySize" : 1
  } ]
}