{
  "name" : "SpellShapeshiftForm",
  "build" : 8606,
  "fields" : [ {
    "name" : "ID",
    "type" : "int",
    "index" : true,
    "arraySize" : 1
  }, {
    "name" : "BonusActionBar",
    "type" : "int",
    "index" : false,
    "arraySize" : 1
  }, {
    "name" : "Name_Lang",
    "type" : "loc",
    "index" : false,
    "arraySize" : 1
  }, {
    "name" : "Flags",
    "type" : "int",
    "index" : false,
    "arraySize" : 1
  }, {
    "name" : "CreatureType",
    "type" : "int",
    "index" : false,
    "arraySize" : 1
  }, {
    "name" : "AttackIconID",
    "type" : "int",
    "index" : false,
    "arraySize" : 1
  }, {
    "name" : "CombatRoundTime",
    "type" : "int",
    "index" : false,
    "arraySize" : 1
  }, {
    "name" : "CreatureDisplayID",
    "type" : "int",
    "index" : false,
    "arraySize" : 1
  }, {
    "name" : "PresetSpellID",
    "type" : "int",
    "index" : false,
    "arraySize" : 1
  } ]
}