{
  "name" : "SpellFlyoutItem",
  "build" : 21742,
  "fields" : [ {
    "name" : "ID",
    "type" : "int",
    "index" : true,
    "arraySize" : 1
  }, {
    "name" : "SpellFlyoutID",
    "type" : "int",
    "index" : false,
    "arraySize" : 1
  }, {
    "name" : "SpellID",
    "type" : "int",
    "index" : false,
    "arraySize" : 1
  }, {
    "name" : "Slot",
    "type" : "int",
    "index" : false,
    "arraySize" : 1
  } ]
}