{
  "name" : "SpellRange",
  "build" : 26231,
  "fields" : [ {
    "name" : "ID",
    "type" : "int",
    "index" : true,
    "arraySize" : 1
  }, {
    "name" : "DisplayName",
    "type" : "string",
    "index" : false,
    "arraySize" : 1
  }, {
    "name" : "DisplayNameShort",
    "type" : "string",
    "index" : false,
    "arraySize" : 1
  }, {
    "name" : "RangeMin",
    "type" : "float",
    "index" : false,
    "arraySize" : 1
  }, {
    "name" : "RangeMax",
    "type" : "float",
    "index" : false,
    "arraySize" : 1
  }, {
    "name" : "Flags",
    "type" : "byte",
    "index" : false,
    "arraySize" : 1
  } ]
}