{
  "name" : "SpellEffectScaling",
  "build" : 24793,
  "fields" : [ {
    "name" : "ID",
    "type" : "int",
    "index" : true,
    "arraySize" : 1
  }, {
    "name" : "Coefficient",
    "type" : "float",
    "index" : false,
    "arraySize" : 1
  }, {
    "name" : "Variance",
    "type" : "float",
    "index" : false,
    "arraySize" : 1
  }, {
    "name" : "ResourceCoefficient",
    "type" : "float",
    "index" : false,
    "arraySize" : 1
  }, {
    "name" : "SpellEffectID",
    "type" : "uint",
    "index" : false,
    "arraySize" : 1
  } ]
}