{
  "name" : "SpellEquippedItems",
  "build" : 24492,
  "fields" : [ {
    "name" : "ID",
    "type" : "int",
    "index" : true,
    "arraySize" : 1
  }, {
    "name" : "SpellID",
    "type" : "uint",
    "index" : false,
    "arraySize" : 1
  }, {
    "name" : "EquippedItemInventoryTypeMask",
    "type" : "int",
    "index" : false,
    "arraySize" : 1
  }, {
    "name" : "EquippedItemSubClassMask",
    "type" : "int",
    "index" : false,
    "arraySize" : 1
  }, {
    "name" : "EquippedItemClass",
    "type" : "byte",
    "index" : false,
    "arraySize" : 1
  } ]
}