{
  "name" : "SpellShapeshiftForm",
  "build" : 23835,
  "fields" : [ {
    "name" : "ID",
    "type" : "int",
    "index" : true,
    "arraySize" : 1
  }, {
    "name" : "Name",
    "type" : "string",
    "index" : false,
    "arraySize" : 1
  }, {
    "name" : "WeaponDamageVariance",
    "type" : "float",
    "index" : false,
    "arraySize" : 1
  }, {
    "name" : "Flags",
    "type" : "uint",
    "index" : false,
    "arraySize" : 1
  }, {
    "name" : "CombatRoundTime",
    "type" : "ushort",
    "index" : false,
    "arraySize" : 1
  }, {
    "name" : "MountTypeID",
    "type" : "ushort",
    "index" : false,
    "arraySize" : 1
  }, {
    "name" : "CreatureType",
    "type" : "byte",
    "index" : false,
    "arraySize" : 1
  }, {
    "name" : "BonusActionBar",
    "type" : "byte",
    "index" : false,
    "arraySize" : 1
  }, {
    "name" : "AttackIconFileDataID",
    "type" : "uint",
    "index" : false,
    "arraySize" : 1
  }, {
    "name" : "CreatureDisplayID",
    "type" : "uint",
    "index" : false,
    "arraySize" : 1
  }, {
    "name" : "PresetSpellID",
    "type" : "uint",
    "index" : false,
    "arraySize" : 1
  } ]
}