{
  "name" : "SpellVisualKitModelAttach",
  "build" : 12340,
  "fields" : [ {
    "name" : "ID",
    "type" : "int",
    "index" : true,
    "arraySize" : 1
  }, {
    "name" : "ParentSpellVisualKitID",
    "type" : "int",
    "index" : false,
    "arraySize" : 1
  }, {
    "name" : "SpellVisualEffectNameID",
    "type" : "int",
    "index" : false,
    "arraySize" : 1
  }, {
    "name" : "AttachmentID",
    "type" : "int",
    "index" : false,
    "arraySize" : 1
  }, {
    "name" : "OffsetX",
    "type" : "float",
    "index" : false,
    "arraySize" : 1
  }, {
    "name" : "OffsetY",
    "type" : "float",
    "index" : false,
    "arraySize" : 1
  }, {
    "name" : "OffsetZ",
    "type" : "float",
    "index" : false,
    "arraySize" : 1
  }, {
    "name" : "Yaw",
    "type" : "float",
    "index" : false,
    "arraySize" : 1
  }, {
    "name" : "Pitch",
    "type" : "float",
    "index" : false,
    "arraySize" : 1
  }, {
    "name" : "Roll",
    "type" : "float",
    "index" : false,
    "arraySize" : 1
  } ]
}