{
  "name" : "SpellVisual",
  "build" : 8606,
  "fields" : [ {
    "name" : "ID",
    "type" : "int",
    "index" : true,
    "arraySize" : 1
  }, {
    "name" : "PrecastKit",
    "type" : "int",
    "index" : false,
    "arraySize" : 1
  }, {
    "name" : "CastKit",
    "type" : "int",
    "index" : false,
    "arraySize" : 1
  }, {
    "name" : "ImpactKit",
    "type" : "int",
    "index" : false,
    "arraySize" : 1
  }, {
    "name" : "StateKit",
    "type" : "int",
    "index" : false,
    "arraySize" : 1
  }, {
    "name" : "StateDoneKit",
    "type" : "int",
    "index" : false,
    "arraySize" : 1
  }, {
    "name" : "ChannelKit",
    "type" : "int",
    "index" : false,
    "arraySize" : 1
  }, {
    "name" : "HasMissile",
    "type" : "int",
    "index" : false,
    "arraySize" : 1
  }, {
    "name" : "MissileModel",
    "type" : "int",
    "index" : false,
    "arraySize" : 1
  }, {
    "name" : "MissilePathType",
    "type" : "int",
    "index" : false,
    "arraySize" : 1
  }, {
    "name" : "MissileDestinationAttachment",
    "type" : "int",
    "index" : false,
    "arraySize" : 1
  }, {
    "name" : "MissileSound",
    "type" : "int",
    "index" : false,
    "arraySize" : 1
  }, {
    "name" : "AnimEventSoundID",
    "type" : "int",
    "index" : false,
    "arraySize" : 1
  }, {
    "name" : "Flags",
    "type" : "int",
    "index" : false,
    "arraySize" : 1
  }, {
    "name" : "CasterImpactKit",
    "type" : "int",
    "index" : false,
    "arraySize" : 1
  }, {
    "name" : "TargetImpactKit",
    "type" : "int",
    "index" : false,
    "arraySize" : 1
  } ]
}