{
  "name" : "SpellVisualKitModelAttach",
  "build" : 26231,
  "fields" : [ {
    "name" : "Offset",
    "type" : "float",
    "index" : false,
    "arraySize" : 1
  }, {
    "name" : "OffsetVariation",
    "type" : "float",
    "index" : false,
    "arraySize" : 1
  }, {
    "name" : "ID",
    "type" : "int",
    "index" : true,
    "arraySize" : 1
  }, {
    "name" : "SpellVisualEffectNameId",
    "type" : "ushort",
    "index" : false,
    "arraySize" : 1
  }, {
    "name" : "AttachmentId",
    "type" : "byte",
    "index" : false,
    "arraySize" : 1
  }, {
    "name" : "Flags",
    "type" : "byte",
    "index" : false,
    "arraySize" : 1
  }, {
    "name" : "PositionerId",
    "type" : "ushort",
    "index" : false,
    "arraySize" : 1
  }, {
    "name" : "Yaw",
    "type" : "float",
    "index" : false,
    "arraySize" : 1
  }, {
    "name" : "Pitch",
    "type" : "float",
    "index" : false,
    "arraySize" : 1
  }, {
    "name" : "Roll",
    "type" : "float",
    "index" : false,
    "arraySize" : 1
  }, {
    "name" : "YawVariation",
    "type" : "float",
    "index" : false,
    "arraySize" : 1
  }, {
    "name" : "PitchVariation",
    "type" : "float",
    "index" : false,
    "arraySize" : 1
  }, {
    "name" : "RollVariation",
    "type" : "float",
    "index" : false,
    "arraySize" : 1
  }, {
    "name" : "Scale",
    "type" : "float",
    "index" : false,
    "arraySize" : 1
  }, {
    "name" : "ScaleVariation",
    "type" : "float",
    "index" : false,
    "arraySize" : 1
  }, {
    "name" : "StartAnimId",
    "type" : "ushort",
    "index" : false,
    "arraySize" : 1
  }, {
    "name" : "AnimId",
    "type" : "ushort",
    "index" : false,
    "arraySize" : 1
  }, {
    "name" : "EndAnimId",
    "type" : "ushort",
    "index" : false,
    "arraySize" : 1
  }, {
    "name" : "AnimKitId",
    "type" : "ushort",
    "index" : false,
    "arraySize" : 1
  }, {
    "name" : "LowDefModelAttachId",
    "type" : "int",
    "index" : false,
    "arraySize" : 1
  }, {
    "name" : "StartDelay",
    "type" : "float",
    "index" : false,
    "arraySize" : 1
  } ]
}