{
  "name" : "SpellDuration",
  "build" : 8606,
  "fields" : [ {
    "name" : "ID",
    "type" : "int",
    "index" : true,
    "arraySize" : 1
  }, {
    "name" : "Duration",
    "type" : "int",
    "index" : false,
    "arraySize" : 1
  }, {
    "name" : "DurationPerLevel",
    "type" : "int",
    "index" : false,
    "arraySize" : 1
  }, {
    "name" : "MaxDuration",
    "type" : "int",
    "index" : false,
    "arraySize" : 1
  } ]
}