{
  "name" : "SpellProcsPerMinuteMod",
  "build" : 23835,
  "fields" : [ {
    "name" : "ID",
    "type" : "int",
    "index" : true,
    "arraySize" : 1
  }, {
    "name" : "Coeff",
    "type" : "float",
    "index" : false,
    "arraySize" : 1
  }, {
    "name" : "Param",
    "type" : "ushort",
    "index" : false,
    "arraySize" : 1
  }, {
    "name" : "Type",
    "type" : "byte",
    "index" : false,
    "arraySize" : 1
  }, {
    "name" : "SpellProcsPerMinuteID",
    "type" : "byte",
    "index" : false,
    "arraySize" : 1
  } ]
}