{
  "name" : "SpellItemEnchantment",
  "build" : 24492,
  "fields" : [ {
    "name" : "ID",
    "type" : "int",
    "index" : true,
    "arraySize" : 1
  }, {
    "name" : "EffectSpellID",
    "type" : "uint",
    "index" : false,
    "arraySize" : 1
  }, {
    "name" : "Name",
    "type" : "string",
    "index" : false,
    "arraySize" : 1
  }, {
    "name" : "EffectScalingPoints",
    "type" : "float",
    "index" : false,
    "arraySize" : 1
  }, {
    "name" : "TransmogCost",
    "type" : "uint",
    "index" : false,
    "arraySize" : 1
  }, {
    "name" : "TextureFileDataID",
    "type" : "uint",
    "index" : false,
    "arraySize" : 1
  }, {
    "name" : "EffectPointsMin",
    "type" : "ushort",
    "index" : false,
    "arraySize" : 1
  }, {
    "name" : "ItemVisual",
    "type" : "ushort",
    "index" : false,
    "arraySize" : 1
  }, {
    "name" : "Flags",
    "type" : "ushort",
    "index" : false,
    "arraySize" : 1
  }, {
    "name" : "RequiredSkillID",
    "type" : "ushort",
    "index" : false,
    "arraySize" : 1
  }, {
    "name" : "RequiredSkillRank",
    "type" : "ushort",
    "index" : false,
    "arraySize" : 1
  }, {
    "name" : "ItemLevel",
    "type" : "ushort",
    "index" : false,
    "arraySize" : 1
  }, {
    "name" : "Charges",
    "type" : "byte",
    "index" : false,
    "arraySize" : 1
  }, {
    "name" : "Effect",
    "type" : "byte",
    "index" : false,
    "arraySize" : 1
  }, {
    "name" : "ConditionID",
    "type" : "byte",
    "index" : false,
    "arraySize" : 1
  }, {
    "name" : "MinLevel",
    "type" : "byte",
    "index" : false,
    "arraySize" : 1
  }, {
    "name" : "MaxLevel",
    "type" : "byte",
    "index" : false,
    "arraySize" : 1
  }, {
    "name" : "ScalingClass",
    "type" : "byte",
    "index" : false,
    "arraySize" : 1
  }, {
    "name" : "ScalingClassRestricted",
    "type" : "byte",
    "index" : false,
    "arraySize" : 1
  }, {
    "name" : "PlayerConditionID",
    "type" : "uint",
    "index" : false,
    "arraySize" : 1
  } ]
}