{
  "name" : "SpellCastingRequirements",
  "build" : 26231,
  "fields" : [ {
    "name" : "ID",
    "type" : "int",
    "index" : true,
    "arraySize" : 1
  }, {
    "name" : "SpellId",
    "type" : "int",
    "index" : false,
    "arraySize" : 1
  }, {
    "name" : "MinFactionId",
    "type" : "ushort",
    "index" : false,
    "arraySize" : 1
  }, {
    "name" : "RequiredAreasId",
    "type" : "ushort",
    "index" : false,
    "arraySize" : 1
  }, {
    "name" : "RequiresSpellFocus",
    "type" : "ushort",
    "index" : false,
    "arraySize" : 1
  }, {
    "name" : "FacingCasterFlags",
    "type" : "byte",
    "index" : false,
    "arraySize" : 1
  }, {
    "name" : "MinReputation",
    "type" : "byte",
    "index" : false,
    "arraySize" : 1
  }, {
    "name" : "RequiredAuraVision",
    "type" : "byte",
    "index" : false,
    "arraySize" : 1
  } ]
}