{
  "name" : "SpellItemEnchantment",
  "build" : 21742,
  "fields" : [ {
    "name" : "ID",
    "type" : "int",
    "index" : true,
    "arraySize" : 1
  }, {
    "name" : "Charges",
    "type" : "int",
    "index" : false,
    "arraySize" : 1
  }, {
    "name" : "Effect",
    "type" : "int",
    "index" : false,
    "arraySize" : 1
  }, {
    "name" : "EffectPointsMin",
    "type" : "int",
    "index" : false,
    "arraySize" : 1
  }, {
    "name" : "EffectArg",
    "type" : "int",
    "index" : false,
    "arraySize" : 1
  }, {
    "name" : "Name_Lang",
    "type" : "string",
    "index" : false,
    "arraySize" : 1
  }, {
    "name" : "ItemVisual",
    "type" : "int",
    "index" : false,
    "arraySize" : 1
  }, {
    "name" : "Flags",
    "type" : "int",
    "index" : false,
    "arraySize" : 1
  }, {
    "name" : "Src_ItemID",
    "type" : "int",
    "index" : false,
    "arraySize" : 1
  }, {
    "name" : "Condition_Id",
    "type" : "int",
    "index" : false,
    "arraySize" : 1
  }, {
    "name" : "RequiredSkillID",
    "type" : "int",
    "index" : false,
    "arraySize" : 1
  }, {
    "name" : "RequiredSkillRank",
    "type" : "int",
    "index" : false,
    "arraySize" : 1
  }, {
    "name" : "MinLevel",
    "type" : "int",
    "index" : false,
    "arraySize" : 1
  }, {
    "name" : "MaxLevel",
    "type" : "int",
    "index" : false,
    "arraySize" : 1
  }, {
    "name" : "ItemLevel",
    "type" : "int",
    "index" : false,
    "arraySize" : 1
  }, {
    "name" : "ScalingClass",
    "type" : "int",
    "index" : false,
    "arraySize" : 1
  }, {
    "name" : "ScalingClassRestricted",
    "type" : "int",
    "index" : false,
    "arraySize" : 1
  }, {
    "name" : "EffectScalingPoints",
    "type" : "float",
    "index" : false,
    "arraySize" : 1
  } ]
}