{
  "name" : "SpellXSpellVisual",
  "build" : 24492,
  "fields" : [ {
    "name" : "Field00",
    "type" : "uint",
    "index" : false,
    "arraySize" : 1
  }, {
    "name" : "Field04",
    "type" : "uint",
    "index" : false,
    "arraySize" : 1
  }, {
    "name" : "ID",
    "type" : "int",
    "index" : true,
    "arraySize" : 1
  }, {
    "name" : "Field0B",
    "type" : "float",
    "index" : false,
    "arraySize" : 1
  }, {
    "name" : "Field0F",
    "type" : "ushort",
    "index" : false,
    "arraySize" : 1
  }, {
    "name" : "Field11",
    "type" : "ushort",
    "index" : false,
    "arraySize" : 1
  }, {
    "name" : "Field13",
    "type" : "ushort",
    "index" : false,
    "arraySize" : 1
  }, {
    "name" : "Field15",
    "type" : "ushort",
    "index" : false,
    "arraySize" : 1
  }, {
    "name" : "Field17",
    "type" : "int",
    "index" : false,
    "arraySize" : 1
  }, {
    "name" : "Field1B",
    "type" : "int",
    "index" : false,
    "arraySize" : 1
  }, {
    "name" : "Field1F",
    "type" : "byte",
    "index" : false,
    "arraySize" : 1
  }, {
    "name" : "Field20",
    "type" : "byte",
    "index" : false,
    "arraySize" : 1
  }, {
    "name" : "Field21",
    "type" : "byte",
    "index" : false,
    "arraySize" : 1
  } ]
}