{
  "name" : "SpellShapeshift",
  "build" : 21742,
  "fields" : [ {
    "name" : "ID",
    "type" : "int",
    "index" : true,
    "arraySize" : 1
  }, {
    "name" : "ShapeshiftExclude",
    "type" : "int",
    "index" : false,
    "arraySize" : 1
  }, {
    "name" : "ShapeshiftMask",
    "type" : "int",
    "index" : false,
    "arraySize" : 1
  }, {
    "name" : "StanceBarOrder",
    "type" : "int",
    "index" : false,
    "arraySize" : 1
  } ]
}