{
  "name" : "SpellDispelType",
  "build" : 5875,
  "fields" : [ {
    "name" : "ID",
    "type" : "int",
    "index" : true,
    "arraySize" : 1
  }, {
    "name" : "Name",
    "type" : "loc",
    "index" : false,
    "arraySize" : 1
  }, {
    "name" : "Mask",
    "type" : "int",
    "index" : false,
    "arraySize" : 1
  }, {
    "name" : "ImmunityPossible",
    "type" : "int",
    "index" : false,
    "arraySize" : 1
  } ]
}