{
  "name" : "SpellScaling",
  "build" : 24793,
  "fields" : [ {
    "name" : "ID",
    "type" : "int",
    "index" : true,
    "arraySize" : 1
  }, {
    "name" : "SpellID",
    "type" : "uint",
    "index" : false,
    "arraySize" : 1
  }, {
    "name" : "ScalesFromItemLevel",
    "type" : "ushort",
    "index" : false,
    "arraySize" : 1
  }, {
    "name" : "ScalingClass",
    "type" : "int",
    "index" : false,
    "arraySize" : 1
  }, {
    "name" : "MinScalingLevel",
    "type" : "uint",
    "index" : false,
    "arraySize" : 1
  }, {
    "name" : "MaxScalingLevel",
    "type" : "uint",
    "index" : false,
    "arraySize" : 1
  } ]
}