{
  "name" : "SpellVisualKitAreaModel",
  "build" : 26231,
  "fields" : [ {
    "name" : "ID",
    "type" : "int",
    "index" : true,
    "arraySize" : 1
  }, {
    "name" : "ModelFileDataId",
    "type" : "int",
    "index" : false,
    "arraySize" : 1
  }, {
    "name" : "EmissionRate",
    "type" : "float",
    "index" : false,
    "arraySize" : 1
  }, {
    "name" : "Spacing",
    "type" : "float",
    "index" : false,
    "arraySize" : 1
  }, {
    "name" : "ModelScale",
    "type" : "float",
    "index" : false,
    "arraySize" : 1
  }, {
    "name" : "LifeTime",
    "type" : "ushort",
    "index" : false,
    "arraySize" : 1
  }, {
    "name" : "Flags",
    "type" : "byte",
    "index" : false,
    "arraySize" : 1
  } ]
}