{
  "name" : "SpellVisualEffectName",
  "build" : 5875,
  "fields" : [ {
    "name" : "ID",
    "type" : "int",
    "index" : true,
    "arraySize" : 1
  }, {
    "name" : "Name",
    "type" : "string",
    "index" : false,
    "arraySize" : 1
  }, {
    "name" : "FileName",
    "type" : "string",
    "index" : false,
    "arraySize" : 1
  }, {
    "name" : "AreaEffectSize",
    "type" : "float",
    "index" : false,
    "arraySize" : 1
  }, {
    "name" : "Scale",
    "type" : "float",
    "index" : false,
    "arraySize" : 1
  } ]
}