{
  "name" : "SpellRadius",
  "build" : 21742,
  "fields" : [ {
    "name" : "ID",
    "type" : "int",
    "index" : true,
    "arraySize" : 1
  }, {
    "name" : "Radius",
    "type" : "float",
    "index" : false,
    "arraySize" : 1
  }, {
    "name" : "RadiusPerLevel",
    "type" : "float",
    "index" : false,
    "arraySize" : 1
  }, {
    "name" : "RadiusMin",
    "type" : "float",
    "index" : false,
    "arraySize" : 1
  }, {
    "name" : "RadiusMax",
    "type" : "float",
    "index" : false,
    "arraySize" : 1
  } ]
}