{
  "name" : "SpellRuneCost",
  "build" : 21742,
  "fields" : [ {
    "name" : "ID",
    "type" : "int",
    "index" : true,
    "arraySize" : 1
  }, {
    "name" : "Blood",
    "type" : "int",
    "index" : false,
    "arraySize" : 1
  }, {
    "name" : "Unholy",
    "type" : "int",
    "index" : false,
    "arraySize" : 1
  }, {
    "name" : "Frost",
    "type" : "int",
    "index" : false,
    "arraySize" : 1
  }, {
    "name" : "Chromatic",
    "type" : "int",
    "index" : false,
    "arraySize" : 1
  }, {
    "name" : "RunicPower",
    "type" : "int",
    "index" : false,
    "arraySize" : 1
  } ]
}