{
  "name" : "Talent",
  "build" : 24492,
  "fields" : [ {
    "name" : "ID",
    "type" : "int",
    "index" : true,
    "arraySize" : 1
  }, {
    "name" : "SpellID",
    "type" : "uint",
    "index" : false,
    "arraySize" : 1
  }, {
    "name" : "OverridesSpellID",
    "type" : "uint",
    "index" : false,
    "arraySize" : 1
  }, {
    "name" : "Description",
    "type" : "string",
    "index" : false,
    "arraySize" : 1
  }, {
    "name" : "SpecID",
    "type" : "ushort",
    "index" : false,
    "arraySize" : 1
  }, {
    "name" : "TierID",
    "type" : "byte",
    "index" : false,
    "arraySize" : 1
  }, {
    "name" : "ColumnIndex",
    "type" : "byte",
    "index" : false,
    "arraySize" : 1
  }, {
    "name" : "Flags",
    "type" : "byte",
    "index" : false,
    "arraySize" : 1
  }, {
    "name" : "CategoryMask",
    "type" : "byte",
    "index" : false,
    "arraySize" : 1
  }, {
    "name" : "ClassID",
    "type" : "byte",
    "index" : false,
    "arraySize" : 1
  } ]
}