{
  "name" : "TaxiPath",
  "build" : 25632,
  "fields" : [ {
    "name" : "From",
    "type" : "ushort",
    "index" : false,
    "arraySize" : 1
  }, {
    "name" : "To",
    "type" : "ushort",
    "index" : false,
    "arraySize" : 1
  }, {
    "name" : "ID",
    "type" : "int",
    "index" : true,
    "arraySize" : 1
  }, {
    "name" : "Cost",
    "type" : "uint",
    "index" : false,
    "arraySize" : 1
  } ]
}