{
  "name" : "TaxiNodes",
  "build" : 22578,
  "fields" : [ {
    "name" : "Field00",
    "type" : "float",
    "index" : false,
    "arraySize" : 1
  }, {
    "name" : "Field0C",
    "type" : "string",
    "index" : false,
    "arraySize" : 1
  }, {
    "name" : "Field10",
    "type" : "int",
    "index" : false,
    "arraySize" : 1
  }, {
    "name" : "Field18",
    "type" : "float",
    "index" : false,
    "arraySize" : 1
  }, {
    "name" : "Field20",
    "type" : "ushort",
    "index" : false,
    "arraySize" : 1
  }, {
    "name" : "Field22",
    "type" : "ushort",
    "index" : false,
    "arraySize" : 1
  }, {
    "name" : "Field24",
    "type" : "ushort",
    "index" : false,
    "arraySize" : 1
  }, {
    "name" : "Field26",
    "type" : "byte",
    "index" : false,
    "arraySize" : 1
  }, {
    "name" : "ID",
    "type" : "int",
    "index" : true,
    "arraySize" : 1
  } ]
}