{
  "name" : "TaxiPathNode",
  "build" : 24492,
  "fields" : [ {
    "name" : "Loc",
    "type" : "float",
    "index" : false,
    "arraySize" : 1
  }, {
    "name" : "PathID",
    "type" : "ushort",
    "index" : false,
    "arraySize" : 1
  }, {
    "name" : "MapID",
    "type" : "ushort",
    "index" : false,
    "arraySize" : 1
  }, {
    "name" : "NodeIndex",
    "type" : "byte",
    "index" : false,
    "arraySize" : 1
  }, {
    "name" : "ID",
    "type" : "int",
    "index" : true,
    "arraySize" : 1
  }, {
    "name" : "Field14",
    "type" : "byte",
    "index" : false,
    "arraySize" : 1
  }, {
    "name" : "Field15",
    "type" : "int",
    "index" : false,
    "arraySize" : 1
  }, {
    "name" : "ArrivalEventId",
    "type" : "ushort",
    "index" : false,
    "arraySize" : 1
  }, {
    "name" : "Field1B",
    "type" : "ushort",
    "index" : false,
    "arraySize" : 1
  } ]
}