{
  "name" : "TextureBlendSet",
  "build" : 26231,
  "fields" : [ {
    "name" : "ID",
    "type" : "int",
    "index" : true,
    "arraySize" : 1
  }, {
    "name" : "TextureFileDataId",
    "type" : "int",
    "index" : false,
    "arraySize" : 1
  }, {
    "name" : "TextureScrollRateU",
    "type" : "float",
    "index" : false,
    "arraySize" : 1
  }, {
    "name" : "TextureScrollRateV",
    "type" : "float",
    "index" : false,
    "arraySize" : 1
  }, {
    "name" : "TextureScaleU",
    "type" : "float",
    "index" : false,
    "arraySize" : 1
  }, {
    "name" : "TextureScaleV",
    "type" : "float",
    "index" : false,
    "arraySize" : 1
  }, {
    "name" : "ModX",
    "type" : "float",
    "index" : false,
    "arraySize" : 1
  }, {
    "name" : "SwizzleRed",
    "type" : "byte",
    "index" : false,
    "arraySize" : 1
  }, {
    "name" : "SwizzleGreen",
    "type" : "byte",
    "index" : false,
    "arraySize" : 1
  }, {
    "name" : "SwizzleBlue",
    "type" : "byte",
    "index" : false,
    "arraySize" : 1
  }, {
    "name" : "SwizzleAlpha",
    "type" : "byte",
    "index" : false,
    "arraySize" : 1
  } ]
}