{
  "name" : "TotemCategory",
  "build" : 24793,
  "fields" : [ {
    "name" : "ID",
    "type" : "int",
    "index" : true,
    "arraySize" : 1
  }, {
    "name" : "Name",
    "type" : "string",
    "index" : false,
    "arraySize" : 1
  }, {
    "name" : "CategoryMask",
    "type" : "uint",
    "index" : false,
    "arraySize" : 1
  }, {
    "name" : "CategoryType",
    "type" : "byte",
    "index" : false,
    "arraySize" : 1
  } ]
}