{
  "name" : "TransmogSet",
  "build" : 26231,
  "fields" : [ {
    "name" : "Name",
    "type" : "string",
    "index" : false,
    "arraySize" : 1
  }, {
    "name" : "ParentTransmogSetId",
    "type" : "ushort",
    "index" : false,
    "arraySize" : 1
  }, {
    "name" : "UiOrder",
    "type" : "ushort",
    "index" : false,
    "arraySize" : 1
  }, {
    "name" : "ExpansionId",
    "type" : "byte",
    "index" : false,
    "arraySize" : 1
  }, {
    "name" : "ID",
    "type" : "int",
    "index" : true,
    "arraySize" : 1
  }, {
    "name" : "Flags",
    "type" : "int",
    "index" : false,
    "arraySize" : 1
  }, {
    "name" : "TrackingQuestId",
    "type" : "int",
    "index" : false,
    "arraySize" : 1
  }, {
    "name" : "ClassMask",
    "type" : "int",
    "index" : false,
    "arraySize" : 1
  }, {
    "name" : "ItemNameDescriptionId",
    "type" : "int",
    "index" : false,
    "arraySize" : 1
  }, {
    "name" : "TransmogSetGroupId",
    "type" : "int",
    "index" : false,
    "arraySize" : 1
  } ]
}