{
  "name" : "TransportPhysics",
  "build" : 12340,
  "fields" : [ {
    "name" : "ID",
    "type" : "int",
    "index" : true,
    "arraySize" : 1
  }, {
    "name" : "WaveAmp",
    "type" : "float",
    "index" : false,
    "arraySize" : 1
  }, {
    "name" : "WaveTimeScale",
    "type" : "float",
    "index" : false,
    "arraySize" : 1
  }, {
    "name" : "RollAmp",
    "type" : "float",
    "index" : false,
    "arraySize" : 1
  }, {
    "name" : "RollTimeScale",
    "type" : "float",
    "index" : false,
    "arraySize" : 1
  }, {
    "name" : "PitchAmp",
    "type" : "float",
    "index" : false,
    "arraySize" : 1
  }, {
    "name" : "PitchTimeScale",
    "type" : "float",
    "index" : false,
    "arraySize" : 1
  }, {
    "name" : "MaxBank",
    "type" : "float",
    "index" : false,
    "arraySize" : 1
  }, {
    "name" : "MaxBankTurnSpeed",
    "type" : "float",
    "index" : false,
    "arraySize" : 1
  }, {
    "name" : "SpeedDampThresh",
    "type" : "float",
    "index" : false,
    "arraySize" : 1
  }, {
    "name" : "SpeedDamp",
    "type" : "float",
    "index" : false,
    "arraySize" : 1
  } ]
}