{
  "name" : "TransportAnimation",
  "build" : 23835,
  "fields" : [ {
    "name" : "ID",
    "type" : "int",
    "index" : true,
    "arraySize" : 1
  }, {
    "name" : "TransportID",
    "type" : "uint",
    "index" : false,
    "arraySize" : 1
  }, {
    "name" : "TimeIndex",
    "type" : "uint",
    "index" : false,
    "arraySize" : 1
  }, {
    "name" : "Pos",
    "type" : "float",
    "index" : false,
    "arraySize" : 1
  }, {
    "name" : "SequenceID",
    "type" : "byte",
    "index" : false,
    "arraySize" : 1
  } ]
}