{
  "name" : "Trophy",
  "build" : 26231,
  "fields" : [ {
    "name" : "ID",
    "type" : "int",
    "index" : true,
    "arraySize" : 1
  }, {
    "name" : "Name",
    "type" : "string",
    "index" : false,
    "arraySize" : 1
  }, {
    "name" : "GameObjectDisplayInfoId",
    "type" : "ushort",
    "index" : false,
    "arraySize" : 1
  }, {
    "name" : "TrophyTypeId",
    "type" : "byte",
    "index" : false,
    "arraySize" : 1
  }, {
    "name" : "PlayerConditionId",
    "type" : "int",
    "index" : false,
    "arraySize" : 1
  } ]
}