{
  "name" : "UiMapPOI",
  "build" : 26231,
  "fields" : [ {
    "name" : "ContinentId",
    "type" : "int",
    "index" : false,
    "arraySize" : 1
  }, {
    "name" : "WorldLoc",
    "type" : "float",
    "index" : false,
    "arraySize" : 1
  }, {
    "name" : "UiTextureAtlasMemberId",
    "type" : "int",
    "index" : false,
    "arraySize" : 1
  }, {
    "name" : "Flags",
    "type" : "int",
    "index" : false,
    "arraySize" : 1
  }, {
    "name" : "PoiDataType",
    "type" : "ushort",
    "index" : false,
    "arraySize" : 1
  }, {
    "name" : "PoiData",
    "type" : "ushort",
    "index" : false,
    "arraySize" : 1
  }, {
    "name" : "ID",
    "type" : "int",
    "index" : true,
    "arraySize" : 1
  } ]
}