{
  "name" : "UiModelSceneActor",
  "build" : 23835,
  "fields" : [ {
    "name" : "Field00",
    "type" : "string",
    "index" : false,
    "arraySize" : 1
  }, {
    "name" : "Field04",
    "type" : "float",
    "index" : false,
    "arraySize" : 1
  }, {
    "name" : "Field10",
    "type" : "float",
    "index" : false,
    "arraySize" : 1
  }, {
    "name" : "Field14",
    "type" : "float",
    "index" : false,
    "arraySize" : 1
  }, {
    "name" : "Field18",
    "type" : "float",
    "index" : false,
    "arraySize" : 1
  }, {
    "name" : "Field1C",
    "type" : "float",
    "index" : false,
    "arraySize" : 1
  }, {
    "name" : "Field20",
    "type" : "byte",
    "index" : false,
    "arraySize" : 1
  }, {
    "name" : "ID",
    "type" : "int",
    "index" : true,
    "arraySize" : 1
  }, {
    "name" : "Field25",
    "type" : "int",
    "index" : false,
    "arraySize" : 1
  }, {
    "name" : "Field29",
    "type" : "int",
    "index" : false,
    "arraySize" : 1
  } ]
}