{
  "name" : "UiModelSceneCamera",
  "build" : 26231,
  "fields" : [ {
    "name" : "ScriptTag",
    "type" : "string",
    "index" : false,
    "arraySize" : 1
  }, {
    "name" : "Target",
    "type" : "float",
    "index" : false,
    "arraySize" : 1
  }, {
    "name" : "ZoomedTargetOffset",
    "type" : "float",
    "index" : false,
    "arraySize" : 1
  }, {
    "name" : "Yaw",
    "type" : "float",
    "index" : false,
    "arraySize" : 1
  }, {
    "name" : "Pitch",
    "type" : "float",
    "index" : false,
    "arraySize" : 1
  }, {
    "name" : "Roll",
    "type" : "float",
    "index" : false,
    "arraySize" : 1
  }, {
    "name" : "ZoomedYawOffset",
    "type" : "float",
    "index" : false,
    "arraySize" : 1
  }, {
    "name" : "ZoomedPitchOffset",
    "type" : "float",
    "index" : false,
    "arraySize" : 1
  }, {
    "name" : "ZoomedRollOffset",
    "type" : "float",
    "index" : false,
    "arraySize" : 1
  }, {
    "name" : "ZoomDistance",
    "type" : "float",
    "index" : false,
    "arraySize" : 1
  }, {
    "name" : "MinZoomDistance",
    "type" : "float",
    "index" : false,
    "arraySize" : 1
  }, {
    "name" : "MaxZoomDistance",
    "type" : "float",
    "index" : false,
    "arraySize" : 1
  }, {
    "name" : "Flags",
    "type" : "byte",
    "index" : false,
    "arraySize" : 1
  }, {
    "name" : "CameraType",
    "type" : "byte",
    "index" : false,
    "arraySize" : 1
  }, {
    "name" : "ID",
    "type" : "int",
    "index" : true,
    "arraySize" : 1
  } ]
}