{
  "name" : "UiModelSceneActor",
  "build" : 26231,
  "fields" : [ {
    "name" : "ScriptTag",
    "type" : "string",
    "index" : false,
    "arraySize" : 1
  }, {
    "name" : "Position",
    "type" : "float",
    "index" : false,
    "arraySize" : 1
  }, {
    "name" : "OrientationYaw",
    "type" : "float",
    "index" : false,
    "arraySize" : 1
  }, {
    "name" : "OrientationPitch",
    "type" : "float",
    "index" : false,
    "arraySize" : 1
  }, {
    "name" : "OrientationRoll",
    "type" : "float",
    "index" : false,
    "arraySize" : 1
  }, {
    "name" : "NormalizedScale",
    "type" : "float",
    "index" : false,
    "arraySize" : 1
  }, {
    "name" : "Flags",
    "type" : "byte",
    "index" : false,
    "arraySize" : 1
  }, {
    "name" : "ID",
    "type" : "int",
    "index" : true,
    "arraySize" : 1
  }, {
    "name" : "UiModelSceneActorDisplayId",
    "type" : "int",
    "index" : false,
    "arraySize" : 1
  } ]
}