{
  "name" : "UiTextureAtlasMember",
  "build" : 26231,
  "fields" : [ {
    "name" : "CommittedName",
    "type" : "string",
    "index" : false,
    "arraySize" : 1
  }, {
    "name" : "ID",
    "type" : "int",
    "index" : true,
    "arraySize" : 1
  }, {
    "name" : "UiTextureAtlasId",
    "type" : "ushort",
    "index" : false,
    "arraySize" : 1
  }, {
    "name" : "CommittedLeft",
    "type" : "ushort",
    "index" : false,
    "arraySize" : 1
  }, {
    "name" : "CommittedRight",
    "type" : "ushort",
    "index" : false,
    "arraySize" : 1
  }, {
    "name" : "CommittedTop",
    "type" : "ushort",
    "index" : false,
    "arraySize" : 1
  }, {
    "name" : "CommittedBottom",
    "type" : "ushort",
    "index" : false,
    "arraySize" : 1
  }, {
    "name" : "CommittedFlags",
    "type" : "byte",
    "index" : false,
    "arraySize" : 1
  } ]
}