{
  "name" : "UiTextureAtlas",
  "build" : 26231,
  "fields" : [ {
    "name" : "ID",
    "type" : "int",
    "index" : true,
    "arraySize" : 1
  }, {
    "name" : "FileDataId",
    "type" : "int",
    "index" : false,
    "arraySize" : 1
  }, {
    "name" : "AtlasHeight",
    "type" : "ushort",
    "index" : false,
    "arraySize" : 1
  }, {
    "name" : "AtlasWidth",
    "type" : "ushort",
    "index" : false,
    "arraySize" : 1
  } ]
}