{
  "name" : "UnitBlood",
  "build" : 12340,
  "fields" : [ {
    "name" : "ID",
    "type" : "int",
    "index" : true,
    "arraySize" : 1
  }, {
    "name" : "CombatBloodSpurtFront",
    "type" : "int",
    "index" : false,
    "arraySize" : 1
  }, {
    "name" : "CombatBloodSpurtBack",
    "type" : "int",
    "index" : false,
    "arraySize" : 1
  }, {
    "name" : "GroundBlood",
    "type" : "string",
    "index" : false,
    "arraySize" : 1
  } ]
}