{
  "name" : "UnitBlood",
  "build" : 23835,
  "fields" : [ {
    "name" : "ID",
    "type" : "int",
    "index" : true,
    "arraySize" : 1
  }, {
    "name" : "Field04",
    "type" : "string",
    "index" : false,
    "arraySize" : 1
  }, {
    "name" : "Field18",
    "type" : "ushort",
    "index" : false,
    "arraySize" : 1
  }, {
    "name" : "Field1A",
    "type" : "ushort",
    "index" : false,
    "arraySize" : 1
  }, {
    "name" : "Field1C",
    "type" : "ushort",
    "index" : false,
    "arraySize" : 1
  }, {
    "name" : "Field1E",
    "type" : "int",
    "index" : false,
    "arraySize" : 1
  }, {
    "name" : "Field21",
    "type" : "int",
    "index" : false,
    "arraySize" : 1
  }, {
    "name" : "Field24",
    "type" : "int",
    "index" : false,
    "arraySize" : 1
  } ]
}