{
  "name" : "Unitblood",
  "build" : 25632,
  "fields" : [ {
    "name" : "ID",
    "type" : "int",
    "index" : true,
    "arraySize" : 1
  }, {
    "name" : "Field1",
    "type" : "ushort",
    "index" : false,
    "arraySize" : 1
  }, {
    "name" : "Field2",
    "type" : "int",
    "index" : false,
    "arraySize" : 1
  }, {
    "name" : "Field3",
    "type" : "int",
    "index" : false,
    "arraySize" : 1
  }, {
    "name" : "Field4",
    "type" : "int",
    "index" : false,
    "arraySize" : 1
  }, {
    "name" : "Field5",
    "type" : "uint",
    "index" : false,
    "arraySize" : 1
  }, {
    "name" : "Field6",
    "type" : "int",
    "index" : false,
    "arraySize" : 1
  } ]
}