{
  "name" : "VehicleSeat",
  "build" : 15595,
  "fields" : [ {
    "name" : "ID",
    "type" : "int",
    "index" : true,
    "arraySize" : 1
  }, {
    "name" : "Field01",
    "type" : "int",
    "index" : false,
    "arraySize" : 1
  }, {
    "name" : "Field02",
    "type" : "int",
    "index" : false,
    "arraySize" : 1
  }, {
    "name" : "Field03",
    "type" : "int",
    "index" : false,
    "arraySize" : 1
  }, {
    "name" : "Field04",
    "type" : "int",
    "index" : false,
    "arraySize" : 1
  }, {
    "name" : "Field05",
    "type" : "int",
    "index" : false,
    "arraySize" : 1
  }, {
    "name" : "Field06",
    "type" : "int",
    "index" : false,
    "arraySize" : 1
  }, {
    "name" : "Field07",
    "type" : "float",
    "index" : false,
    "arraySize" : 1
  }, {
    "name" : "Field08",
    "type" : "int",
    "index" : false,
    "arraySize" : 1
  }, {
    "name" : "Field09",
    "type" : "int",
    "index" : false,
    "arraySize" : 1
  }, {
    "name" : "Field10",
    "type" : "int",
    "index" : false,
    "arraySize" : 1
  }, {
    "name" : "Field11",
    "type" : "int",
    "index" : false,
    "arraySize" : 1
  }, {
    "name" : "Field12",
    "type" : "int",
    "index" : false,
    "arraySize" : 1
  }, {
    "name" : "Field13",
    "type" : "int",
    "index" : false,
    "arraySize" : 1
  }, {
    "name" : "Field14",
    "type" : "int",
    "index" : false,
    "arraySize" : 1
  }, {
    "name" : "Field15",
    "type" : "int",
    "index" : false,
    "arraySize" : 1
  }, {
    "name" : "Field16",
    "type" : "int",
    "index" : false,
    "arraySize" : 1
  }, {
    "name" : "Field17",
    "type" : "int",
    "index" : false,
    "arraySize" : 1
  }, {
    "name" : "Field18",
    "type" : "int",
    "index" : false,
    "arraySize" : 1
  }, {
    "name" : "Field19",
    "type" : "int",
    "index" : false,
    "arraySize" : 1
  }, {
    "name" : "Field20",
    "type" : "int",
    "index" : false,
    "arraySize" : 1
  }, {
    "name" : "Field21",
    "type" : "int",
    "index" : false,
    "arraySize" : 1
  }, {
    "name" : "Field22",
    "type" : "int",
    "index" : false,
    "arraySize" : 1
  }, {
    "name" : "Field23",
    "type" : "int",
    "index" : false,
    "arraySize" : 1
  }, {
    "name" : "Field24",
    "type" : "int",
    "index" : false,
    "arraySize" : 1
  }, {
    "name" : "Field25",
    "type" : "int",
    "index" : false,
    "arraySize" : 1
  }, {
    "name" : "Field26",
    "type" : "int",
    "index" : false,
    "arraySize" : 1
  }, {
    "name" : "Field27",
    "type" : "int",
    "index" : false,
    "arraySize" : 1
  }, {
    "name" : "Field28",
    "type" : "int",
    "index" : false,
    "arraySize" : 1
  }, {
    "name" : "Field29",
    "type" : "int",
    "index" : false,
    "arraySize" : 1
  }, {
    "name" : "Field30",
    "type" : "int",
    "index" : false,
    "arraySize" : 1
  }, {
    "name" : "Field31",
    "type" : "int",
    "index" : false,
    "arraySize" : 1
  }, {
    "name" : "Field32",
    "type" : "int",
    "index" : false,
    "arraySize" : 1
  }, {
    "name" : "Field33",
    "type" : "int",
    "index" : false,
    "arraySize" : 1
  }, {
    "name" : "Field34",
    "type" : "int",
    "index" : false,
    "arraySize" : 1
  }, {
    "name" : "Field35",
    "type" : "int",
    "index" : false,
    "arraySize" : 1
  }, {
    "name" : "Field36",
    "type" : "int",
    "index" : false,
    "arraySize" : 1
  }, {
    "name" : "Field37",
    "type" : "int",
    "index" : false,
    "arraySize" : 1
  }, {
    "name" : "Field38",
    "type" : "int",
    "index" : false,
    "arraySize" : 1
  }, {
    "name" : "Field39",
    "type" : "int",
    "index" : false,
    "arraySize" : 1
  }, {
    "name" : "Field40",
    "type" : "int",
    "index" : false,
    "arraySize" : 1
  }, {
    "name" : "Field41",
    "type" : "int",
    "index" : false,
    "arraySize" : 1
  }, {
    "name" : "Field42",
    "type" : "int",
    "index" : false,
    "arraySize" : 1
  }, {
    "name" : "Field43",
    "type" : "int",
    "index" : false,
    "arraySize" : 1
  }, {
    "name" : "Field44",
    "type" : "int",
    "index" : false,
    "arraySize" : 1
  }, {
    "name" : "Field45",
    "type" : "int",
    "index" : false,
    "arraySize" : 1
  }, {
    "name" : "Field46",
    "type" : "int",
    "index" : false,
    "arraySize" : 1
  }, {
    "name" : "Field47",
    "type" : "int",
    "index" : false,
    "arraySize" : 1
  }, {
    "name" : "Field48",
    "type" : "int",
    "index" : false,
    "arraySize" : 1
  }, {
    "name" : "Field49",
    "type" : "int",
    "index" : false,
    "arraySize" : 1
  }, {
    "name" : "Field50",
    "type" : "int",
    "index" : false,
    "arraySize" : 1
  }, {
    "name" : "Field51",
    "type" : "int",
    "index" : false,
    "arraySize" : 1
  }, {
    "name" : "Field52",
    "type" : "int",
    "index" : false,
    "arraySize" : 1
  }, {
    "name" : "Field53",
    "type" : "int",
    "index" : false,
    "arraySize" : 1
  }, {
    "name" : "Field54",
    "type" : "int",
    "index" : false,
    "arraySize" : 1
  }, {
    "name" : "Field55",
    "type" : "int",
    "index" : false,
    "arraySize" : 1
  }, {
    "name" : "Field56",
    "type" : "int",
    "index" : false,
    "arraySize" : 1
  }, {
    "name" : "Field57",
    "type" : "int",
    "index" : false,
    "arraySize" : 1
  }, {
    "name" : "Field58",
    "type" : "int",
    "index" : false,
    "arraySize" : 1
  }, {
    "name" : "Field59",
    "type" : "int",
    "index" : false,
    "arraySize" : 1
  }, {
    "name" : "Field60",
    "type" : "int",
    "index" : false,
    "arraySize" : 1
  }, {
    "name" : "Field61",
    "type" : "int",
    "index" : false,
    "arraySize" : 1
  }, {
    "name" : "Field62",
    "type" : "int",
    "index" : false,
    "arraySize" : 1
  }, {
    "name" : "Field63",
    "type" : "int",
    "index" : false,
    "arraySize" : 1
  }, {
    "name" : "Field64",
    "type" : "int",
    "index" : false,
    "arraySize" : 1
  }, {
    "name" : "Field65",
    "type" : "int",
    "index" : false,
    "arraySize" : 1
  } ]
}