{
  "name" : "Vehicle",
  "build" : 18414,
  "fields" : [ {
    "name" : "ID",
    "type" : "uint",
    "index" : true,
    "arraySize" : 1
  }, {
    "name" : "Flags",
    "type" : "uint",
    "index" : false,
    "arraySize" : 1
  }, {
    "name" : "UnkName",
    "type" : "string",
    "index" : false,
    "arraySize" : 1
  }, {
    "name" : "TurnSpeed",
    "type" : "float",
    "index" : false,
    "arraySize" : 1
  }, {
    "name" : "PitchSpeed",
    "type" : "float",
    "index" : false,
    "arraySize" : 1
  }, {
    "name" : "PitchMin",
    "type" : "float",
    "index" : false,
    "arraySize" : 1
  }, {
    "name" : "PitchMax",
    "type" : "float",
    "index" : false,
    "arraySize" : 1
  }, {
    "name" : "SeatID",
    "type" : "uint",
    "index" : false,
    "arraySize" : 1
  }, {
    "name" : "MouseLookOffsetPitch",
    "type" : "float",
    "index" : false,
    "arraySize" : 1
  }, {
    "name" : "CameraFadeDistScalarMin",
    "type" : "float",
    "index" : false,
    "arraySize" : 1
  }, {
    "name" : "CameraFadeDistScalarMax",
    "type" : "float",
    "index" : false,
    "arraySize" : 1
  }, {
    "name" : "CameraPitchOffset",
    "type" : "float",
    "index" : false,
    "arraySize" : 1
  }, {
    "name" : "FacingLimitRight",
    "type" : "float",
    "index" : false,
    "arraySize" : 1
  }, {
    "name" : "FacingLimitLeft",
    "type" : "float",
    "index" : false,
    "arraySize" : 1
  }, {
    "name" : "MissileTargetTurnLingering",
    "type" : "float",
    "index" : false,
    "arraySize" : 1
  }, {
    "name" : "MissileTargetPitchLingering",
    "type" : "float",
    "index" : false,
    "arraySize" : 1
  }, {
    "name" : "MissileTargetMouseLingering",
    "type" : "float",
    "index" : false,
    "arraySize" : 1
  }, {
    "name" : "MissileTargetEndOpacity",
    "type" : "float",
    "index" : false,
    "arraySize" : 1
  }, {
    "name" : "MissileTargetArcSpeed",
    "type" : "float",
    "index" : false,
    "arraySize" : 1
  }, {
    "name" : "MissileTargetArcRepeat",
    "type" : "float",
    "index" : false,
    "arraySize" : 1
  }, {
    "name" : "MissileTargetArcWidth",
    "type" : "float",
    "index" : false,
    "arraySize" : 1
  }, {
    "name" : "MissileTargetImpactRadius",
    "type" : "float",
    "index" : false,
    "arraySize" : 1
  }, {
    "name" : "MissileTargetArcTexture",
    "type" : "string",
    "index" : false,
    "arraySize" : 1
  }, {
    "name" : "MissileTargetImpactTexture",
    "type" : "string",
    "index" : false,
    "arraySize" : 1
  }, {
    "name" : "MissileTargetImpactModel",
    "type" : "string",
    "index" : false,
    "arraySize" : 1
  }, {
    "name" : "CameraYawOffset",
    "type" : "float",
    "index" : false,
    "arraySize" : 1
  }, {
    "name" : "UILocomotionType",
    "type" : "uint",
    "index" : false,
    "arraySize" : 1
  }, {
    "name" : "MissileTargetImpactTexRadius",
    "type" : "float",
    "index" : false,
    "arraySize" : 1
  }, {
    "name" : "UISeatIndicatorType",
    "type" : "uint",
    "index" : false,
    "arraySize" : 1
  }, {
    "name" : "PowerType",
    "type" : "uint",
    "index" : false,
    "arraySize" : 1
  }, {
    "name" : "Unk1",
    "type" : "uint",
    "index" : false,
    "arraySize" : 1
  }, {
    "name" : "Unk2",
    "type" : "uint",
    "index" : false,
    "arraySize" : 1
  } ]
}