{
  "name" : "Vehicle",
  "build" : 22578,
  "fields" : [ {
    "name" : "ID",
    "type" : "int",
    "index" : true,
    "arraySize" : 1
  }, {
    "name" : "Field00",
    "type" : "int",
    "index" : false,
    "arraySize" : 1
  }, {
    "name" : "Field04",
    "type" : "float",
    "index" : false,
    "arraySize" : 1
  }, {
    "name" : "Field08",
    "type" : "float",
    "index" : false,
    "arraySize" : 1
  }, {
    "name" : "Field0C",
    "type" : "float",
    "index" : false,
    "arraySize" : 1
  }, {
    "name" : "Field10",
    "type" : "float",
    "index" : false,
    "arraySize" : 1
  }, {
    "name" : "Field14",
    "type" : "float",
    "index" : false,
    "arraySize" : 1
  }, {
    "name" : "Field18",
    "type" : "float",
    "index" : false,
    "arraySize" : 1
  }, {
    "name" : "Field1C",
    "type" : "float",
    "index" : false,
    "arraySize" : 1
  }, {
    "name" : "Field20",
    "type" : "float",
    "index" : false,
    "arraySize" : 1
  }, {
    "name" : "Field24",
    "type" : "float",
    "index" : false,
    "arraySize" : 1
  }, {
    "name" : "Field28",
    "type" : "float",
    "index" : false,
    "arraySize" : 1
  }, {
    "name" : "Field2C",
    "type" : "float",
    "index" : false,
    "arraySize" : 1
  }, {
    "name" : "Field30",
    "type" : "float",
    "index" : false,
    "arraySize" : 1
  }, {
    "name" : "Field34",
    "type" : "float",
    "index" : false,
    "arraySize" : 1
  }, {
    "name" : "Field38",
    "type" : "float",
    "index" : false,
    "arraySize" : 1
  }, {
    "name" : "Field3C",
    "type" : "float",
    "index" : false,
    "arraySize" : 1
  }, {
    "name" : "Field40",
    "type" : "float",
    "index" : false,
    "arraySize" : 1
  }, {
    "name" : "Field44",
    "type" : "float",
    "index" : false,
    "arraySize" : 1
  }, {
    "name" : "Field48",
    "type" : "float",
    "index" : false,
    "arraySize" : 1
  }, {
    "name" : "Field50",
    "type" : "string",
    "index" : false,
    "arraySize" : 1
  }, {
    "name" : "Field54",
    "type" : "string",
    "index" : false,
    "arraySize" : 1
  }, {
    "name" : "Field58",
    "type" : "string",
    "index" : false,
    "arraySize" : 1
  }, {
    "name" : "Field60",
    "type" : "float",
    "index" : false,
    "arraySize" : 1
  }, {
    "name" : "Field64",
    "type" : "float",
    "index" : false,
    "arraySize" : 1
  }, {
    "name" : "Field68",
    "type" : "ushort",
    "index" : false,
    "arraySize" : 1
  }, {
    "name" : "Field78",
    "type" : "ushort",
    "index" : false,
    "arraySize" : 1
  }, {
    "name" : "Field7A",
    "type" : "ushort",
    "index" : false,
    "arraySize" : 1
  }, {
    "name" : "Field80",
    "type" : "byte",
    "index" : false,
    "arraySize" : 1
  }, {
    "name" : "Field81",
    "type" : "byte",
    "index" : false,
    "arraySize" : 1
  } ]
}