{
  "name" : "VehicleUIIndSeat",
  "build" : 21742,
  "fields" : [ {
    "name" : "ID",
    "type" : "int",
    "index" : true,
    "arraySize" : 1
  }, {
    "name" : "VehicleUIIndicatorID",
    "type" : "int",
    "index" : false,
    "arraySize" : 1
  }, {
    "name" : "VirtualSeatIndex",
    "type" : "int",
    "index" : false,
    "arraySize" : 1
  }, {
    "name" : "XPos",
    "type" : "float",
    "index" : false,
    "arraySize" : 1
  }, {
    "name" : "YPos",
    "type" : "float",
    "index" : false,
    "arraySize" : 1
  } ]
}