{
  "name" : "VehicleSeat",
  "build" : 24492,
  "fields" : [ {
    "name" : "ID",
    "type" : "int",
    "index" : true,
    "arraySize" : 1
  }, {
    "name" : "Flags",
    "type" : "uint",
    "index" : false,
    "arraySize" : 1
  }, {
    "name" : "AttachmentOffset",
    "type" : "float",
    "index" : false,
    "arraySize" : 1
  }, {
    "name" : "EnterPreDelay",
    "type" : "float",
    "index" : false,
    "arraySize" : 1
  }, {
    "name" : "EnterSpeed",
    "type" : "float",
    "index" : false,
    "arraySize" : 1
  }, {
    "name" : "EnterGravity",
    "type" : "float",
    "index" : false,
    "arraySize" : 1
  }, {
    "name" : "EnterMinDuration",
    "type" : "float",
    "index" : false,
    "arraySize" : 1
  }, {
    "name" : "EnterMaxDuration",
    "type" : "float",
    "index" : false,
    "arraySize" : 1
  }, {
    "name" : "EnterMinArcHeight",
    "type" : "float",
    "index" : false,
    "arraySize" : 1
  }, {
    "name" : "EnterMaxArcHeight",
    "type" : "float",
    "index" : false,
    "arraySize" : 1
  }, {
    "name" : "ExitPreDelay",
    "type" : "float",
    "index" : false,
    "arraySize" : 1
  }, {
    "name" : "ExitSpeed",
    "type" : "float",
    "index" : false,
    "arraySize" : 1
  }, {
    "name" : "ExitGravity",
    "type" : "float",
    "index" : false,
    "arraySize" : 1
  }, {
    "name" : "ExitMinDuration",
    "type" : "float",
    "index" : false,
    "arraySize" : 1
  }, {
    "name" : "ExitMaxDuration",
    "type" : "float",
    "index" : false,
    "arraySize" : 1
  }, {
    "name" : "ExitMinArcHeight",
    "type" : "float",
    "index" : false,
    "arraySize" : 1
  }, {
    "name" : "ExitMaxArcHeight",
    "type" : "float",
    "index" : false,
    "arraySize" : 1
  }, {
    "name" : "PassengerYaw",
    "type" : "float",
    "index" : false,
    "arraySize" : 1
  }, {
    "name" : "PassengerPitch",
    "type" : "float",
    "index" : false,
    "arraySize" : 1
  }, {
    "name" : "PassengerRoll",
    "type" : "float",
    "index" : false,
    "arraySize" : 1
  }, {
    "name" : "VehicleEnterAnimDelay",
    "type" : "float",
    "index" : false,
    "arraySize" : 1
  }, {
    "name" : "VehicleExitAnimDelay",
    "type" : "float",
    "index" : false,
    "arraySize" : 1
  }, {
    "name" : "CameraEnteringDelay",
    "type" : "float",
    "index" : false,
    "arraySize" : 1
  }, {
    "name" : "CameraEnteringDuration",
    "type" : "float",
    "index" : false,
    "arraySize" : 1
  }, {
    "name" : "CameraExitingDelay",
    "type" : "float",
    "index" : false,
    "arraySize" : 1
  }, {
    "name" : "CameraExitingDuration",
    "type" : "float",
    "index" : false,
    "arraySize" : 1
  }, {
    "name" : "CameraOffset",
    "type" : "float",
    "index" : false,
    "arraySize" : 1
  }, {
    "name" : "CameraPosChaseRate",
    "type" : "float",
    "index" : false,
    "arraySize" : 1
  }, {
    "name" : "CameraFacingChaseRate",
    "type" : "float",
    "index" : false,
    "arraySize" : 1
  }, {
    "name" : "CameraEnteringZoom",
    "type" : "float",
    "index" : false,
    "arraySize" : 1
  }, {
    "name" : "CameraSeatZoomMin",
    "type" : "float",
    "index" : false,
    "arraySize" : 1
  }, {
    "name" : "CameraSeatZoomMax",
    "type" : "float",
    "index" : false,
    "arraySize" : 1
  }, {
    "name" : "UISkinFileDataID",
    "type" : "uint",
    "index" : false,
    "arraySize" : 1
  }, {
    "name" : "EnterAnimStart",
    "type" : "ushort",
    "index" : false,
    "arraySize" : 1
  }, {
    "name" : "EnterAnimLoop",
    "type" : "ushort",
    "index" : false,
    "arraySize" : 1
  }, {
    "name" : "RideAnimStart",
    "type" : "ushort",
    "index" : false,
    "arraySize" : 1
  }, {
    "name" : "RideAnimLoop",
    "type" : "ushort",
    "index" : false,
    "arraySize" : 1
  }, {
    "name" : "RideUpperAnimStart",
    "type" : "ushort",
    "index" : false,
    "arraySize" : 1
  }, {
    "name" : "RideUpperAnimLoop",
    "type" : "ushort",
    "index" : false,
    "arraySize" : 1
  }, {
    "name" : "ExitAnimStart",
    "type" : "ushort",
    "index" : false,
    "arraySize" : 1
  }, {
    "name" : "ExitAnimLoop",
    "type" : "ushort",
    "index" : false,
    "arraySize" : 1
  }, {
    "name" : "ExitAnimEnd",
    "type" : "ushort",
    "index" : false,
    "arraySize" : 1
  }, {
    "name" : "VehicleEnterAnim",
    "type" : "ushort",
    "index" : false,
    "arraySize" : 1
  }, {
    "name" : "VehicleExitAnim",
    "type" : "ushort",
    "index" : false,
    "arraySize" : 1
  }, {
    "name" : "VehicleRideAnimLoop",
    "type" : "ushort",
    "index" : false,
    "arraySize" : 1
  }, {
    "name" : "EnterAnimKitID",
    "type" : "ushort",
    "index" : false,
    "arraySize" : 1
  }, {
    "name" : "RideAnimKitID",
    "type" : "ushort",
    "index" : false,
    "arraySize" : 1
  }, {
    "name" : "ExitAnimKitID",
    "type" : "ushort",
    "index" : false,
    "arraySize" : 1
  }, {
    "name" : "VehicleEnterAnimKitID",
    "type" : "ushort",
    "index" : false,
    "arraySize" : 1
  }, {
    "name" : "VehicleRideAnimKitID",
    "type" : "ushort",
    "index" : false,
    "arraySize" : 1
  }, {
    "name" : "VehicleExitAnimKitID",
    "type" : "ushort",
    "index" : false,
    "arraySize" : 1
  }, {
    "name" : "CameraModeID",
    "type" : "ushort",
    "index" : false,
    "arraySize" : 1
  }, {
    "name" : "AttachmentID",
    "type" : "byte",
    "index" : false,
    "arraySize" : 1
  }, {
    "name" : "PassengerAttachmentID",
    "type" : "byte",
    "index" : false,
    "arraySize" : 1
  }, {
    "name" : "VehicleEnterAnimBone",
    "type" : "byte",
    "index" : false,
    "arraySize" : 1
  }, {
    "name" : "VehicleExitAnimBone",
    "type" : "byte",
    "index" : false,
    "arraySize" : 1
  }, {
    "name" : "VehicleRideAnimLoopBone",
    "type" : "byte",
    "index" : false,
    "arraySize" : 1
  }, {
    "name" : "VehicleAbilityDisplay",
    "type" : "byte",
    "index" : false,
    "arraySize" : 1
  }, {
    "name" : "EnterUISoundID",
    "type" : "uint",
    "index" : false,
    "arraySize" : 1
  }, {
    "name" : "ExitUISoundID",
    "type" : "uint",
    "index" : false,
    "arraySize" : 1
  } ]
}