{
  "name" : "VehicleSeat",
  "build" : 22578,
  "fields" : [ {
    "name" : "ID",
    "type" : "int",
    "index" : true,
    "arraySize" : 1
  }, {
    "name" : "Field00",
    "type" : "int",
    "index" : false,
    "arraySize" : 1
  }, {
    "name" : "Field04",
    "type" : "int",
    "index" : false,
    "arraySize" : 1
  }, {
    "name" : "Field08",
    "type" : "int",
    "index" : false,
    "arraySize" : 1
  }, {
    "name" : "Field0C",
    "type" : "float",
    "index" : false,
    "arraySize" : 1
  }, {
    "name" : "Field18",
    "type" : "float",
    "index" : false,
    "arraySize" : 1
  }, {
    "name" : "Field1C",
    "type" : "float",
    "index" : false,
    "arraySize" : 1
  }, {
    "name" : "Field20",
    "type" : "float",
    "index" : false,
    "arraySize" : 1
  }, {
    "name" : "Field24",
    "type" : "float",
    "index" : false,
    "arraySize" : 1
  }, {
    "name" : "Field28",
    "type" : "float",
    "index" : false,
    "arraySize" : 1
  }, {
    "name" : "Field2C",
    "type" : "float",
    "index" : false,
    "arraySize" : 1
  }, {
    "name" : "Field30",
    "type" : "float",
    "index" : false,
    "arraySize" : 1
  }, {
    "name" : "Field34",
    "type" : "float",
    "index" : false,
    "arraySize" : 1
  }, {
    "name" : "Field38",
    "type" : "float",
    "index" : false,
    "arraySize" : 1
  }, {
    "name" : "Field3C",
    "type" : "float",
    "index" : false,
    "arraySize" : 1
  }, {
    "name" : "Field40",
    "type" : "float",
    "index" : false,
    "arraySize" : 1
  }, {
    "name" : "Field44",
    "type" : "float",
    "index" : false,
    "arraySize" : 1
  }, {
    "name" : "Field48",
    "type" : "float",
    "index" : false,
    "arraySize" : 1
  }, {
    "name" : "Field4C",
    "type" : "float",
    "index" : false,
    "arraySize" : 1
  }, {
    "name" : "Field50",
    "type" : "float",
    "index" : false,
    "arraySize" : 1
  }, {
    "name" : "Field54",
    "type" : "float",
    "index" : false,
    "arraySize" : 1
  }, {
    "name" : "Field58",
    "type" : "float",
    "index" : false,
    "arraySize" : 1
  }, {
    "name" : "Field5C",
    "type" : "float",
    "index" : false,
    "arraySize" : 1
  }, {
    "name" : "Field60",
    "type" : "float",
    "index" : false,
    "arraySize" : 1
  }, {
    "name" : "Field64",
    "type" : "float",
    "index" : false,
    "arraySize" : 1
  }, {
    "name" : "Field68",
    "type" : "float",
    "index" : false,
    "arraySize" : 1
  }, {
    "name" : "Field6C",
    "type" : "float",
    "index" : false,
    "arraySize" : 1
  }, {
    "name" : "Field70",
    "type" : "float",
    "index" : false,
    "arraySize" : 1
  }, {
    "name" : "Field74",
    "type" : "float",
    "index" : false,
    "arraySize" : 1
  }, {
    "name" : "Field80",
    "type" : "float",
    "index" : false,
    "arraySize" : 1
  }, {
    "name" : "Field84",
    "type" : "float",
    "index" : false,
    "arraySize" : 1
  }, {
    "name" : "Field88",
    "type" : "float",
    "index" : false,
    "arraySize" : 1
  }, {
    "name" : "Field8C",
    "type" : "float",
    "index" : false,
    "arraySize" : 1
  }, {
    "name" : "Field90",
    "type" : "float",
    "index" : false,
    "arraySize" : 1
  }, {
    "name" : "Field94",
    "type" : "int",
    "index" : false,
    "arraySize" : 1
  }, {
    "name" : "Field98",
    "type" : "ushort",
    "index" : false,
    "arraySize" : 1
  }, {
    "name" : "Field9A",
    "type" : "ushort",
    "index" : false,
    "arraySize" : 1
  }, {
    "name" : "Field9C",
    "type" : "ushort",
    "index" : false,
    "arraySize" : 1
  }, {
    "name" : "Field9E",
    "type" : "ushort",
    "index" : false,
    "arraySize" : 1
  }, {
    "name" : "FieldA0",
    "type" : "ushort",
    "index" : false,
    "arraySize" : 1
  }, {
    "name" : "FieldA2",
    "type" : "ushort",
    "index" : false,
    "arraySize" : 1
  }, {
    "name" : "FieldA4",
    "type" : "ushort",
    "index" : false,
    "arraySize" : 1
  }, {
    "name" : "FieldA6",
    "type" : "ushort",
    "index" : false,
    "arraySize" : 1
  }, {
    "name" : "FieldA8",
    "type" : "ushort",
    "index" : false,
    "arraySize" : 1
  }, {
    "name" : "FieldAA",
    "type" : "ushort",
    "index" : false,
    "arraySize" : 1
  }, {
    "name" : "FieldAC",
    "type" : "ushort",
    "index" : false,
    "arraySize" : 1
  }, {
    "name" : "FieldAE",
    "type" : "ushort",
    "index" : false,
    "arraySize" : 1
  }, {
    "name" : "FieldB0",
    "type" : "ushort",
    "index" : false,
    "arraySize" : 1
  }, {
    "name" : "FieldB2",
    "type" : "ushort",
    "index" : false,
    "arraySize" : 1
  }, {
    "name" : "FieldB4",
    "type" : "ushort",
    "index" : false,
    "arraySize" : 1
  }, {
    "name" : "FieldB6",
    "type" : "ushort",
    "index" : false,
    "arraySize" : 1
  }, {
    "name" : "FieldB8",
    "type" : "ushort",
    "index" : false,
    "arraySize" : 1
  }, {
    "name" : "FieldBA",
    "type" : "ushort",
    "index" : false,
    "arraySize" : 1
  }, {
    "name" : "FieldBC",
    "type" : "ushort",
    "index" : false,
    "arraySize" : 1
  }, {
    "name" : "FieldBE",
    "type" : "byte",
    "index" : false,
    "arraySize" : 1
  }, {
    "name" : "FieldBF",
    "type" : "byte",
    "index" : false,
    "arraySize" : 1
  }, {
    "name" : "FieldC0",
    "type" : "byte",
    "index" : false,
    "arraySize" : 1
  }, {
    "name" : "FieldC1",
    "type" : "byte",
    "index" : false,
    "arraySize" : 1
  }, {
    "name" : "FieldC2",
    "type" : "byte",
    "index" : false,
    "arraySize" : 1
  }, {
    "name" : "FieldC3",
    "type" : "byte",
    "index" : false,
    "arraySize" : 1
  }, {
    "name" : "FieldC4",
    "type" : "int",
    "index" : false,
    "arraySize" : 1
  }, {
    "name" : "FieldC8",
    "type" : "int",
    "index" : false,
    "arraySize" : 1
  } ]
}