{
  "name" : "VideoHardware",
  "build" : 21742,
  "fields" : [ {
    "name" : "ID",
    "type" : "int",
    "index" : true,
    "arraySize" : 1
  }, {
    "name" : "VendorID",
    "type" : "int",
    "index" : false,
    "arraySize" : 1
  }, {
    "name" : "DeviceID",
    "type" : "int",
    "index" : false,
    "arraySize" : 1
  }, {
    "name" : "FarclipIdx",
    "type" : "int",
    "index" : false,
    "arraySize" : 1
  }, {
    "name" : "TerrainLODDistIdx",
    "type" : "int",
    "index" : false,
    "arraySize" : 1
  }, {
    "name" : "TerrainShadowLOD",
    "type" : "int",
    "index" : false,
    "arraySize" : 1
  }, {
    "name" : "DetailDoodadDensityIdx",
    "type" : "int",
    "index" : false,
    "arraySize" : 1
  }, {
    "name" : "DetailDoodadAlpha",
    "type" : "int",
    "index" : false,
    "arraySize" : 1
  }, {
    "name" : "AnimatingDoodadIdx",
    "type" : "int",
    "index" : false,
    "arraySize" : 1
  }, {
    "name" : "Trilinear",
    "type" : "int",
    "index" : false,
    "arraySize" : 1
  }, {
    "name" : "NumLights",
    "type" : "int",
    "index" : false,
    "arraySize" : 1
  }, {
    "name" : "Specularity",
    "type" : "int",
    "index" : false,
    "arraySize" : 1
  }, {
    "name" : "WaterLODIdx",
    "type" : "int",
    "index" : false,
    "arraySize" : 1
  }, {
    "name" : "ParticleDensityIdx",
    "type" : "int",
    "index" : false,
    "arraySize" : 1
  }, {
    "name" : "UnitDrawDistIdx",
    "type" : "int",
    "index" : false,
    "arraySize" : 1
  }, {
    "name" : "SmallCullDistIdx",
    "type" : "int",
    "index" : false,
    "arraySize" : 1
  }, {
    "name" : "ResolutionIdx",
    "type" : "int",
    "index" : false,
    "arraySize" : 1
  }, {
    "name" : "BaseMipLevel",
    "type" : "int",
    "index" : false,
    "arraySize" : 1
  }, {
    "name" : "OglOverrides",
    "type" : "string",
    "index" : false,
    "arraySize" : 1
  }, {
    "name" : "D3dOverrides",
    "type" : "string",
    "index" : false,
    "arraySize" : 1
  }, {
    "name" : "FixLag",
    "type" : "int",
    "index" : false,
    "arraySize" : 1
  }, {
    "name" : "Multisample",
    "type" : "int",
    "index" : false,
    "arraySize" : 1
  }, {
    "name" : "Atlasdisable",
    "type" : "int",
    "index" : false,
    "arraySize" : 1
  } ]
}