{
  "name" : "VideoHardware",
  "build" : 22578,
  "fields" : [ {
    "name" : "Field00",
    "type" : "string",
    "index" : false,
    "arraySize" : 1
  }, {
    "name" : "Field04",
    "type" : "string",
    "index" : false,
    "arraySize" : 1
  }, {
    "name" : "Field08",
    "type" : "ushort",
    "index" : false,
    "arraySize" : 1
  }, {
    "name" : "Field0A",
    "type" : "ushort",
    "index" : false,
    "arraySize" : 1
  }, {
    "name" : "Field0C",
    "type" : "byte",
    "index" : false,
    "arraySize" : 1
  }, {
    "name" : "Field0D",
    "type" : "byte",
    "index" : false,
    "arraySize" : 1
  }, {
    "name" : "Field0E",
    "type" : "byte",
    "index" : false,
    "arraySize" : 1
  }, {
    "name" : "Field0F",
    "type" : "byte",
    "index" : false,
    "arraySize" : 1
  }, {
    "name" : "Field10",
    "type" : "byte",
    "index" : false,
    "arraySize" : 1
  }, {
    "name" : "Field11",
    "type" : "byte",
    "index" : false,
    "arraySize" : 1
  }, {
    "name" : "Field12",
    "type" : "byte",
    "index" : false,
    "arraySize" : 1
  }, {
    "name" : "Field13",
    "type" : "byte",
    "index" : false,
    "arraySize" : 1
  }, {
    "name" : "Field14",
    "type" : "byte",
    "index" : false,
    "arraySize" : 1
  }, {
    "name" : "Field15",
    "type" : "byte",
    "index" : false,
    "arraySize" : 1
  }, {
    "name" : "ID",
    "type" : "int",
    "index" : true,
    "arraySize" : 1
  }, {
    "name" : "Field1A",
    "type" : "int",
    "index" : false,
    "arraySize" : 1
  }, {
    "name" : "Field1E",
    "type" : "int",
    "index" : false,
    "arraySize" : 1
  }, {
    "name" : "Field22",
    "type" : "int",
    "index" : false,
    "arraySize" : 1
  }, {
    "name" : "Field26",
    "type" : "int",
    "index" : false,
    "arraySize" : 1
  }, {
    "name" : "Field2A",
    "type" : "int",
    "index" : false,
    "arraySize" : 1
  }, {
    "name" : "Field2E",
    "type" : "int",
    "index" : false,
    "arraySize" : 1
  }, {
    "name" : "Field32",
    "type" : "int",
    "index" : false,
    "arraySize" : 1
  } ]
}