{
  "name" : "VocalUISounds",
  "build" : 12340,
  "fields" : [ {
    "name" : "ID",
    "type" : "int",
    "index" : true,
    "arraySize" : 1
  }, {
    "name" : "VocalUIEnum",
    "type" : "int",
    "index" : false,
    "arraySize" : 1
  }, {
    "name" : "RaceID",
    "type" : "int",
    "index" : false,
    "arraySize" : 1
  }, {
    "name" : "NormalSoundID",
    "type" : "int",
    "index" : false,
    "arraySize" : 1
  }, {
    "name" : "PissedSoundID",
    "type" : "int",
    "index" : false,
    "arraySize" : 1
  } ]
}