{
  "name" : "WeaponImpactSounds",
  "build" : 24492,
  "fields" : [ {
    "name" : "ID",
    "type" : "int",
    "index" : true,
    "arraySize" : 1
  }, {
    "name" : "Field04",
    "type" : "byte",
    "index" : false,
    "arraySize" : 1
  }, {
    "name" : "Field05",
    "type" : "byte",
    "index" : false,
    "arraySize" : 1
  }, {
    "name" : "Field06",
    "type" : "byte",
    "index" : false,
    "arraySize" : 1
  }, {
    "name" : "Field07",
    "type" : "int",
    "index" : false,
    "arraySize" : 1
  }, {
    "name" : "Field28",
    "type" : "int",
    "index" : false,
    "arraySize" : 1
  }, {
    "name" : "Field49",
    "type" : "ushort",
    "index" : false,
    "arraySize" : 1
  }, {
    "name" : "Field5F",
    "type" : "ushort",
    "index" : false,
    "arraySize" : 1
  } ]
}