{
  "name" : "WeaponImpactSounds",
  "build" : 8606,
  "fields" : [ {
    "name" : "ID",
    "type" : "int",
    "index" : true,
    "arraySize" : 1
  }, {
    "name" : "WeaponSubclassID",
    "type" : "int",
    "index" : false,
    "arraySize" : 1
  }, {
    "name" : "ParrySoundType",
    "type" : "int",
    "index" : false,
    "arraySize" : 1
  }, {
    "name" : "ImpactSoundID",
    "type" : "int",
    "index" : false,
    "arraySize" : 1
  }, {
    "name" : "CritImpactSoundID",
    "type" : "int",
    "index" : false,
    "arraySize" : 1
  } ]
}