{
  "name" : "WeaponTrail",
  "build" : 26231,
  "fields" : [ {
    "name" : "ID",
    "type" : "int",
    "index" : true,
    "arraySize" : 1
  }, {
    "name" : "FileDataId",
    "type" : "int",
    "index" : false,
    "arraySize" : 1
  }, {
    "name" : "Yaw",
    "type" : "float",
    "index" : false,
    "arraySize" : 1
  }, {
    "name" : "Pitch",
    "type" : "float",
    "index" : false,
    "arraySize" : 1
  }, {
    "name" : "Roll",
    "type" : "float",
    "index" : false,
    "arraySize" : 1
  }, {
    "name" : "TextureFileDataId",
    "type" : "int",
    "index" : false,
    "arraySize" : 1
  }, {
    "name" : "TextureScrollRateU",
    "type" : "float",
    "index" : false,
    "arraySize" : 1
  }, {
    "name" : "TextureScrollRateV",
    "type" : "float",
    "index" : false,
    "arraySize" : 1
  }, {
    "name" : "TextureScaleU",
    "type" : "float",
    "index" : false,
    "arraySize" : 1
  }, {
    "name" : "TextureScaleV",
    "type" : "float",
    "index" : false,
    "arraySize" : 1
  } ]
}