{
  "name" : "Weather",
  "build" : 24793,
  "fields" : [ {
    "name" : "ID",
    "type" : "int",
    "index" : true,
    "arraySize" : 1
  }, {
    "name" : "Field04",
    "type" : "float",
    "index" : false,
    "arraySize" : 1
  }, {
    "name" : "Field0C",
    "type" : "float",
    "index" : false,
    "arraySize" : 1
  }, {
    "name" : "Field10",
    "type" : "float",
    "index" : false,
    "arraySize" : 1
  }, {
    "name" : "Field1C",
    "type" : "float",
    "index" : false,
    "arraySize" : 1
  }, {
    "name" : "Field20",
    "type" : "float",
    "index" : false,
    "arraySize" : 1
  }, {
    "name" : "Field24",
    "type" : "float",
    "index" : false,
    "arraySize" : 1
  }, {
    "name" : "Field28",
    "type" : "float",
    "index" : false,
    "arraySize" : 1
  }, {
    "name" : "Field2C",
    "type" : "float",
    "index" : false,
    "arraySize" : 1
  }, {
    "name" : "Field30",
    "type" : "ushort",
    "index" : false,
    "arraySize" : 1
  }, {
    "name" : "Field32",
    "type" : "byte",
    "index" : false,
    "arraySize" : 1
  }, {
    "name" : "Field33",
    "type" : "byte",
    "index" : false,
    "arraySize" : 1
  }, {
    "name" : "Field34",
    "type" : "byte",
    "index" : false,
    "arraySize" : 1
  }, {
    "name" : "Field35",
    "type" : "ushort",
    "index" : false,
    "arraySize" : 1
  }, {
    "name" : "Field37",
    "type" : "int",
    "index" : false,
    "arraySize" : 1
  } ]
}