{
  "name" : "WMOAreaTable",
  "build" : 21742,
  "fields" : [ {
    "name" : "ID",
    "type" : "int",
    "index" : true,
    "arraySize" : 1
  }, {
    "name" : "WMOID",
    "type" : "int",
    "index" : false,
    "arraySize" : 1
  }, {
    "name" : "NameSetID",
    "type" : "int",
    "index" : false,
    "arraySize" : 1
  }, {
    "name" : "WMOGroupID",
    "type" : "int",
    "index" : false,
    "arraySize" : 1
  }, {
    "name" : "SoundProviderPref",
    "type" : "int",
    "index" : false,
    "arraySize" : 1
  }, {
    "name" : "SoundProviderPrefUnderwater",
    "type" : "int",
    "index" : false,
    "arraySize" : 1
  }, {
    "name" : "AmbienceID",
    "type" : "int",
    "index" : false,
    "arraySize" : 1
  }, {
    "name" : "ZoneMusic",
    "type" : "int",
    "index" : false,
    "arraySize" : 1
  }, {
    "name" : "IntroSound",
    "type" : "int",
    "index" : false,
    "arraySize" : 1
  }, {
    "name" : "Flags",
    "type" : "int",
    "index" : false,
    "arraySize" : 1
  }, {
    "name" : "AreaTableID",
    "type" : "int",
    "index" : false,
    "arraySize" : 1
  }, {
    "name" : "AreaName_Lang",
    "type" : "string",
    "index" : false,
    "arraySize" : 1
  }, {
    "name" : "UwintroSound",
    "type" : "int",
    "index" : false,
    "arraySize" : 1
  }, {
    "name" : "UwZoneMusic",
    "type" : "int",
    "index" : false,
    "arraySize" : 1
  }, {
    "name" : "UwAmbience",
    "type" : "int",
    "index" : false,
    "arraySize" : 1
  } ]
}