{
  "name" : "WMOAreaTable",
  "build" : 24492,
  "fields" : [ {
    "name" : "WMOGroupID",
    "type" : "int",
    "index" : false,
    "arraySize" : 1
  }, {
    "name" : "AreaName",
    "type" : "string",
    "index" : false,
    "arraySize" : 1
  }, {
    "name" : "WMOID",
    "type" : "ushort",
    "index" : false,
    "arraySize" : 1
  }, {
    "name" : "AmbienceID",
    "type" : "ushort",
    "index" : false,
    "arraySize" : 1
  }, {
    "name" : "ZoneMusic",
    "type" : "ushort",
    "index" : false,
    "arraySize" : 1
  }, {
    "name" : "IntroSound",
    "type" : "ushort",
    "index" : false,
    "arraySize" : 1
  }, {
    "name" : "AreaTableID",
    "type" : "ushort",
    "index" : false,
    "arraySize" : 1
  }, {
    "name" : "UWIntroSound",
    "type" : "ushort",
    "index" : false,
    "arraySize" : 1
  }, {
    "name" : "UWAmbience",
    "type" : "ushort",
    "index" : false,
    "arraySize" : 1
  }, {
    "name" : "NameSet",
    "type" : "byte",
    "index" : false,
    "arraySize" : 1
  }, {
    "name" : "SoundProviderPref",
    "type" : "byte",
    "index" : false,
    "arraySize" : 1
  }, {
    "name" : "SoundProviderPrefUnderwater",
    "type" : "byte",
    "index" : false,
    "arraySize" : 1
  }, {
    "name" : "Flags",
    "type" : "byte",
    "index" : false,
    "arraySize" : 1
  }, {
    "name" : "ID",
    "type" : "int",
    "index" : true,
    "arraySize" : 1
  }, {
    "name" : "UWZoneMusic",
    "type" : "uint",
    "index" : false,
    "arraySize" : 1
  } ]
}