{
  "name" : "WorldMapTransforms",
  "build" : 8606,
  "fields" : [ {
    "name" : "ID",
    "type" : "int",
    "index" : true,
    "arraySize" : 1
  }, {
    "name" : "MapID",
    "type" : "int",
    "index" : false,
    "arraySize" : 1
  }, {
    "name" : "RegionMinX",
    "type" : "float",
    "index" : false,
    "arraySize" : 1
  }, {
    "name" : "RegionMinY",
    "type" : "float",
    "index" : false,
    "arraySize" : 1
  }, {
    "name" : "RegionMaxX",
    "type" : "float",
    "index" : false,
    "arraySize" : 1
  }, {
    "name" : "RegionMaxY",
    "type" : "float",
    "index" : false,
    "arraySize" : 1
  }, {
    "name" : "NewMapID",
    "type" : "int",
    "index" : false,
    "arraySize" : 1
  }, {
    "name" : "RegionOffsetX",
    "type" : "float",
    "index" : false,
    "arraySize" : 1
  }, {
    "name" : "RegionOffsetY",
    "type" : "float",
    "index" : false,
    "arraySize" : 1
  } ]
}