{
  "name" : "WorldMapContinent",
  "build" : 3368,
  "fields" : [ {
    "name" : "ID",
    "type" : "int",
    "index" : true,
    "arraySize" : 1
  }, {
    "name" : "MapID",
    "type" : "int",
    "index" : false,
    "arraySize" : 1
  }, {
    "name" : "LeftBoundary",
    "type" : "int",
    "index" : false,
    "arraySize" : 1
  }, {
    "name" : "RightBoundary",
    "type" : "int",
    "index" : false,
    "arraySize" : 1
  }, {
    "name" : "TopBoundary",
    "type" : "int",
    "index" : false,
    "arraySize" : 1
  }, {
    "name" : "BottomBoundary",
    "type" : "int",
    "index" : false,
    "arraySize" : 1
  }, {
    "name" : "ContinentOffsetX",
    "type" : "float",
    "index" : false,
    "arraySize" : 1
  }, {
    "name" : "ContinentOffsetY",
    "type" : "float",
    "index" : false,
    "arraySize" : 1
  } ]
}