{
  "name" : "World_PVP_Area",
  "build" : 26231,
  "fields" : [ {
    "name" : "ID",
    "type" : "int",
    "index" : true,
    "arraySize" : 1
  }, {
    "name" : "AreaId",
    "type" : "ushort",
    "index" : false,
    "arraySize" : 1
  }, {
    "name" : "NextTimeWorldstate",
    "type" : "ushort",
    "index" : false,
    "arraySize" : 1
  }, {
    "name" : "GameTimeWorldstate",
    "type" : "ushort",
    "index" : false,
    "arraySize" : 1
  }, {
    "name" : "BattlePopulateTime",
    "type" : "ushort",
    "index" : false,
    "arraySize" : 1
  }, {
    "name" : "MapId",
    "type" : "ushort",
    "index" : false,
    "arraySize" : 1
  }, {
    "name" : "MinLevel",
    "type" : "byte",
    "index" : false,
    "arraySize" : 1
  }, {
    "name" : "MaxLevel",
    "type" : "byte",
    "index" : false,
    "arraySize" : 1
  } ]
}