{
  "name" : "WorldSafeLocs",
  "build" : 3368,
  "fields" : [ {
    "name" : "ID",
    "type" : "int",
    "index" : true,
    "arraySize" : 1
  }, {
    "name" : "Continent",
    "type" : "int",
    "index" : false,
    "arraySize" : 1
  }, {
    "name" : "LocX",
    "type" : "float",
    "index" : false,
    "arraySize" : 1
  }, {
    "name" : "LocY",
    "type" : "float",
    "index" : false,
    "arraySize" : 1
  }, {
    "name" : "LocZ",
    "type" : "float",
    "index" : false,
    "arraySize" : 1
  }, {
    "name" : "AreaName",
    "type" : "loc",
    "index" : false,
    "arraySize" : 1
  } ]
}