{
  "name" : "WorldMapContinent",
  "build" : 22578,
  "fields" : [ {
    "name" : "ID",
    "type" : "int",
    "index" : true,
    "arraySize" : 1
  }, {
    "name" : "Field00",
    "type" : "float",
    "index" : false,
    "arraySize" : 1
  }, {
    "name" : "Field08",
    "type" : "float",
    "index" : false,
    "arraySize" : 1
  }, {
    "name" : "Field0C",
    "type" : "float",
    "index" : false,
    "arraySize" : 1
  }, {
    "name" : "Field14",
    "type" : "float",
    "index" : false,
    "arraySize" : 1
  }, {
    "name" : "Field1C",
    "type" : "ushort",
    "index" : false,
    "arraySize" : 1
  }, {
    "name" : "Field1E",
    "type" : "ushort",
    "index" : false,
    "arraySize" : 1
  }, {
    "name" : "Field20",
    "type" : "byte",
    "index" : false,
    "arraySize" : 1
  }, {
    "name" : "Field21",
    "type" : "byte",
    "index" : false,
    "arraySize" : 1
  }, {
    "name" : "Field22",
    "type" : "byte",
    "index" : false,
    "arraySize" : 1
  }, {
    "name" : "Field23",
    "type" : "byte",
    "index" : false,
    "arraySize" : 1
  }, {
    "name" : "Field24",
    "type" : "byte",
    "index" : false,
    "arraySize" : 1
  } ]
}