{
  "name" : "WorldMapOverlay",
  "build" : 21742,
  "fields" : [ {
    "name" : "ID",
    "type" : "int",
    "index" : true,
    "arraySize" : 1
  }, {
    "name" : "MapAreaID",
    "type" : "int",
    "index" : false,
    "arraySize" : 1
  }, {
    "name" : "AreaID",
    "type" : "int",
    "index" : false,
    "arraySize" : 1
  }, {
    "name" : "TextureName",
    "type" : "string",
    "index" : false,
    "arraySize" : 1
  }, {
    "name" : "TextureWidth",
    "type" : "int",
    "index" : false,
    "arraySize" : 1
  }, {
    "name" : "TextureHeight",
    "type" : "int",
    "index" : false,
    "arraySize" : 1
  }, {
    "name" : "OffsetX",
    "type" : "int",
    "index" : false,
    "arraySize" : 1
  }, {
    "name" : "OffsetY",
    "type" : "int",
    "index" : false,
    "arraySize" : 1
  }, {
    "name" : "HitRectTop",
    "type" : "int",
    "index" : false,
    "arraySize" : 1
  }, {
    "name" : "HitRectLeft",
    "type" : "int",
    "index" : false,
    "arraySize" : 1
  }, {
    "name" : "HitRectBottom",
    "type" : "int",
    "index" : false,
    "arraySize" : 1
  }, {
    "name" : "HitRectRight",
    "type" : "int",
    "index" : false,
    "arraySize" : 1
  }, {
    "name" : "PlayerConditionID",
    "type" : "int",
    "index" : false,
    "arraySize" : 1
  } ]
}