{
  "name" : "WorldEffect",
  "build" : 21742,
  "fields" : [ {
    "name" : "ID",
    "type" : "int",
    "index" : true,
    "arraySize" : 1
  }, {
    "name" : "TargetType",
    "type" : "int",
    "index" : false,
    "arraySize" : 1
  }, {
    "name" : "TargetAsset",
    "type" : "int",
    "index" : false,
    "arraySize" : 1
  }, {
    "name" : "QuestFeedbackEffectID",
    "type" : "int",
    "index" : false,
    "arraySize" : 1
  }, {
    "name" : "PlayerConditionID",
    "type" : "int",
    "index" : false,
    "arraySize" : 1
  }, {
    "name" : "CombatConditionID",
    "type" : "int",
    "index" : false,
    "arraySize" : 1
  }, {
    "name" : "WhenToDisplay",
    "type" : "int",
    "index" : false,
    "arraySize" : 1
  } ]
}