{
  "name" : "WorldMapArea",
  "build" : 23835,
  "fields" : [ {
    "name" : "AreaName",
    "type" : "string",
    "index" : false,
    "arraySize" : 1
  }, {
    "name" : "LocLeft",
    "type" : "float",
    "index" : false,
    "arraySize" : 1
  }, {
    "name" : "LocRight",
    "type" : "float",
    "index" : false,
    "arraySize" : 1
  }, {
    "name" : "LocTop",
    "type" : "float",
    "index" : false,
    "arraySize" : 1
  }, {
    "name" : "LocBottom",
    "type" : "float",
    "index" : false,
    "arraySize" : 1
  }, {
    "name" : "MapID",
    "type" : "ushort",
    "index" : false,
    "arraySize" : 1
  }, {
    "name" : "AreaID",
    "type" : "ushort",
    "index" : false,
    "arraySize" : 1
  }, {
    "name" : "DisplayMapID",
    "type" : "ushort",
    "index" : false,
    "arraySize" : 1
  }, {
    "name" : "DefaultDungeonFloor",
    "type" : "ushort",
    "index" : false,
    "arraySize" : 1
  }, {
    "name" : "ParentWorldMapID",
    "type" : "ushort",
    "index" : false,
    "arraySize" : 1
  }, {
    "name" : "Flags",
    "type" : "ushort",
    "index" : false,
    "arraySize" : 1
  }, {
    "name" : "LevelRangeMin",
    "type" : "byte",
    "index" : false,
    "arraySize" : 1
  }, {
    "name" : "LevelRangeMax",
    "type" : "byte",
    "index" : false,
    "arraySize" : 1
  }, {
    "name" : "BountySetID",
    "type" : "byte",
    "index" : false,
    "arraySize" : 1
  }, {
    "name" : "BountyBoardLocation",
    "type" : "byte",
    "index" : false,
    "arraySize" : 1
  }, {
    "name" : "ID",
    "type" : "int",
    "index" : true,
    "arraySize" : 1
  }, {
    "name" : "PlayerConditionID",
    "type" : "uint",
    "index" : false,
    "arraySize" : 1
  } ]
}