{
  "name" : "WorldMapOverlay",
  "build" : 22578,
  "fields" : [ {
    "name" : "ID",
    "type" : "int",
    "index" : true,
    "arraySize" : 1
  }, {
    "name" : "Field00",
    "type" : "string",
    "index" : false,
    "arraySize" : 1
  }, {
    "name" : "Field04",
    "type" : "ushort",
    "index" : false,
    "arraySize" : 1
  }, {
    "name" : "Field06",
    "type" : "ushort",
    "index" : false,
    "arraySize" : 1
  }, {
    "name" : "Field08",
    "type" : "int",
    "index" : false,
    "arraySize" : 1
  }, {
    "name" : "Field0C",
    "type" : "int",
    "index" : false,
    "arraySize" : 1
  }, {
    "name" : "Field1C",
    "type" : "int",
    "index" : false,
    "arraySize" : 1
  }, {
    "name" : "Field20",
    "type" : "int",
    "index" : false,
    "arraySize" : 1
  }, {
    "name" : "Field24",
    "type" : "int",
    "index" : false,
    "arraySize" : 1
  }, {
    "name" : "Field28",
    "type" : "int",
    "index" : false,
    "arraySize" : 1
  }, {
    "name" : "Field2C",
    "type" : "int",
    "index" : false,
    "arraySize" : 1
  }, {
    "name" : "Field30",
    "type" : "int",
    "index" : false,
    "arraySize" : 1
  }, {
    "name" : "Field34",
    "type" : "int",
    "index" : false,
    "arraySize" : 1
  }, {
    "name" : "Field38",
    "type" : "int",
    "index" : false,
    "arraySize" : 1
  } ]
}