{
  "name" : "WorldStateUI",
  "build" : 26231,
  "fields" : [ {
    "name" : "Icon",
    "type" : "string",
    "index" : false,
    "arraySize" : 1
  }, {
    "name" : "ExtendedUI",
    "type" : "string",
    "index" : false,
    "arraySize" : 1
  }, {
    "name" : "DynamicTooltip",
    "type" : "string",
    "index" : false,
    "arraySize" : 1
  }, {
    "name" : "String",
    "type" : "string",
    "index" : false,
    "arraySize" : 1
  }, {
    "name" : "Tooltip",
    "type" : "string",
    "index" : false,
    "arraySize" : 1
  }, {
    "name" : "MapId",
    "type" : "ushort",
    "index" : false,
    "arraySize" : 1
  }, {
    "name" : "AreaId",
    "type" : "ushort",
    "index" : false,
    "arraySize" : 1
  }, {
    "name" : "PhaseId",
    "type" : "ushort",
    "index" : false,
    "arraySize" : 1
  }, {
    "name" : "PhaseGroupId",
    "type" : "ushort",
    "index" : false,
    "arraySize" : 1
  }, {
    "name" : "StateVariable",
    "type" : "ushort",
    "index" : false,
    "arraySize" : 1
  }, {
    "name" : "ExtendedUIStateVariable",
    "type" : "ushort",
    "index" : false,
    "arraySize" : 1
  }, {
    "name" : "OrderIndex",
    "type" : "byte",
    "index" : false,
    "arraySize" : 1
  }, {
    "name" : "PhaseUseFlags",
    "type" : "byte",
    "index" : false,
    "arraySize" : 1
  }, {
    "name" : "Type",
    "type" : "byte",
    "index" : false,
    "arraySize" : 1
  }, {
    "name" : "ID",
    "type" : "int",
    "index" : true,
    "arraySize" : 1
  }, {
    "name" : "DynamicIconFileId",
    "type" : "int",
    "index" : false,
    "arraySize" : 1
  }, {
    "name" : "DynamicFlashIconFileId",
    "type" : "int",
    "index" : false,
    "arraySize" : 1
  } ]
}