{
  "name" : "WorldMapTransforms",
  "build" : 21742,
  "fields" : [ {
    "name" : "ID",
    "type" : "int",
    "index" : true,
    "arraySize" : 1
  }, {
    "name" : "MapID",
    "type" : "int",
    "index" : false,
    "arraySize" : 1
  }, {
    "name" : "RegionMin",
    "type" : "float",
    "index" : false,
    "arraySize" : 1
  }, {
    "name" : "RegionMax",
    "type" : "float",
    "index" : false,
    "arraySize" : 1
  }, {
    "name" : "NewMapID",
    "type" : "int",
    "index" : false,
    "arraySize" : 1
  }, {
    "name" : "RegionOffset",
    "type" : "float",
    "index" : false,
    "arraySize" : 1
  }, {
    "name" : "NewDungeonMapID",
    "type" : "int",
    "index" : false,
    "arraySize" : 1
  }, {
    "name" : "Flags",
    "type" : "int",
    "index" : false,
    "arraySize" : 1
  }, {
    "name" : "NewAreaID",
    "type" : "int",
    "index" : false,
    "arraySize" : 1
  }, {
    "name" : "RegionScale",
    "type" : "float",
    "index" : false,
    "arraySize" : 1
  } ]
}