{
  "name" : "WorldChunkSounds",
  "build" : 21742,
  "fields" : [ {
    "name" : "ID",
    "type" : "int",
    "index" : true,
    "arraySize" : 1
  }, {
    "name" : "MapID",
    "type" : "int",
    "index" : false,
    "arraySize" : 1
  }, {
    "name" : "ChunkX",
    "type" : "int",
    "index" : false,
    "arraySize" : 1
  }, {
    "name" : "ChunkY",
    "type" : "int",
    "index" : false,
    "arraySize" : 1
  }, {
    "name" : "SubchunkX",
    "type" : "int",
    "index" : false,
    "arraySize" : 1
  }, {
    "name" : "SubchunkY",
    "type" : "int",
    "index" : false,
    "arraySize" : 1
  }, {
    "name" : "SoundOverrideID",
    "type" : "int",
    "index" : false,
    "arraySize" : 1
  } ]
}