{
  "name" : "ZoneMusic",
  "build" : 3368,
  "fields" : [ {
    "name" : "ID",
    "type" : "int",
    "index" : true,
    "arraySize" : 1
  }, {
    "name" : "VolumeFloat",
    "type" : "float",
    "index" : false,
    "arraySize" : 1
  }, {
    "name" : "MusicFile",
    "type" : "string",
    "index" : false,
    "arraySize" : 1
  }, {
    "name" : "SilenceIntervalMin",
    "type" : "int",
    "index" : false,
    "arraySize" : 1
  }, {
    "name" : "SilenceIntervalMax",
    "type" : "int",
    "index" : false,
    "arraySize" : 1
  }, {
    "name" : "SegmentLength",
    "type" : "int",
    "index" : false,
    "arraySize" : 1
  }, {
    "name" : "SegmentPlayMin",
    "type" : "int",
    "index" : false,
    "arraySize" : 1
  }, {
    "name" : "SegmentPlayMax",
    "type" : "int",
    "index" : false,
    "arraySize" : 1
  }, {
    "name" : "Sounds",
    "type" : "int",
    "index" : false,
    "arraySize" : 1
  } ]
}