{
  "name" : "ZoneMusic",
  "build" : 24492,
  "fields" : [ {
    "name" : "ID",
    "type" : "int",
    "index" : true,
    "arraySize" : 1
  }, {
    "name" : "Field04",
    "type" : "string",
    "index" : false,
    "arraySize" : 1
  }, {
    "name" : "Field08",
    "type" : "uint",
    "index" : false,
    "arraySize" : 1
  }, {
    "name" : "Field10",
    "type" : "uint",
    "index" : false,
    "arraySize" : 1
  }, {
    "name" : "Field18",
    "type" : "int",
    "index" : false,
    "arraySize" : 1
  } ]
}