{
  "name" : "ZoneIntroMusicTable",
  "build" : 26231,
  "fields" : [ {
    "name" : "ID",
    "type" : "int",
    "index" : true,
    "arraySize" : 1
  }, {
    "name" : "Name",
    "type" : "string",
    "index" : false,
    "arraySize" : 1
  }, {
    "name" : "MinDelayMinutes",
    "type" : "ushort",
    "index" : false,
    "arraySize" : 1
  }, {
    "name" : "Priority",
    "type" : "byte",
    "index" : false,
    "arraySize" : 1
  }, {
    "name" : "SoundId",
    "type" : "int",
    "index" : false,
    "arraySize" : 1
  } ]
}