{
  "name" : "ZoneMusic",
  "build" : 8606,
  "fields" : [ {
    "name" : "ID",
    "type" : "int",
    "index" : true,
    "arraySize" : 1
  }, {
    "name" : "SetName",
    "type" : "string",
    "index" : false,
    "arraySize" : 1
  }, {
    "name" : "SilenceIntervalMinDay",
    "type" : "uint",
    "index" : false,
    "arraySize" : 1
  }, {
    "name" : "SilenceIntervalMinNight",
    "type" : "uint",
    "index" : false,
    "arraySize" : 1
  }, {
    "name" : "SilenceIntervalMaxDay",
    "type" : "uint",
    "index" : false,
    "arraySize" : 1
  }, {
    "name" : "SilenceIntervalMaxNight",
    "type" : "uint",
    "index" : false,
    "arraySize" : 1
  }, {
    "name" : "SoundsDay",
    "type" : "int",
    "index" : false,
    "arraySize" : 1
  }, {
    "name" : "SoundsNight",
    "type" : "int",
    "index" : false,
    "arraySize" : 1
  } ]
}